<?xml version="1.0" encoding="UTF-8" standalone="no"?>
<!-- Created with Inkscape (http://www.inkscape.org/) -->

<svg
   width="1600"
   height="1024"
   viewBox="0 0 423.33334 270.93334"
   version="1.1"
   id="svg2759"
   inkscape:version="1.1.1 (3bf5ae0d25, 2021-09-20)"
   sodipodi:docname="src.svg"
   inkscape:export-filename="radial-slider.png"
   inkscape:export-xdpi="96"
   inkscape:export-ydpi="96"
   xmlns:inkscape="http://www.inkscape.org/namespaces/inkscape"
   xmlns:sodipodi="http://sodipodi.sourceforge.net/DTD/sodipodi-0.dtd"
   xmlns="http://www.w3.org/2000/svg"
   xmlns:svg="http://www.w3.org/2000/svg">
  <sodipodi:namedview
     id="namedview2761"
     pagecolor="#ffffff"
     bordercolor="#666666"
     borderopacity="1.0"
     inkscape:pageshadow="2"
     inkscape:pageopacity="1"
     inkscape:pagecheckerboard="0"
     inkscape:document-units="px"
     showgrid="false"
     units="px"
     inkscape:zoom="1"
     inkscape:cx="299"
     inkscape:cy="399"
     inkscape:window-width="1920"
     inkscape:window-height="1011"
     inkscape:window-x="0"
     inkscape:window-y="0"
     inkscape:window-maximized="1"
     inkscape:current-layer="layer1"
     inkscape:snap-bbox="true"
     inkscape:bbox-nodes="true"
     showguides="false">
    <inkscape:grid
       type="xygrid"
       id="grid5490"
       empspacing="4" />
  </sodipodi:namedview>
  <defs
     id="defs2756">
    <rect
       x="451.51562"
       y="266.07031"
       width="71.324219"
       height="59.535156"
       id="rect203400" />
  </defs>
  <g
     inkscape:label="UI"
     inkscape:groupmode="layer"
     id="layer1">
    <path
       id="path5139"
       style="display:inline;fill:#f8f7f7;fill-opacity:1;stroke:#d1cbc8;stroke-width:0.264583;stroke-linecap:square;stroke-miterlimit:4;stroke-dasharray:none;stroke-dashoffset:0;stroke-opacity:1"
       d="m 20.108345,40.348959 h 89.429175 c 1.38819,0 2.51353,1.190637 2.51353,2.513536 v 9.921882 H 17.065625 v -9.392698 c 0,-1.680448 1.362272,-3.04272 3.04272,-3.04272 z"
       sodipodi:nodetypes="sssccss" />
    <circle
       style="opacity:0.4;fill:#80746c;fill-opacity:0.516207;stroke:none;stroke-width:1.5875;stroke-linecap:square;stroke-linejoin:round;stroke-dashoffset:26.4;stroke-opacity:0"
       id="circle5147"
       cx="105.30413"
       cy="46.566696"
       r="2.9104445" />
    <path
       inkscape:connector-curvature="0"
       d="m 104.24621,45.507361 h 0.26458 c 0.003,-3.2e-5 0.005,-1.22e-4 0.008,0 0.0675,0.003 0.1349,0.03402 0.1819,0.08268 l 0.60358,0.603581 0.61185,-0.603581 c 0.0703,-0.06099 0.11818,-0.08083 0.1819,-0.08268 h 0.26459 v 0.264583 c 0,0.0758 -0.009,0.145693 -0.0661,0.198438 l -0.60358,0.60358 0.59531,0.595313 c 0.0498,0.04979 0.0744,0.119975 0.0744,0.190169 v 0.264583 h -0.26459 c -0.0702,-2e-6 -0.14038,-0.02463 -0.19017,-0.07441 l -0.60358,-0.60358 -0.60358,0.60358 c -0.0498,0.04979 -0.11998,0.07441 -0.19017,0.07441 h -0.26458 v -0.264583 c 0,-0.07019 0.0246,-0.140382 0.0744,-0.190169 l 0.60359,-0.595313 -0.60359,-0.60358 c -0.0557,-0.0515 -0.0802,-0.124156 -0.0744,-0.198438 z"
       id="path5149"
       style="color:#bebebe;font-style:normal;font-variant:normal;font-weight:normal;font-stretch:normal;font-size:medium;line-height:normal;font-family:'Andale Mono';-inkscape-font-specification:'Andale Mono';text-indent:0;text-align:start;text-decoration:none;text-decoration-line:none;letter-spacing:normal;word-spacing:normal;text-transform:none;writing-mode:lr-tb;direction:ltr;text-anchor:start;display:inline;overflow:visible;visibility:visible;fill:#2e3436;fill-opacity:1;fill-rule:nonzero;stroke:none;stroke-width:0.471289;marker:none;enable-background:new"
       sodipodi:nodetypes="ccccccccscccscscccscsccccc" />
    <path
       id="path6857"
       style="display:inline;fill:#ffffff;fill-opacity:1;stroke:#d1cbc8;stroke-width:0.264583;stroke-linecap:square;stroke-miterlimit:4;stroke-dasharray:none;stroke-dashoffset:0;stroke-opacity:1"
       d="m 20.108345,198.83441 h 89.429175 c 1.38819,0 2.51353,-1.19067 2.51353,-2.51353 V 52.784377 H 17.065625 V 195.79169 c 0,1.68045 1.362272,3.04272 3.04272,3.04272 z"
       sodipodi:nodetypes="sssccss" />
    <rect
       style="fill:#ffffff;fill-opacity:1;stroke:#deddda;stroke-width:0.264585;stroke-linecap:round;stroke-linejoin:round;stroke-miterlimit:4;stroke-dasharray:none;stroke-opacity:1"
       id="rect315610"
       width="88.635414"
       height="14.552084"
       x="20.240631"
       y="162.05734" />
    <circle
       style="opacity:1;fill:#f8f7f7;fill-opacity:1;stroke:#d1cbc8;stroke-width:0.264583;stroke-linecap:round;stroke-linejoin:round;stroke-miterlimit:4;stroke-dasharray:none;stroke-opacity:1"
       id="path7231"
       cx="64.558334"
       cy="111.12498"
       r="33.734375" />
    <circle
       style="opacity:1;fill:#ffffff;fill-opacity:1;stroke:#d1cbc8;stroke-width:0.264583;stroke-linecap:round;stroke-linejoin:round;stroke-miterlimit:4;stroke-dasharray:none;stroke-opacity:1"
       id="circle18760"
       cx="64.558334"
       cy="111.12498"
       r="23.944792" />
    <path
       style="opacity:1;fill:none;fill-opacity:1;stroke:#d1cbc8;stroke-width:8.46668;stroke-linecap:round;stroke-linejoin:round;stroke-miterlimit:4;stroke-dasharray:none;stroke-opacity:1"
       id="circle18924"
       sodipodi:type="arc"
       sodipodi:cx="64.558334"
       sodipodi:cy="111.12498"
       sodipodi:rx="28.839582"
       sodipodi:ry="28.839582"
       sodipodi:start="4.8157082"
       sodipodi:end="0.61487577"
       sodipodi:arc-type="arc"
       d="M 67.532719,82.439187 A 28.839582,28.839582 0 0 1 90.816822,99.199654 28.839582,28.839582 0 0 1 88.115806,127.76129"
       sodipodi:open="true" />
    <path
       style="opacity:1;fill:none;fill-opacity:1;stroke:#ffffff;stroke-width:7.9375;stroke-linecap:round;stroke-linejoin:round;stroke-miterlimit:4;stroke-dasharray:none;stroke-opacity:1"
       id="path19123"
       sodipodi:type="arc"
       sodipodi:cx="64.558334"
       sodipodi:cy="111.12498"
       sodipodi:rx="28.839582"
       sodipodi:ry="28.839582"
       sodipodi:start="4.8157082"
       sodipodi:end="0.61487577"
       sodipodi:arc-type="arc"
       d="M 67.532719,82.439187 A 28.839582,28.839582 0 0 1 90.816822,99.199654 28.839582,28.839582 0 0 1 88.115806,127.76129"
       sodipodi:open="true" />
    <path
       id="path20506"
       style="display:inline;fill:#f8f7f7;fill-opacity:1;stroke:#d1cbc8;stroke-width:0.264583;stroke-linecap:square;stroke-miterlimit:4;stroke-dasharray:none;stroke-dashoffset:0;stroke-opacity:1"
       d="m 219.07505,40.348959 h 89.4292 c 1.3882,0 2.5135,1.190637 2.5135,2.513536 v 9.921882 h -94.9854 v -9.392698 c 0,-1.680448 1.3623,-3.04272 3.0427,-3.04272 z"
       sodipodi:nodetypes="sssccss" />
    <circle
       style="opacity:0.4;fill:#80746c;fill-opacity:0.516207;stroke:none;stroke-width:1.5875;stroke-linecap:square;stroke-linejoin:round;stroke-dashoffset:26.4;stroke-opacity:0"
       id="circle20508"
       cx="304.27072"
       cy="46.566696"
       r="2.9104445" />
    <path
       inkscape:connector-curvature="0"
       d="m 303.21295,45.507361 h 0.2645 c 0,-3.2e-5 0.01,-1.22e-4 0.01,0 0.068,0.003 0.1349,0.03402 0.1819,0.08268 l 0.6036,0.603581 0.6119,-0.603581 c 0.07,-0.06099 0.1182,-0.08083 0.1819,-0.08268 h 0.2646 v 0.264583 c 0,0.0758 -0.01,0.145693 -0.066,0.198438 l -0.6036,0.60358 0.5953,0.595313 c 0.05,0.04979 0.074,0.119975 0.074,0.190169 v 0.264583 h -0.2646 c -0.07,-2e-6 -0.1404,-0.02463 -0.1902,-0.07441 l -0.6035,-0.60358 -0.6036,0.60358 c -0.05,0.04979 -0.12,0.07441 -0.1902,0.07441 h -0.2646 v -0.264583 c 0,-0.07019 0.025,-0.140382 0.074,-0.190169 l 0.6036,-0.595313 -0.6036,-0.60358 c -0.056,-0.0515 -0.08,-0.124156 -0.074,-0.198438 z"
       id="path20510"
       style="color:#bebebe;font-style:normal;font-variant:normal;font-weight:normal;font-stretch:normal;font-size:medium;line-height:normal;font-family:'Andale Mono';-inkscape-font-specification:'Andale Mono';text-indent:0;text-align:start;text-decoration:none;text-decoration-line:none;letter-spacing:normal;word-spacing:normal;text-transform:none;writing-mode:lr-tb;direction:ltr;text-anchor:start;display:inline;overflow:visible;visibility:visible;fill:#2e3436;fill-opacity:1;fill-rule:nonzero;stroke:none;stroke-width:0.471289;marker:none;enable-background:new"
       sodipodi:nodetypes="ccccccccscccscscccscsccccc" />
    <path
       id="path20512"
       style="display:inline;fill:#ffffff;fill-opacity:1;stroke:#d1cbc8;stroke-width:0.264583;stroke-linecap:square;stroke-miterlimit:4;stroke-dasharray:none;stroke-dashoffset:0;stroke-opacity:1"
       d="m 219.07505,198.83442 h 89.4292 c 1.3882,0 2.5135,-1.19067 2.5135,-2.51353 V 52.784377 h -94.9854 V 195.7917 c 0,1.68045 1.3623,3.04272 3.0427,3.04272 z"
       sodipodi:nodetypes="sssccss" />
    <circle
       style="opacity:1;fill:#f8f7f7;fill-opacity:1;stroke:#d1cbc8;stroke-width:0.264583;stroke-linecap:round;stroke-linejoin:round;stroke-miterlimit:4;stroke-dasharray:none;stroke-opacity:1"
       id="circle20514"
       cx="263.52502"
       cy="121.70832"
       r="33.734375" />
    <circle
       style="opacity:1;fill:#ffffff;fill-opacity:1;stroke:#d1cbc8;stroke-width:0.264583;stroke-linecap:round;stroke-linejoin:round;stroke-miterlimit:4;stroke-dasharray:none;stroke-opacity:1"
       id="circle20518"
       cx="263.52502"
       cy="121.70832"
       r="23.944792" />
    <text
       xml:space="preserve"
       style="font-style:normal;font-weight:normal;font-size:16.9333px;line-height:1.25;font-family:sans-serif;fill:#000000;fill-opacity:1;stroke:none;stroke-width:0.264583"
       x="250.2748"
       y="125.97131"
       id="text35349"><tspan
         sodipodi:role="line"
         id="tspan35347"
         style="font-style:normal;font-variant:normal;font-weight:300;font-stretch:normal;font-size:16.9333px;font-family:Cantarell;-inkscape-font-specification:'Cantarell Light';stroke-width:0.264583"
         x="250.2748"
         y="125.97131">140</tspan></text>
    <g
       id="g36703"
       transform="rotate(60,206.82312,181.77033)">
      <path
         style="opacity:1;fill:#ffffff;fill-opacity:1;stroke:#d1cbc8;stroke-width:0.290092;stroke-linecap:round;stroke-linejoin:round;stroke-miterlimit:4;stroke-dasharray:none;stroke-dashoffset:0;stroke-opacity:1"
         id="path20808"
         sodipodi:type="arc"
         sodipodi:cx="183.10429"
         sodipodi:cy="73.82119"
         sodipodi:rx="4.1003885"
         sodipodi:ry="4.0902219"
         sodipodi:start="4.8869219"
         sodipodi:end="4.8694686"
         sodipodi:open="true"
         sodipodi:arc-type="arc"
         d="m 183.81632,69.793108 a 4.1003885,4.0902219 0 0 1 3.32914,4.720759 4.1003885,4.0902219 0 0 1 -4.71793,3.34145 4.1003885,4.0902219 0 0 1 -3.3703,-4.6916 4.1003885,4.0902219 0 0 1 4.68851,-3.382392" />
      <path
         style="opacity:1;fill:none;fill-opacity:1;stroke:none;stroke-width:0.290092;stroke-linecap:round;stroke-linejoin:round;stroke-miterlimit:4;stroke-dasharray:none;stroke-dashoffset:0;stroke-opacity:1"
         id="path36699"
         sodipodi:type="arc"
         sodipodi:cx="183.10429"
         sodipodi:cy="131.50034"
         sodipodi:rx="4.1003885"
         sodipodi:ry="4.0902219"
         sodipodi:start="4.8869219"
         sodipodi:end="4.8694686"
         sodipodi:open="true"
         sodipodi:arc-type="arc"
         d="m 183.81632,127.47225 a 4.1003885,4.0902219 0 0 1 3.32914,4.72076 4.1003885,4.0902219 0 0 1 -4.71793,3.34145 4.1003885,4.0902219 0 0 1 -3.3703,-4.6916 4.1003885,4.0902219 0 0 1 4.68851,-3.38239" />
    </g>
    <g
       id="g37301"
       transform="rotate(150,63.424017,106.89167)">
      <path
         style="fill:none;stroke:#deddda;stroke-width:0.529167;stroke-linecap:butt;stroke-linejoin:miter;stroke-miterlimit:4;stroke-dasharray:none;stroke-opacity:1"
         d="m 64.558335,79.375002 v 2.116667"
         id="path36774"
         sodipodi:nodetypes="cc" />
      <path
         style="fill:none;stroke:#deddda;stroke-width:0.529167;stroke-linecap:butt;stroke-linejoin:miter;stroke-miterlimit:4;stroke-dasharray:none;stroke-opacity:1"
         d="m 64.558335,123.82499 v 2.11667"
         id="path36875"
         sodipodi:nodetypes="cc" />
      <path
         style="fill:none;stroke:#deddda;stroke-width:0.529167;stroke-linecap:butt;stroke-linejoin:miter;stroke-miterlimit:4;stroke-dasharray:none;stroke-opacity:1"
         d="m 87.841663,102.65833 h -1.5875"
         id="path36899"
         sodipodi:nodetypes="cc" />
      <path
         style="fill:none;stroke:#deddda;stroke-width:0.529167;stroke-linecap:butt;stroke-linejoin:miter;stroke-miterlimit:4;stroke-dasharray:none;stroke-opacity:1"
         d="m 42.862505,102.65833 h -1.5875"
         id="path36901"
         sodipodi:nodetypes="cc" />
      <path
         style="fill:none;stroke:#deddda;stroke-width:0.529167;stroke-linecap:butt;stroke-linejoin:miter;stroke-miterlimit:4;stroke-dasharray:none;stroke-opacity:1"
         d="M 87.841663,102.65833 H 85.724996"
         id="path36905"
         sodipodi:nodetypes="cc" />
      <path
         style="fill:none;stroke:#deddda;stroke-width:0.529167;stroke-linecap:butt;stroke-linejoin:miter;stroke-miterlimit:4;stroke-dasharray:none;stroke-opacity:1"
         d="M 43.391672,102.65833 H 41.275005"
         id="path36907"
         sodipodi:nodetypes="cc" />
      <path
         style="fill:none;stroke:#deddda;stroke-width:0.529167;stroke-linecap:butt;stroke-linejoin:miter;stroke-miterlimit:4;stroke-dasharray:none;stroke-opacity:1"
         d="m 84.722289,91.016666 -1.833088,1.058333"
         id="path36917"
         sodipodi:nodetypes="cc" />
      <path
         style="fill:none;stroke:#deddda;stroke-width:0.529167;stroke-linecap:butt;stroke-linejoin:miter;stroke-miterlimit:4;stroke-dasharray:none;stroke-opacity:1"
         d="m 46.227467,113.24166 -1.833087,1.05833"
         id="path36919"
         sodipodi:nodetypes="cc" />
      <path
         style="fill:none;stroke:#deddda;stroke-width:0.529167;stroke-linecap:butt;stroke-linejoin:miter;stroke-miterlimit:4;stroke-dasharray:none;stroke-opacity:1"
         d="m 44.394379,91.016666 1.833088,1.058333"
         id="path36923"
         sodipodi:nodetypes="cc" />
      <path
         style="fill:none;stroke:#deddda;stroke-width:0.529167;stroke-linecap:butt;stroke-linejoin:miter;stroke-miterlimit:4;stroke-dasharray:none;stroke-opacity:1"
         d="m 82.889201,113.24166 1.833087,1.05833"
         id="path36925"
         sodipodi:nodetypes="cc" />
      <path
         style="fill:none;stroke:#deddda;stroke-width:0.529167;stroke-linecap:butt;stroke-linejoin:miter;stroke-miterlimit:4;stroke-dasharray:none;stroke-opacity:1"
         d="M 76.199999,122.82228 75.141666,120.9892"
         id="path37259"
         sodipodi:nodetypes="cc" />
      <path
         style="fill:none;stroke:#deddda;stroke-width:0.529167;stroke-linecap:butt;stroke-linejoin:miter;stroke-miterlimit:4;stroke-dasharray:none;stroke-opacity:1"
         d="M 53.975003,84.327462 52.91667,82.494375"
         id="path37261"
         sodipodi:nodetypes="cc" />
      <path
         style="fill:none;stroke:#deddda;stroke-width:0.529167;stroke-linecap:butt;stroke-linejoin:miter;stroke-miterlimit:4;stroke-dasharray:none;stroke-opacity:1"
         d="m 52.91667,122.82228 1.058333,-1.83309"
         id="path37267"
         sodipodi:nodetypes="cc" />
      <path
         style="fill:none;stroke:#deddda;stroke-width:0.529167;stroke-linecap:butt;stroke-linejoin:miter;stroke-miterlimit:4;stroke-dasharray:none;stroke-opacity:1"
         d="m 75.141666,84.327458 1.058333,-1.833087"
         id="path37269"
         sodipodi:nodetypes="cc" />
    </g>
    <g
       id="g37361"
       style="stroke-width:0.264583;stroke-miterlimit:4;stroke-dasharray:none"
       transform="rotate(22.5,43.275928,106.89167)">
      <path
         style="fill:none;stroke:#deddda;stroke-width:0.264583;stroke-linecap:butt;stroke-linejoin:miter;stroke-miterlimit:4;stroke-dasharray:none;stroke-opacity:1"
         d="m 64.558335,79.375002 v 1.5875"
         id="path37333"
         sodipodi:nodetypes="cc" />
      <path
         style="fill:none;stroke:#deddda;stroke-width:0.264583;stroke-linecap:butt;stroke-linejoin:miter;stroke-miterlimit:4;stroke-dasharray:none;stroke-opacity:1"
         d="m 64.558335,124.35416 v 1.5875"
         id="path37335"
         sodipodi:nodetypes="cc" />
      <path
         style="fill:none;stroke:#deddda;stroke-width:0.264583;stroke-linecap:butt;stroke-linejoin:miter;stroke-miterlimit:4;stroke-dasharray:none;stroke-opacity:1"
         d="m 87.841663,102.65833 h -1.5875"
         id="path37337"
         sodipodi:nodetypes="cc" />
      <path
         style="fill:none;stroke:#deddda;stroke-width:0.264583;stroke-linecap:butt;stroke-linejoin:miter;stroke-miterlimit:4;stroke-dasharray:none;stroke-opacity:1"
         d="m 42.862505,102.65833 h -1.5875"
         id="path37339"
         sodipodi:nodetypes="cc" />
      <path
         style="fill:none;stroke:#deddda;stroke-width:0.264583;stroke-linecap:butt;stroke-linejoin:miter;stroke-miterlimit:4;stroke-dasharray:none;stroke-opacity:1"
         d="m 87.841663,102.65833 h -1.5875"
         id="path37341"
         sodipodi:nodetypes="cc" />
      <path
         style="fill:none;stroke:#deddda;stroke-width:0.264583;stroke-linecap:butt;stroke-linejoin:miter;stroke-miterlimit:4;stroke-dasharray:none;stroke-opacity:1"
         d="m 42.862505,102.65833 h -1.5875"
         id="path37343"
         sodipodi:nodetypes="cc" />
      <path
         style="fill:none;stroke:#deddda;stroke-width:0.264583;stroke-linecap:butt;stroke-linejoin:miter;stroke-miterlimit:4;stroke-dasharray:none;stroke-opacity:1"
         d="m 84.722289,91.016666 -1.374816,0.79375"
         id="path37345"
         sodipodi:nodetypes="cc" />
      <path
         style="fill:none;stroke:#deddda;stroke-width:0.264583;stroke-linecap:butt;stroke-linejoin:miter;stroke-miterlimit:4;stroke-dasharray:none;stroke-opacity:1"
         d="m 45.769195,113.50624 -1.374815,0.79375"
         id="path37347"
         sodipodi:nodetypes="cc" />
      <path
         style="fill:none;stroke:#deddda;stroke-width:0.264583;stroke-linecap:butt;stroke-linejoin:miter;stroke-miterlimit:4;stroke-dasharray:none;stroke-opacity:1"
         d="m 44.394379,91.016666 1.374816,0.79375"
         id="path37349"
         sodipodi:nodetypes="cc" />
      <path
         style="fill:none;stroke:#deddda;stroke-width:0.264583;stroke-linecap:butt;stroke-linejoin:miter;stroke-miterlimit:4;stroke-dasharray:none;stroke-opacity:1"
         d="m 83.347473,113.50624 1.374815,0.79375"
         id="path37351"
         sodipodi:nodetypes="cc" />
      <path
         style="fill:none;stroke:#deddda;stroke-width:0.264583;stroke-linecap:butt;stroke-linejoin:miter;stroke-miterlimit:4;stroke-dasharray:none;stroke-opacity:1"
         d="m 76.199999,122.82228 -0.79375,-1.37481"
         id="path37353"
         sodipodi:nodetypes="cc" />
      <path
         style="fill:none;stroke:#deddda;stroke-width:0.264583;stroke-linecap:butt;stroke-linejoin:miter;stroke-miterlimit:4;stroke-dasharray:none;stroke-opacity:1"
         d="M 53.71042,83.86919 52.91667,82.494375"
         id="path37355"
         sodipodi:nodetypes="cc" />
      <path
         style="fill:none;stroke:#deddda;stroke-width:0.264583;stroke-linecap:butt;stroke-linejoin:miter;stroke-miterlimit:4;stroke-dasharray:none;stroke-opacity:1"
         d="m 52.91667,122.82228 0.79375,-1.37482"
         id="path37357"
         sodipodi:nodetypes="cc" />
      <path
         style="fill:none;stroke:#deddda;stroke-width:0.264583;stroke-linecap:butt;stroke-linejoin:miter;stroke-miterlimit:4;stroke-dasharray:none;stroke-opacity:1"
         d="m 75.406249,83.869186 0.79375,-1.374815"
         id="path37359"
         sodipodi:nodetypes="cc" />
    </g>
    <g
       id="g41756"
       style="stroke-width:0.264583;stroke-miterlimit:4;stroke-dasharray:none"
       transform="rotate(37.5,52.087334,106.89167)">
      <path
         style="fill:none;stroke:#deddda;stroke-width:0.264583;stroke-linecap:butt;stroke-linejoin:miter;stroke-miterlimit:4;stroke-dasharray:none;stroke-opacity:1"
         d="m 64.558335,79.375002 v 1.5875"
         id="path41728"
         sodipodi:nodetypes="cc" />
      <path
         style="fill:none;stroke:#deddda;stroke-width:0.264583;stroke-linecap:butt;stroke-linejoin:miter;stroke-miterlimit:4;stroke-dasharray:none;stroke-opacity:1"
         d="m 64.558335,124.35416 v 1.5875"
         id="path41730"
         sodipodi:nodetypes="cc" />
      <path
         style="fill:none;stroke:#deddda;stroke-width:0.264583;stroke-linecap:butt;stroke-linejoin:miter;stroke-miterlimit:4;stroke-dasharray:none;stroke-opacity:1"
         d="m 87.841663,102.65833 h -1.5875"
         id="path41732"
         sodipodi:nodetypes="cc" />
      <path
         style="fill:none;stroke:#deddda;stroke-width:0.264583;stroke-linecap:butt;stroke-linejoin:miter;stroke-miterlimit:4;stroke-dasharray:none;stroke-opacity:1"
         d="m 42.862505,102.65833 h -1.5875"
         id="path41734"
         sodipodi:nodetypes="cc" />
      <path
         style="fill:none;stroke:#deddda;stroke-width:0.264583;stroke-linecap:butt;stroke-linejoin:miter;stroke-miterlimit:4;stroke-dasharray:none;stroke-opacity:1"
         d="m 87.841663,102.65833 h -1.5875"
         id="path41736"
         sodipodi:nodetypes="cc" />
      <path
         style="fill:none;stroke:#deddda;stroke-width:0.264583;stroke-linecap:butt;stroke-linejoin:miter;stroke-miterlimit:4;stroke-dasharray:none;stroke-opacity:1"
         d="m 42.862505,102.65833 h -1.5875"
         id="path41738"
         sodipodi:nodetypes="cc" />
      <path
         style="fill:none;stroke:#deddda;stroke-width:0.264583;stroke-linecap:butt;stroke-linejoin:miter;stroke-miterlimit:4;stroke-dasharray:none;stroke-opacity:1"
         d="m 84.722289,91.016666 -1.374816,0.79375"
         id="path41740"
         sodipodi:nodetypes="cc" />
      <path
         style="fill:none;stroke:#deddda;stroke-width:0.264583;stroke-linecap:butt;stroke-linejoin:miter;stroke-miterlimit:4;stroke-dasharray:none;stroke-opacity:1"
         d="m 45.769195,113.50624 -1.374815,0.79375"
         id="path41742"
         sodipodi:nodetypes="cc" />
      <path
         style="fill:none;stroke:#deddda;stroke-width:0.264583;stroke-linecap:butt;stroke-linejoin:miter;stroke-miterlimit:4;stroke-dasharray:none;stroke-opacity:1"
         d="m 44.394379,91.016666 1.374816,0.79375"
         id="path41744"
         sodipodi:nodetypes="cc" />
      <path
         style="fill:none;stroke:#deddda;stroke-width:0.264583;stroke-linecap:butt;stroke-linejoin:miter;stroke-miterlimit:4;stroke-dasharray:none;stroke-opacity:1"
         d="m 83.347473,113.50624 1.374815,0.79375"
         id="path41746"
         sodipodi:nodetypes="cc" />
      <path
         style="fill:none;stroke:#deddda;stroke-width:0.264583;stroke-linecap:butt;stroke-linejoin:miter;stroke-miterlimit:4;stroke-dasharray:none;stroke-opacity:1"
         d="m 76.199999,122.82228 -0.79375,-1.37481"
         id="path41748"
         sodipodi:nodetypes="cc" />
      <path
         style="fill:none;stroke:#deddda;stroke-width:0.264583;stroke-linecap:butt;stroke-linejoin:miter;stroke-miterlimit:4;stroke-dasharray:none;stroke-opacity:1"
         d="M 53.71042,83.86919 52.91667,82.494375"
         id="path41750"
         sodipodi:nodetypes="cc" />
      <path
         style="fill:none;stroke:#deddda;stroke-width:0.264583;stroke-linecap:butt;stroke-linejoin:miter;stroke-miterlimit:4;stroke-dasharray:none;stroke-opacity:1"
         d="m 52.91667,122.82228 0.79375,-1.37482"
         id="path41752"
         sodipodi:nodetypes="cc" />
      <path
         style="fill:none;stroke:#deddda;stroke-width:0.264583;stroke-linecap:butt;stroke-linejoin:miter;stroke-miterlimit:4;stroke-dasharray:none;stroke-opacity:1"
         d="m 75.406249,83.869186 0.79375,-1.374815"
         id="path41754"
         sodipodi:nodetypes="cc" />
    </g>
    <g
       id="g41786"
       style="stroke-width:0.264583;stroke-miterlimit:4;stroke-dasharray:none"
       transform="rotate(45,54.338164,106.89167)">
      <path
         style="fill:none;stroke:#deddda;stroke-width:0.264583;stroke-linecap:butt;stroke-linejoin:miter;stroke-miterlimit:4;stroke-dasharray:none;stroke-opacity:1"
         d="m 64.558335,79.375002 v 1.5875"
         id="path41758"
         sodipodi:nodetypes="cc" />
      <path
         style="fill:none;stroke:#deddda;stroke-width:0.264583;stroke-linecap:butt;stroke-linejoin:miter;stroke-miterlimit:4;stroke-dasharray:none;stroke-opacity:1"
         d="m 64.558335,124.35416 v 1.5875"
         id="path41760"
         sodipodi:nodetypes="cc" />
      <path
         style="fill:none;stroke:#deddda;stroke-width:0.264583;stroke-linecap:butt;stroke-linejoin:miter;stroke-miterlimit:4;stroke-dasharray:none;stroke-opacity:1"
         d="m 87.841663,102.65833 h -1.5875"
         id="path41762"
         sodipodi:nodetypes="cc" />
      <path
         style="fill:none;stroke:#deddda;stroke-width:0.264583;stroke-linecap:butt;stroke-linejoin:miter;stroke-miterlimit:4;stroke-dasharray:none;stroke-opacity:1"
         d="m 42.862505,102.65833 h -1.5875"
         id="path41764"
         sodipodi:nodetypes="cc" />
      <path
         style="fill:none;stroke:#deddda;stroke-width:0.264583;stroke-linecap:butt;stroke-linejoin:miter;stroke-miterlimit:4;stroke-dasharray:none;stroke-opacity:1"
         d="m 87.841663,102.65833 h -1.5875"
         id="path41766"
         sodipodi:nodetypes="cc" />
      <path
         style="fill:none;stroke:#deddda;stroke-width:0.264583;stroke-linecap:butt;stroke-linejoin:miter;stroke-miterlimit:4;stroke-dasharray:none;stroke-opacity:1"
         d="m 42.862505,102.65833 h -1.5875"
         id="path41768"
         sodipodi:nodetypes="cc" />
      <path
         style="fill:none;stroke:#deddda;stroke-width:0.264583;stroke-linecap:butt;stroke-linejoin:miter;stroke-miterlimit:4;stroke-dasharray:none;stroke-opacity:1"
         d="m 84.722289,91.016666 -1.374816,0.79375"
         id="path41770"
         sodipodi:nodetypes="cc" />
      <path
         style="fill:none;stroke:#deddda;stroke-width:0.264583;stroke-linecap:butt;stroke-linejoin:miter;stroke-miterlimit:4;stroke-dasharray:none;stroke-opacity:1"
         d="m 45.769195,113.50624 -1.374815,0.79375"
         id="path41772"
         sodipodi:nodetypes="cc" />
      <path
         style="fill:none;stroke:#deddda;stroke-width:0.264583;stroke-linecap:butt;stroke-linejoin:miter;stroke-miterlimit:4;stroke-dasharray:none;stroke-opacity:1"
         d="m 44.394379,91.016666 1.374816,0.79375"
         id="path41774"
         sodipodi:nodetypes="cc" />
      <path
         style="fill:none;stroke:#deddda;stroke-width:0.264583;stroke-linecap:butt;stroke-linejoin:miter;stroke-miterlimit:4;stroke-dasharray:none;stroke-opacity:1"
         d="m 83.347473,113.50624 1.374815,0.79375"
         id="path41776"
         sodipodi:nodetypes="cc" />
      <path
         style="fill:none;stroke:#deddda;stroke-width:0.264583;stroke-linecap:butt;stroke-linejoin:miter;stroke-miterlimit:4;stroke-dasharray:none;stroke-opacity:1"
         d="m 76.199999,122.82228 -0.79375,-1.37481"
         id="path41778"
         sodipodi:nodetypes="cc" />
      <path
         style="fill:none;stroke:#deddda;stroke-width:0.264583;stroke-linecap:butt;stroke-linejoin:miter;stroke-miterlimit:4;stroke-dasharray:none;stroke-opacity:1"
         d="M 53.71042,83.86919 52.91667,82.494375"
         id="path41780"
         sodipodi:nodetypes="cc" />
      <path
         style="fill:none;stroke:#deddda;stroke-width:0.264583;stroke-linecap:butt;stroke-linejoin:miter;stroke-miterlimit:4;stroke-dasharray:none;stroke-opacity:1"
         d="m 52.91667,122.82228 0.79375,-1.37482"
         id="path41782"
         sodipodi:nodetypes="cc" />
      <path
         style="fill:none;stroke:#deddda;stroke-width:0.264583;stroke-linecap:butt;stroke-linejoin:miter;stroke-miterlimit:4;stroke-dasharray:none;stroke-opacity:1"
         d="m 75.406249,83.869186 0.79375,-1.374815"
         id="path41784"
         sodipodi:nodetypes="cc" />
    </g>
    <text
       xml:space="preserve"
       style="font-style:normal;font-weight:normal;font-size:3.175px;line-height:1.25;font-family:sans-serif;fill:#9a9996;fill-opacity:1;stroke:none;stroke-width:0.264583"
       x="60.943825"
       y="93.878761"
       id="text44056"><tspan
         sodipodi:role="line"
         id="tspan44054"
         style="font-style:normal;font-variant:normal;font-weight:bold;font-stretch:normal;font-size:3.175px;font-family:Cantarell;-inkscape-font-specification:Cantarell;fill:#9a9996;stroke-width:0.264583"
         x="60.943825"
         y="93.878761">12AM</tspan></text>
    <text
       xml:space="preserve"
       style="font-style:normal;font-weight:normal;font-size:3.175px;line-height:1.25;font-family:sans-serif;fill:#9a9996;fill-opacity:1;stroke:none;stroke-width:0.264583"
       x="60.956825"
       y="130.39133"
       id="text44580"><tspan
         sodipodi:role="line"
         id="tspan44578"
         style="font-style:normal;font-variant:normal;font-weight:bold;font-stretch:normal;font-size:3.175px;font-family:Cantarell;-inkscape-font-specification:Cantarell;fill:#9a9996;stroke-width:0.264583"
         x="60.956825"
         y="130.39133">12PM</tspan></text>
    <text
       xml:space="preserve"
       style="font-style:normal;font-weight:normal;font-size:3.175px;line-height:1.25;font-family:sans-serif;fill:#9a9996;fill-opacity:1;stroke:none;stroke-width:0.264583"
       x="44.622513"
       y="112.22673"
       id="text44704"><tspan
         sodipodi:role="line"
         style="font-style:normal;font-variant:normal;font-weight:bold;font-stretch:normal;font-size:3.175px;font-family:Cantarell;-inkscape-font-specification:Cantarell;fill:#9a9996;stroke-width:0.264583"
         x="44.622513"
         y="112.22673"
         id="tspan44728">6PM</tspan></text>
    <text
       xml:space="preserve"
       style="font-style:normal;font-weight:normal;font-size:3.175px;line-height:1.25;font-family:sans-serif;fill:#9a9996;fill-opacity:1;stroke:none;stroke-width:0.264583"
       x="77.43084"
       y="112.22673"
       id="text44814"><tspan
         sodipodi:role="line"
         id="tspan44810"
         style="font-style:normal;font-variant:normal;font-weight:bold;font-stretch:normal;font-size:3.175px;font-family:Cantarell;-inkscape-font-specification:Cantarell;fill:#9a9996;stroke-width:0.264583"
         x="77.43084"
         y="112.22673">6AM</tspan><tspan
         sodipodi:role="line"
         style="font-style:normal;font-variant:normal;font-weight:bold;font-stretch:normal;font-size:3.175px;font-family:Cantarell;-inkscape-font-specification:Cantarell;fill:#9a9996;stroke-width:0.264583"
         x="77.43084"
         y="116.19548"
         id="tspan44812" /></text>
    <text
       xml:space="preserve"
       style="font-style:normal;font-weight:normal;font-size:3.175px;line-height:1.25;font-family:sans-serif;fill:#c0bfbc;fill-opacity:1;stroke:none;stroke-width:0.264583"
       x="53.535484"
       y="97.053764"
       id="text54774"><tspan
         sodipodi:role="line"
         id="tspan54772"
         style="font-style:normal;font-variant:normal;font-weight:bold;font-stretch:normal;font-size:3.175px;font-family:Cantarell;-inkscape-font-specification:Cantarell;fill:#c0bfbc;stroke-width:0.264583"
         x="53.535484"
         y="97.053764">10</tspan><tspan
         sodipodi:role="line"
         style="font-style:normal;font-variant:normal;font-weight:bold;font-stretch:normal;font-size:3.175px;font-family:Cantarell;-inkscape-font-specification:Cantarell;fill:#c0bfbc;stroke-width:0.264583"
         x="53.535484"
         y="101.02251"
         id="tspan54798" /></text>
    <text
       xml:space="preserve"
       style="font-style:normal;font-weight:normal;font-size:3.175px;line-height:1.25;font-family:sans-serif;fill:#c0bfbc;fill-opacity:1;stroke:none;stroke-width:0.264583"
       x="72.056313"
       y="127.2163"
       id="text54884"><tspan
         sodipodi:role="line"
         id="tspan54880"
         style="font-style:normal;font-variant:normal;font-weight:bold;font-stretch:normal;font-size:3.175px;font-family:Cantarell;-inkscape-font-specification:Cantarell;fill:#c0bfbc;stroke-width:0.264583"
         x="72.056313"
         y="127.2163">10</tspan><tspan
         sodipodi:role="line"
         style="font-style:normal;font-variant:normal;font-weight:bold;font-stretch:normal;font-size:3.175px;font-family:Cantarell;-inkscape-font-specification:Cantarell;fill:#c0bfbc;stroke-width:0.264583"
         x="72.056313"
         y="131.18506"
         id="tspan54882" /></text>
    <text
       xml:space="preserve"
       style="font-style:normal;font-weight:normal;font-size:3.175px;line-height:1.25;font-family:sans-serif;fill:#c0bfbc;fill-opacity:1;stroke:none;stroke-width:0.264583"
       x="79.464645"
       y="120.86629"
       id="text54890"><tspan
         sodipodi:role="line"
         style="font-style:normal;font-variant:normal;font-weight:bold;font-stretch:normal;font-size:3.175px;font-family:Cantarell;-inkscape-font-specification:Cantarell;fill:#c0bfbc;stroke-width:0.264583"
         x="79.464645"
         y="120.86629"
         id="tspan54888">8</tspan></text>
    <text
       xml:space="preserve"
       style="font-style:normal;font-weight:normal;font-size:3.175px;line-height:1.25;font-family:sans-serif;fill:#c0bfbc;fill-opacity:1;stroke:none;stroke-width:0.264583"
       x="54.064644"
       y="127.2163"
       id="text55000"><tspan
         sodipodi:role="line"
         id="tspan54996"
         style="font-style:normal;font-variant:normal;font-weight:bold;font-stretch:normal;font-size:3.175px;font-family:Cantarell;-inkscape-font-specification:Cantarell;fill:#c0bfbc;stroke-width:0.264583"
         x="54.064644"
         y="127.2163">2</tspan><tspan
         sodipodi:role="line"
         style="font-style:normal;font-variant:normal;font-weight:bold;font-stretch:normal;font-size:3.175px;font-family:Cantarell;-inkscape-font-specification:Cantarell;fill:#c0bfbc;stroke-width:0.264583"
         x="54.064644"
         y="131.18506"
         id="tspan54998" /></text>
    <text
       xml:space="preserve"
       style="font-style:normal;font-weight:normal;font-size:3.175px;line-height:1.25;font-family:sans-serif;fill:#c0bfbc;fill-opacity:1;stroke:none;stroke-width:0.264583"
       x="47.714642"
       y="121.92464"
       id="text55324"><tspan
         sodipodi:role="line"
         style="font-style:normal;font-variant:normal;font-weight:bold;font-stretch:normal;font-size:3.175px;font-family:Cantarell;-inkscape-font-specification:Cantarell;fill:#c0bfbc;stroke-width:0.264583"
         x="47.714642"
         y="121.92464"
         id="tspan55322">4</tspan></text>
    <text
       xml:space="preserve"
       style="font-style:normal;font-weight:normal;font-size:3.175px;line-height:1.25;font-family:sans-serif;fill:#c0bfbc;fill-opacity:1;stroke:none;stroke-width:0.264583"
       x="73.114639"
       y="97.05378"
       id="text55434"><tspan
         sodipodi:role="line"
         id="tspan55430"
         style="font-style:normal;font-variant:normal;font-weight:bold;font-stretch:normal;font-size:3.175px;font-family:Cantarell;-inkscape-font-specification:Cantarell;fill:#c0bfbc;stroke-width:0.264583"
         x="73.114639"
         y="97.05378">2</tspan><tspan
         sodipodi:role="line"
         style="font-style:normal;font-variant:normal;font-weight:bold;font-stretch:normal;font-size:3.175px;font-family:Cantarell;-inkscape-font-specification:Cantarell;fill:#c0bfbc;stroke-width:0.264583"
         x="73.114639"
         y="101.02253"
         id="tspan55432" /></text>
    <text
       xml:space="preserve"
       style="font-style:normal;font-weight:normal;font-size:3.175px;line-height:1.25;font-family:sans-serif;fill:#c0bfbc;fill-opacity:1;stroke:none;stroke-width:0.264583"
       x="79.46463"
       y="102.87464"
       id="text55440"><tspan
         sodipodi:role="line"
         id="tspan55436"
         style="font-style:normal;font-variant:normal;font-weight:bold;font-stretch:normal;font-size:3.175px;font-family:Cantarell;-inkscape-font-specification:Cantarell;fill:#c0bfbc;stroke-width:0.264583"
         x="79.46463"
         y="102.87464">4</tspan><tspan
         sodipodi:role="line"
         style="font-style:normal;font-variant:normal;font-weight:bold;font-stretch:normal;font-size:3.175px;font-family:Cantarell;-inkscape-font-specification:Cantarell;fill:#c0bfbc;stroke-width:0.264583"
         x="79.46463"
         y="106.84339"
         id="tspan55438" /></text>
    <text
       xml:space="preserve"
       style="font-style:normal;font-weight:normal;font-size:3.175px;line-height:1.25;font-family:sans-serif;fill:#c0bfbc;fill-opacity:1;stroke:none;stroke-width:0.264583"
       x="47.185482"
       y="103.40378"
       id="text61698"><tspan
         sodipodi:role="line"
         style="font-style:normal;font-variant:normal;font-weight:bold;font-stretch:normal;font-size:3.175px;font-family:Cantarell;-inkscape-font-specification:Cantarell;fill:#c0bfbc;stroke-width:0.264583"
         x="47.185482"
         y="103.40378"
         id="tspan61696">8</tspan></text>
    <text
       id="text5293"
       y="210.5114"
       x="17.755049"
       style="font-style:normal;font-variant:normal;font-weight:normal;font-stretch:normal;font-size:3.175px;line-height:0%;font-family:Cantarell;-inkscape-font-specification:Cantarell;text-align:start;letter-spacing:0px;word-spacing:0px;text-anchor:start;display:inline;fill:#2e3436;fill-opacity:1;stroke:none;stroke-width:0.264583"
       xml:space="preserve"
       inkscape:export-xdpi="90"
       inkscape:export-ydpi="90"><tspan
         y="210.5114"
         x="17.755049"
         id="tspan5291"
         sodipodi:role="line"
         style="font-style:normal;font-variant:normal;font-weight:bold;font-stretch:normal;font-size:3.63802px;line-height:1.25;font-family:Cantarell;-inkscape-font-specification:Cantarell;fill:#2e3436;fill-opacity:1;stroke-width:0.264583">Ranged value radial scale</tspan></text>
    <g
       id="g68199"
       transform="rotate(7,-4.6560615,106.88437)">
      <path
         style="opacity:1;fill:none;fill-opacity:1;stroke:none;stroke-width:0.290092;stroke-linecap:round;stroke-linejoin:round;stroke-miterlimit:4;stroke-dasharray:none;stroke-dashoffset:0;stroke-opacity:1"
         id="path67571"
         sodipodi:type="arc"
         sodipodi:cx="64.558327"
         sodipodi:cy="131.4906"
         sodipodi:rx="4.1003885"
         sodipodi:ry="4.0902219"
         sodipodi:start="4.8869219"
         sodipodi:end="4.8694686"
         sodipodi:open="true"
         sodipodi:arc-type="arc"
         d="m 65.270352,127.46252 a 4.1003885,4.0902219 0 0 1 3.329137,4.72076 4.1003885,4.0902219 0 0 1 -4.717922,3.34145 4.1003885,4.0902219 0 0 1 -3.370309,-4.6916 4.1003885,4.0902219 0 0 1 4.688511,-3.38239" />
      <rect
         style="color:#bebebe;display:inline;overflow:visible;visibility:visible;fill:none;stroke:none;stroke-width:0.264583;marker:none"
         id="rect3968"
         width="4.2333336"
         height="4.2333336"
         x="62.441673"
         y="71.694809" />
      <path
         id="path2-2"
         d="m 63.630698,71.694808 a 0.39687501,0.39687501 0 0 0 -0.396875,0.396875 0.39687501,0.39687501 0 0 0 0.396875,0.396875 0.39687501,0.39687501 0 0 0 0.396875,-0.396875 0.39687501,0.39687501 0 0 0 -0.396875,-0.396875 z m 1.5875,0 a 0.39687501,0.39687501 0 0 0 -0.396875,0.396875 0.39687501,0.39687501 0 0 0 0.396875,0.396875 0.39687501,0.39687501 0 0 0 0.396875,-0.396875 0.39687501,0.39687501 0 0 0 -0.396875,-0.396875 z m -1.5875,1.5875 a 0.39687501,0.39687501 0 0 0 -0.396875,0.396875 0.39687501,0.39687501 0 0 0 0.396875,0.396875 0.39687501,0.39687501 0 0 0 0.396875,-0.396875 0.39687501,0.39687501 0 0 0 -0.396875,-0.396875 z m 1.5875,0 a 0.39687501,0.39687501 0 0 0 -0.396875,0.396875 0.39687501,0.39687501 0 0 0 0.396875,0.396875 0.39687501,0.39687501 0 0 0 0.396875,-0.396875 0.39687501,0.39687501 0 0 0 -0.396875,-0.396875 z m -1.5875,1.5875 a 0.39687501,0.39687501 0 0 0 -0.396875,0.396875 0.39687501,0.39687501 0 0 0 0.396875,0.396875 0.39687501,0.39687501 0 0 0 0.396875,-0.396875 0.39687501,0.39687501 0 0 0 -0.396875,-0.396875 z m 1.5875,0 a 0.39687501,0.39687501 0 0 0 -0.396875,0.396875 0.39687501,0.39687501 0 0 0 0.396875,0.396875 0.39687501,0.39687501 0 0 0 0.396875,-0.396875 0.39687501,0.39687501 0 0 0 -0.396875,-0.396875 z"
         style="fill:#deddda;fill-opacity:1;stroke:none;stroke-width:0.264583"
         inkscape:connector-curvature="0" />
    </g>
    <g
       id="g68209"
       transform="rotate(124,62.30742,106.88437)">
      <path
         style="opacity:1;fill:none;fill-opacity:1;stroke:none;stroke-width:0.290092;stroke-linecap:round;stroke-linejoin:round;stroke-miterlimit:4;stroke-dasharray:none;stroke-dashoffset:0;stroke-opacity:1"
         id="path68203"
         sodipodi:type="arc"
         sodipodi:cx="64.558327"
         sodipodi:cy="131.4906"
         sodipodi:rx="4.1003885"
         sodipodi:ry="4.0902219"
         sodipodi:start="4.8869219"
         sodipodi:end="4.8694686"
         sodipodi:open="true"
         sodipodi:arc-type="arc"
         d="m 65.270352,127.46252 a 4.1003885,4.0902219 0 0 1 3.329137,4.72076 4.1003885,4.0902219 0 0 1 -4.717922,3.34145 4.1003885,4.0902219 0 0 1 -3.370309,-4.6916 4.1003885,4.0902219 0 0 1 4.688511,-3.38239" />
      <rect
         style="color:#bebebe;display:inline;overflow:visible;visibility:visible;fill:none;stroke:none;stroke-width:0.264583;marker:none"
         id="rect68205"
         width="4.2333336"
         height="4.2333336"
         x="62.441673"
         y="71.694809" />
      <path
         id="path68207"
         d="m 63.630698,71.694808 a 0.39687501,0.39687501 0 0 0 -0.396875,0.396875 0.39687501,0.39687501 0 0 0 0.396875,0.396875 0.39687501,0.39687501 0 0 0 0.396875,-0.396875 0.39687501,0.39687501 0 0 0 -0.396875,-0.396875 z m 1.5875,0 a 0.39687501,0.39687501 0 0 0 -0.396875,0.396875 0.39687501,0.39687501 0 0 0 0.396875,0.396875 0.39687501,0.39687501 0 0 0 0.396875,-0.396875 0.39687501,0.39687501 0 0 0 -0.396875,-0.396875 z m -1.5875,1.5875 a 0.39687501,0.39687501 0 0 0 -0.396875,0.396875 0.39687501,0.39687501 0 0 0 0.396875,0.396875 0.39687501,0.39687501 0 0 0 0.396875,-0.396875 0.39687501,0.39687501 0 0 0 -0.396875,-0.396875 z m 1.5875,0 a 0.39687501,0.39687501 0 0 0 -0.396875,0.396875 0.39687501,0.39687501 0 0 0 0.396875,0.396875 0.39687501,0.39687501 0 0 0 0.396875,-0.396875 0.39687501,0.39687501 0 0 0 -0.396875,-0.396875 z m -1.5875,1.5875 a 0.39687501,0.39687501 0 0 0 -0.396875,0.396875 0.39687501,0.39687501 0 0 0 0.396875,0.396875 0.39687501,0.39687501 0 0 0 0.396875,-0.396875 0.39687501,0.39687501 0 0 0 -0.396875,-0.396875 z m 1.5875,0 a 0.39687501,0.39687501 0 0 0 -0.396875,0.396875 0.39687501,0.39687501 0 0 0 0.396875,0.396875 0.39687501,0.39687501 0 0 0 0.396875,-0.396875 0.39687501,0.39687501 0 0 0 -0.396875,-0.396875 z"
         style="fill:#deddda;fill-opacity:1;stroke:none;stroke-width:0.264583"
         inkscape:connector-curvature="0" />
    </g>
    <text
       id="text69601"
       y="221.09473"
       x="17.755049"
       style="font-style:normal;font-variant:normal;font-weight:normal;font-stretch:normal;font-size:3.175px;line-height:0%;font-family:Cantarell;-inkscape-font-specification:Cantarell;text-align:start;letter-spacing:0px;word-spacing:0px;text-anchor:start;display:inline;fill:#2e3436;fill-opacity:1;stroke:none;stroke-width:0.264583"
       xml:space="preserve"
       inkscape:export-xdpi="90"
       inkscape:export-ydpi="90"><tspan
         y="221.09473"
         x="17.755049"
         id="tspan69599"
         sodipodi:role="line"
         style="font-style:normal;font-variant:normal;font-weight:normal;font-stretch:normal;font-size:3.63802px;line-height:1.25;font-family:Cantarell;-inkscape-font-specification:Cantarell;fill:#2e3436;fill-opacity:1;stroke-width:0.264583">A scale that represents a range of values within a finite</tspan><tspan
         y="225.64226"
         x="17.755049"
         sodipodi:role="line"
         style="font-style:normal;font-variant:normal;font-weight:normal;font-stretch:normal;font-size:3.63802px;line-height:1.25;font-family:Cantarell;-inkscape-font-specification:Cantarell;fill:#2e3436;fill-opacity:1;stroke-width:0.264583"
         id="tspan165327">set of values. The hand can be resized to cover different</tspan><tspan
         y="230.18977"
         x="17.755049"
         sodipodi:role="line"
         style="font-style:normal;font-variant:normal;font-weight:normal;font-stretch:normal;font-size:3.63802px;line-height:1.25;font-family:Cantarell;-inkscape-font-specification:Cantarell;fill:#2e3436;fill-opacity:1;stroke-width:0.264583"
         id="tspan165329">ranges as a portion of the dial and can be moved within the</tspan><tspan
         y="234.7373"
         x="17.755049"
         sodipodi:role="line"
         style="font-style:normal;font-variant:normal;font-weight:normal;font-stretch:normal;font-size:3.63802px;line-height:1.25;font-family:Cantarell;-inkscape-font-specification:Cantarell;fill:#2e3436;fill-opacity:1;stroke-width:0.264583"
         id="tspan167737">total range</tspan><tspan
         y="239.28482"
         x="17.755049"
         sodipodi:role="line"
         style="font-style:normal;font-variant:normal;font-weight:normal;font-stretch:normal;font-size:3.63802px;line-height:1.25;font-family:Cantarell;-inkscape-font-specification:Cantarell;fill:#2e3436;fill-opacity:1;stroke-width:0.264583"
         id="tspan225938" /><tspan
         y="243.83235"
         x="17.755049"
         sodipodi:role="line"
         style="font-style:normal;font-variant:normal;font-weight:normal;font-stretch:normal;font-size:3.63802px;line-height:1.25;font-family:Cantarell;-inkscape-font-specification:Cantarell;fill:#2e3436;fill-opacity:1;stroke-width:0.264583"
         id="tspan225940">Example above is setting an alarm schedule which is a range </tspan><tspan
         y="248.37988"
         x="17.755049"
         sodipodi:role="line"
         style="font-style:normal;font-variant:normal;font-weight:normal;font-stretch:normal;font-size:3.63802px;line-height:1.25;font-family:Cantarell;-inkscape-font-specification:Cantarell;fill:#2e3436;fill-opacity:1;stroke-width:0.264583"
         id="tspan228054">of time within a finite range of time.</tspan></text>
    <text
       id="text76677"
       y="210.5114"
       x="217.78009"
       style="font-style:normal;font-variant:normal;font-weight:normal;font-stretch:normal;font-size:3.175px;line-height:0%;font-family:Cantarell;-inkscape-font-specification:Cantarell;text-align:start;letter-spacing:0px;word-spacing:0px;text-anchor:start;display:inline;fill:#2e3436;fill-opacity:1;stroke:none;stroke-width:0.264583"
       xml:space="preserve"
       inkscape:export-xdpi="90"
       inkscape:export-ydpi="90"><tspan
         y="210.5114"
         x="217.78009"
         id="tspan76675"
         sodipodi:role="line"
         style="font-style:normal;font-variant:normal;font-weight:bold;font-stretch:normal;font-size:3.63802px;line-height:1.25;font-family:Cantarell;-inkscape-font-specification:Cantarell;fill:#2e3436;fill-opacity:1;stroke-width:0.264583">Single value radial scale</tspan></text>
    <text
       id="text128749"
       y="221.09474"
       x="217.78009"
       style="font-style:normal;font-variant:normal;font-weight:normal;font-stretch:normal;font-size:3.175px;line-height:0%;font-family:Cantarell;-inkscape-font-specification:Cantarell;text-align:start;letter-spacing:0px;word-spacing:0px;text-anchor:start;display:inline;fill:#2e3436;fill-opacity:1;stroke:none;stroke-width:0.264583"
       xml:space="preserve"
       inkscape:export-xdpi="90"
       inkscape:export-ydpi="90"><tspan
         y="221.09474"
         x="217.78009"
         sodipodi:role="line"
         style="font-style:normal;font-variant:normal;font-weight:normal;font-stretch:normal;font-size:3.63802px;line-height:1.25;font-family:Cantarell;-inkscape-font-specification:Cantarell;fill:#2e3436;fill-opacity:1;stroke-width:0.264583"
         id="tspan41116">Analogous to a volume dial, this scale represents control of a single </tspan><tspan
         y="225.64227"
         x="217.78009"
         sodipodi:role="line"
         style="font-style:normal;font-variant:normal;font-weight:normal;font-stretch:normal;font-size:3.63802px;line-height:1.25;font-family:Cantarell;-inkscape-font-specification:Cantarell;fill:#2e3436;fill-opacity:1;stroke-width:0.264583"
         id="tspan128773">value and turning the dial raises or lowers the associated quantity.</tspan><tspan
         y="230.18979"
         x="217.78009"
         sodipodi:role="line"
         style="font-style:normal;font-variant:normal;font-weight:normal;font-stretch:normal;font-size:3.63802px;line-height:1.25;font-family:Cantarell;-inkscape-font-specification:Cantarell;fill:#2e3436;fill-opacity:1;stroke-width:0.264583"
         id="tspan11755" /><tspan
         y="234.73732"
         x="217.78009"
         sodipodi:role="line"
         style="font-style:normal;font-variant:normal;font-weight:normal;font-stretch:normal;font-size:3.63802px;line-height:1.25;font-family:Cantarell;-inkscape-font-specification:Cantarell;fill:#2e3436;fill-opacity:1;stroke-width:0.264583"
         id="tspan11757">Example above is for a metronome application where you can </tspan><tspan
         y="239.28484"
         x="217.78009"
         sodipodi:role="line"
         style="font-style:normal;font-variant:normal;font-weight:normal;font-stretch:normal;font-size:3.63802px;line-height:1.25;font-family:Cantarell;-inkscape-font-specification:Cantarell;fill:#2e3436;fill-opacity:1;stroke-width:0.264583"
         id="tspan11759">set the BPM that you want the application to tap/beep at, the </tspan><tspan
         y="243.83237"
         x="217.78009"
         sodipodi:role="line"
         style="font-style:normal;font-variant:normal;font-weight:normal;font-stretch:normal;font-size:3.63802px;line-height:1.25;font-family:Cantarell;-inkscape-font-specification:Cantarell;fill:#2e3436;fill-opacity:1;stroke-width:0.264583"
         id="tspan11761">large radial scale gives you fine tine control</tspan></text>
    <text
       id="text129625"
       y="154.41966"
       x="58.302773"
       style="font-style:normal;font-variant:normal;font-weight:normal;font-stretch:normal;font-size:3.175px;line-height:0%;font-family:Cantarell;-inkscape-font-specification:Cantarell;text-align:start;letter-spacing:0px;word-spacing:0px;text-anchor:start;display:inline;fill:#2e3436;fill-opacity:1;stroke:none;stroke-width:0.264583"
       xml:space="preserve"
       inkscape:export-xdpi="90"
       inkscape:export-ydpi="90"><tspan
         y="154.41966"
         x="58.302773"
         id="tspan129623"
         sodipodi:role="line"
         style="font-style:normal;font-variant:normal;font-weight:bold;font-stretch:normal;font-size:3.63802px;line-height:1.25;font-family:Cantarell;-inkscape-font-specification:Cantarell;fill:#2e3436;fill-opacity:1;stroke-width:0.264583">8 hours</tspan></text>
    <text
       id="text129785"
       y="170.29468"
       x="90.748138"
       style="font-style:normal;font-variant:normal;font-weight:normal;font-stretch:normal;font-size:3.175px;line-height:0%;font-family:Cantarell;-inkscape-font-specification:Cantarell;text-align:start;letter-spacing:0px;word-spacing:0px;text-anchor:start;display:inline;fill:#2e3436;fill-opacity:1;stroke:none;stroke-width:0.264583"
       xml:space="preserve"
       inkscape:export-xdpi="90"
       inkscape:export-ydpi="90"><tspan
         y="170.29468"
         x="90.748138"
         id="tspan129783"
         sodipodi:role="line"
         style="font-style:normal;font-variant:normal;font-weight:normal;font-stretch:normal;font-size:3.63802px;line-height:1.25;font-family:Cantarell;-inkscape-font-specification:Cantarell;fill:#2e3436;fill-opacity:1;stroke-width:0.264583">12:30 AM</tspan></text>
    <text
       id="text134404"
       y="69.752968"
       x="36.539009"
       style="font-style:normal;font-variant:normal;font-weight:normal;font-stretch:normal;font-size:6.35px;line-height:0%;font-family:Cantarell;-inkscape-font-specification:Cantarell;text-align:start;letter-spacing:0px;word-spacing:0px;text-anchor:start;display:inline;fill:#77767b;fill-opacity:1;stroke:none;stroke-width:0.264583"
       xml:space="preserve"
       inkscape:export-xdpi="90"
       inkscape:export-ydpi="90"><tspan
         y="69.752968"
         x="36.539009"
         id="tspan134402"
         sodipodi:role="line"
         style="font-style:normal;font-variant:normal;font-weight:800;font-stretch:normal;font-size:6.35px;line-height:1.25;font-family:Cantarell;-inkscape-font-specification:'Cantarell Ultra-Bold';fill:#77767b;fill-opacity:1;stroke-width:0.264583">Set Sleep Schedule</tspan></text>
    <rect
       style="fill:#ffffff;fill-opacity:1;stroke:#deddda;stroke-width:0.264585;stroke-linecap:round;stroke-linejoin:round;stroke-miterlimit:4;stroke-dasharray:none;stroke-opacity:1"
       id="rect136758"
       width="88.635414"
       height="14.552084"
       x="20.240631"
       y="176.60944" />
    <text
       id="text136896"
       y="185.11128"
       x="91.806473"
       style="font-style:normal;font-variant:normal;font-weight:normal;font-stretch:normal;font-size:3.175px;line-height:0%;font-family:Cantarell;-inkscape-font-specification:Cantarell;text-align:start;letter-spacing:0px;word-spacing:0px;text-anchor:start;display:inline;fill:#2e3436;fill-opacity:1;stroke:none;stroke-width:0.264583"
       xml:space="preserve"
       inkscape:export-xdpi="90"
       inkscape:export-ydpi="90"><tspan
         y="185.11128"
         x="91.806473"
         id="tspan136894"
         sodipodi:role="line"
         style="font-style:normal;font-variant:normal;font-weight:normal;font-stretch:normal;font-size:3.63802px;line-height:1.25;font-family:Cantarell;-inkscape-font-specification:Cantarell;fill:#2e3436;fill-opacity:1;stroke-width:0.264583">8:30 AM</tspan></text>
    <text
       id="text141232"
       y="170.29468"
       x="23.54398"
       style="font-style:normal;font-variant:normal;font-weight:normal;font-stretch:normal;font-size:3.175px;line-height:0%;font-family:Cantarell;-inkscape-font-specification:Cantarell;text-align:start;letter-spacing:0px;word-spacing:0px;text-anchor:start;display:inline;fill:#9a9996;fill-opacity:1;stroke:none;stroke-width:0.264583"
       xml:space="preserve"
       inkscape:export-xdpi="90"
       inkscape:export-ydpi="90"><tspan
         y="170.29468"
         x="23.54398"
         id="tspan141230"
         sodipodi:role="line"
         style="font-style:normal;font-variant:normal;font-weight:normal;font-stretch:normal;font-size:3.63802px;line-height:1.25;font-family:Cantarell;-inkscape-font-specification:Cantarell;fill:#9a9996;fill-opacity:1;stroke-width:0.264583">Sleep</tspan></text>
    <text
       id="text141463"
       y="185.11137"
       x="23.54398"
       style="font-style:normal;font-variant:normal;font-weight:normal;font-stretch:normal;font-size:3.175px;line-height:0%;font-family:Cantarell;-inkscape-font-specification:Cantarell;text-align:start;letter-spacing:0px;word-spacing:0px;text-anchor:start;display:inline;fill:#9a9996;fill-opacity:1;stroke:none;stroke-width:0.264583"
       xml:space="preserve"
       inkscape:export-xdpi="90"
       inkscape:export-ydpi="90"><tspan
         y="185.11137"
         x="23.54398"
         id="tspan141461"
         sodipodi:role="line"
         style="font-style:normal;font-variant:normal;font-weight:normal;font-stretch:normal;font-size:3.63802px;line-height:1.25;font-family:Cantarell;-inkscape-font-specification:Cantarell;fill:#9a9996;fill-opacity:1;stroke-width:0.264583">Wake</tspan></text>
    <text
       xml:space="preserve"
       transform="matrix(0.26458334,0,0,0.26458334,0,13.758333)"
       id="text203398"
       style="font-style:normal;font-weight:normal;font-size:40px;line-height:1.25;font-family:sans-serif;white-space:pre;shape-inside:url(#rect203400);fill:#000000;fill-opacity:1;stroke:none" />
    <text
       id="text221550"
       y="22.127968"
       x="18.06048"
       style="font-style:normal;font-variant:normal;font-weight:normal;font-stretch:normal;font-size:8.46667px;line-height:0%;font-family:Cantarell;-inkscape-font-specification:Cantarell;text-align:start;letter-spacing:0px;word-spacing:0px;text-anchor:start;display:inline;fill:#3d3846;fill-opacity:1;stroke:none;stroke-width:0.264583"
       xml:space="preserve"
       inkscape:export-xdpi="90"
       inkscape:export-ydpi="90"><tspan
         y="22.127968"
         x="18.06048"
         id="tspan221548"
         sodipodi:role="line"
         style="font-style:normal;font-variant:normal;font-weight:800;font-stretch:normal;font-size:8.46667px;line-height:1.25;font-family:Cantarell;-inkscape-font-specification:'Cantarell Ultra-Bold';fill:#3d3846;fill-opacity:1;stroke-width:0.264583">Radial Scale</tspan></text>
    <text
       xml:space="preserve"
       style="font-style:normal;font-weight:normal;font-size:4.23333px;line-height:1.25;font-family:sans-serif;fill:#c0bfbc;fill-opacity:1;stroke:none;stroke-width:0.264583"
       x="263.01068"
       y="132.85049"
       id="text257835"><tspan
         sodipodi:role="line"
         id="tspan257833"
         style="font-style:normal;font-variant:normal;font-weight:bold;font-stretch:normal;font-size:4.23333px;font-family:Cantarell;-inkscape-font-specification:'Cantarell Bold';text-align:center;text-anchor:middle;fill:#c0bfbc;stroke-width:0.264583"
         x="263.01068"
         y="132.85049">BPM</tspan></text>
    <circle
       style="opacity:1;fill:#3584e4;fill-opacity:1;stroke:#1a5fb4;stroke-width:0.264583;stroke-linecap:round;stroke-linejoin:round;stroke-miterlimit:4;stroke-dasharray:none;stroke-opacity:1"
       id="circle260915"
       cx="263.78958"
       cy="174.8896"
       r="8.3343754" />
    <g
       id="g4263"
       inkscape:label="media-playback-start"
       transform="matrix(0.52916668,0,0,0.52916668,232.04083,-140.49374)"
       style="stroke-width:0.5;enable-background:new">
      <path
         id="path4238"
         style="color:#000000;fill:#ffffff;stroke-width:0.5;stroke-linejoin:round;-inkscape-stroke:none"
         d="m 1006.002,667 v 1 8 1 h 1 v -0.008 a 1.0001,1.0001 0 0 0 0.496,-0.12305 l 6.9981,-4 a 1.0001,1.0001 0 0 0 0,-1.73828 l -6.9981,-4 a 1.0001,1.0001 0 0 0 -0.496,-0.12305 V 667 Z"
         transform="translate(-950.00237,-75.999997)" />
      <rect
         width="16"
         height="16"
         x="51.997631"
         y="588"
         id="rect4236"
         style="color:#bebebe;display:inline;overflow:visible;visibility:visible;fill:none;stroke:none;stroke-width:0.5;marker:none;enable-background:new" />
    </g>
    <circle
       style="opacity:1;fill:#f6f5f4;fill-opacity:1;stroke:#deddda;stroke-width:0.264583;stroke-linecap:round;stroke-linejoin:round;stroke-miterlimit:4;stroke-dasharray:none;stroke-opacity:1"
       id="circle1249"
       cx="243.68127"
       cy="174.88957"
       r="5.6885419" />
    <text
       id="text1327"
       y="176.13144"
       x="243.7122"
       style="font-style:normal;font-variant:normal;font-weight:normal;font-stretch:normal;font-size:3.175px;line-height:0%;font-family:Cantarell;-inkscape-font-specification:Cantarell;text-align:center;letter-spacing:0px;word-spacing:0px;text-anchor:middle;display:inline;fill:#5e5c64;fill-opacity:1;stroke:none;stroke-width:0.264583"
       xml:space="preserve"
       inkscape:export-xdpi="90"
       inkscape:export-ydpi="90"><tspan
         y="176.13144"
         x="243.7122"
         sodipodi:role="line"
         style="font-style:normal;font-variant:normal;font-weight:bold;font-stretch:normal;font-size:3.63802px;line-height:1.25;font-family:Cantarell;-inkscape-font-specification:Cantarell;text-align:center;text-anchor:middle;fill:#5e5c64;fill-opacity:1;stroke-width:0.264583"
         id="tspan1325">TAP</tspan></text>
    <circle
       style="opacity:1;fill:#f6f5f4;fill-opacity:1;stroke:#deddda;stroke-width:0.264583;stroke-linecap:round;stroke-linejoin:round;stroke-miterlimit:4;stroke-dasharray:none;stroke-opacity:1"
       id="circle4445"
       cx="283.36868"
       cy="174.88957"
       r="5.6885419" />
    <g
       inkscape:label="content-loading"
       id="g8353"
       transform="matrix(0,0.26458334,-0.26458334,0,358.51038,167.48127)"
       style="display:inline;enable-background:new">
      <rect
         style="color:#bebebe;display:inline;overflow:visible;visibility:visible;fill:none;stroke:none;stroke-width:1;marker:none"
         id="rect8355"
         width="16"
         height="16"
         x="20"
         y="276" />
      <circle
         id="path4955-1-2"
         style="display:inline;fill:#2e3436;fill-opacity:1;stroke:none;stroke-width:2.00003"
         cx="21.999825"
         cy="284.00003"
         r="2.000025" />
      <circle
         style="display:inline;fill:#2e3436;fill-opacity:1;stroke:none"
         id="path4957-2-4"
         transform="matrix(2,0,0,2,-28.00015,-134)"
         cx="28"
         cy="209"
         r="1" />
      <circle
         id="path4959-4-6"
         style="display:inline;fill:#2e3436;fill-opacity:1;stroke:none;stroke-width:2"
         cx="33.999802"
         cy="284"
         r="2" />
    </g>
    <circle
       style="fill:#f6f5f4;fill-opacity:1;stroke:#deddda;stroke-width:0.264583;stroke-linecap:round;stroke-linejoin:round;stroke-miterlimit:4;stroke-dasharray:none;stroke-opacity:1"
       id="circle4957"
       cx="241.30011"
       cy="69.585381"
       r="5.6885419" />
    <text
       id="text4961"
       y="68.710587"
       x="241.33104"
       style="font-style:normal;font-variant:normal;font-weight:normal;font-stretch:normal;font-size:3.175px;line-height:0%;font-family:Cantarell;-inkscape-font-specification:Cantarell;text-align:center;letter-spacing:0px;word-spacing:0px;text-anchor:middle;display:inline;fill:#5e5c64;fill-opacity:1;stroke:none;stroke-width:0.264583"
       xml:space="preserve"
       inkscape:export-xdpi="90"
       inkscape:export-ydpi="90"><tspan
         y="68.710587"
         x="241.33104"
         sodipodi:role="line"
         style="font-style:normal;font-variant:normal;font-weight:bold;font-stretch:normal;font-size:3.63802px;line-height:1.25;font-family:Cantarell;-inkscape-font-specification:Cantarell;text-align:center;text-anchor:middle;fill:#5e5c64;fill-opacity:1;stroke-width:0.264583"
         id="tspan4959">2</tspan><tspan
         y="73.25811"
         x="241.33104"
         sodipodi:role="line"
         style="font-style:normal;font-variant:normal;font-weight:bold;font-stretch:normal;font-size:3.63802px;line-height:1.25;font-family:Cantarell;-inkscape-font-specification:Cantarell;text-align:center;text-anchor:middle;fill:#5e5c64;fill-opacity:1;stroke-width:0.264583"
         id="tspan5387">4</tspan></text>
    <circle
       style="fill:#f6f5f4;fill-opacity:1;stroke:#deddda;stroke-width:0.264583;stroke-linecap:round;stroke-linejoin:round;stroke-miterlimit:4;stroke-dasharray:none;stroke-opacity:1"
       id="circle4963"
       cx="256.11676"
       cy="69.585381"
       r="5.6885419" />
    <text
       id="text4967"
       y="68.710587"
       x="256.14771"
       style="font-style:normal;font-variant:normal;font-weight:normal;font-stretch:normal;font-size:3.175px;line-height:0%;font-family:Cantarell;-inkscape-font-specification:Cantarell;text-align:center;letter-spacing:0px;word-spacing:0px;text-anchor:middle;display:inline;fill:#5e5c64;fill-opacity:1;stroke:none;stroke-width:0.264583"
       xml:space="preserve"
       inkscape:export-xdpi="90"
       inkscape:export-ydpi="90"><tspan
         y="68.710587"
         x="256.14771"
         sodipodi:role="line"
         style="font-style:normal;font-variant:normal;font-weight:bold;font-stretch:normal;font-size:3.63802px;line-height:1.25;font-family:Cantarell;-inkscape-font-specification:Cantarell;text-align:center;text-anchor:middle;fill:#5e5c64;fill-opacity:1;stroke-width:0.264583"
         id="tspan4965">3</tspan><tspan
         y="73.25811"
         x="256.14771"
         sodipodi:role="line"
         style="font-style:normal;font-variant:normal;font-weight:bold;font-stretch:normal;font-size:3.63802px;line-height:1.25;font-family:Cantarell;-inkscape-font-specification:Cantarell;text-align:center;text-anchor:middle;fill:#5e5c64;fill-opacity:1;stroke-width:0.264583"
         id="tspan7483">4</tspan></text>
    <circle
       style="fill:#f6f5f4;fill-opacity:1;stroke:#deddda;stroke-width:0.264583;stroke-linecap:round;stroke-linejoin:round;stroke-miterlimit:4;stroke-dasharray:none;stroke-opacity:1"
       id="circle4969"
       cx="270.93338"
       cy="69.585381"
       r="5.6885419" />
    <text
       id="text4973"
       y="68.710587"
       x="270.96432"
       style="font-style:normal;font-variant:normal;font-weight:normal;font-stretch:normal;font-size:3.175px;line-height:0%;font-family:Cantarell;-inkscape-font-specification:Cantarell;text-align:center;letter-spacing:0px;word-spacing:0px;text-anchor:middle;display:inline;fill:#5e5c64;fill-opacity:1;stroke:none;stroke-width:0.264583"
       xml:space="preserve"
       inkscape:export-xdpi="90"
       inkscape:export-ydpi="90"><tspan
         y="68.710587"
         x="270.96432"
         sodipodi:role="line"
         style="font-style:normal;font-variant:normal;font-weight:bold;font-stretch:normal;font-size:3.63802px;line-height:1.25;font-family:Cantarell;-inkscape-font-specification:Cantarell;text-align:center;text-anchor:middle;fill:#5e5c64;fill-opacity:1;stroke-width:0.264583"
         id="tspan4971">4</tspan><tspan
         y="73.25811"
         x="270.96432"
         sodipodi:role="line"
         style="font-style:normal;font-variant:normal;font-weight:bold;font-stretch:normal;font-size:3.63802px;line-height:1.25;font-family:Cantarell;-inkscape-font-specification:Cantarell;text-align:center;text-anchor:middle;fill:#5e5c64;fill-opacity:1;stroke-width:0.264583"
         id="tspan9075">4</tspan></text>
    <circle
       style="fill:#f6f5f4;fill-opacity:1;stroke:#deddda;stroke-width:0.264583;stroke-linecap:round;stroke-linejoin:round;stroke-miterlimit:4;stroke-dasharray:none;stroke-opacity:1"
       id="circle4975"
       cx="285.75"
       cy="69.585381"
       r="5.6885419" />
    <text
       id="text4979"
       y="68.710587"
       x="285.78094"
       style="font-style:normal;font-variant:normal;font-weight:normal;font-stretch:normal;font-size:3.175px;line-height:0%;font-family:Cantarell;-inkscape-font-specification:Cantarell;text-align:center;letter-spacing:0px;word-spacing:0px;text-anchor:middle;display:inline;fill:#5e5c64;fill-opacity:1;stroke:none;stroke-width:0.264583"
       xml:space="preserve"
       inkscape:export-xdpi="90"
       inkscape:export-ydpi="90"><tspan
         y="68.710587"
         x="285.78094"
         sodipodi:role="line"
         style="font-style:normal;font-variant:normal;font-weight:bold;font-stretch:normal;font-size:3.63802px;line-height:1.25;font-family:Cantarell;-inkscape-font-specification:Cantarell;text-align:center;text-anchor:middle;fill:#5e5c64;fill-opacity:1;stroke-width:0.264583"
         id="tspan4977">6</tspan><tspan
         y="73.25811"
         x="285.78094"
         sodipodi:role="line"
         style="font-style:normal;font-variant:normal;font-weight:bold;font-stretch:normal;font-size:3.63802px;line-height:1.25;font-family:Cantarell;-inkscape-font-specification:Cantarell;text-align:center;text-anchor:middle;fill:#5e5c64;fill-opacity:1;stroke-width:0.264583"
         id="tspan9305">8</tspan></text>
  </g>
  <g
     inkscape:groupmode="layer"
     id="layer2"
     inkscape:label="notes"
     style="display:inline">
    <text
       xml:space="preserve"
       style="font-style:normal;font-variant:normal;font-weight:normal;font-stretch:normal;font-size:3.175px;line-height:1.2;font-family:Cantarell;-inkscape-font-specification:Cantarell;letter-spacing:0px;word-spacing:0px;display:inline;fill:#2e3436;fill-opacity:1;stroke:none;stroke-width:0.264583"
       x="124.09702"
       y="112.67385"
       id="text117812-4"><tspan
         style="font-size:3.70417px;fill:#3584e4;stroke-width:0.264583"
         sodipodi:role="line"
         x="124.09702"
         y="112.67385"
         id="tspan79825">Clicking anywhere on the slider and </tspan><tspan
         style="font-size:3.70417px;fill:#3584e4;stroke-width:0.264583"
         sodipodi:role="line"
         x="124.09702"
         y="117.11886"
         id="tspan83025">dragging it with the mouse will rotate it </tspan><tspan
         style="font-size:3.70417px;fill:#3584e4;stroke-width:0.264583"
         sodipodi:role="line"
         x="124.09702"
         y="121.56386"
         id="tspan92273">around the dial. </tspan><tspan
         style="font-size:3.70417px;fill:#3584e4;stroke-width:0.264583"
         sodipodi:role="line"
         x="124.09702"
         y="126.00887"
         id="tspan173720" /><tspan
         style="font-size:3.70417px;fill:#3584e4;stroke-width:0.264583"
         sodipodi:role="line"
         x="124.09702"
         y="130.45387"
         id="tspan173728">Scrolling anywhere on the &quot;trough&quot; will </tspan><tspan
         style="font-size:3.70417px;fill:#3584e4;stroke-width:0.264583"
         sodipodi:role="line"
         x="124.09702"
         y="134.89886"
         id="tspan218583">move the slider as well relative to the </tspan><tspan
         style="font-size:3.70417px;fill:#3584e4;stroke-width:0.264583"
         sodipodi:role="line"
         x="124.09702"
         y="139.34387"
         id="tspan220961">mouse position</tspan></text>
    <text
       xml:space="preserve"
       style="font-style:normal;font-variant:normal;font-weight:normal;font-stretch:normal;font-size:3.175px;line-height:1.2;font-family:Cantarell;-inkscape-font-specification:Cantarell;letter-spacing:0px;word-spacing:0px;display:inline;fill:#2e3436;fill-opacity:1;stroke:none;stroke-width:0.264583"
       x="124.09703"
       y="80.923874"
       id="text92714"><tspan
         style="font-size:3.70417px;fill:#3584e4;stroke-width:0.264583"
         sodipodi:role="line"
         x="124.09703"
         y="80.923874"
         id="tspan92712">Drag handles allow the range/size of</tspan><tspan
         style="font-size:3.70417px;fill:#3584e4;stroke-width:0.264583"
         sodipodi:role="line"
         x="124.09703"
         y="85.368881"
         id="tspan92747">the slider to be extended or shrank</tspan><tspan
         style="font-size:3.70417px;fill:#3584e4;stroke-width:0.264583"
         sodipodi:role="line"
         x="124.09703"
         y="89.813881"
         id="tspan92749">by changing where each terminal starts</tspan><tspan
         style="font-size:3.70417px;fill:#3584e4;stroke-width:0.264583"
         sodipodi:role="line"
         x="124.09703"
         y="94.258888"
         id="tspan102111">around the dial</tspan></text>
    <text
       xml:space="preserve"
       style="font-style:normal;font-variant:normal;font-weight:normal;font-stretch:normal;font-size:3.175px;line-height:1.2;font-family:Cantarell;-inkscape-font-specification:Cantarell;letter-spacing:0px;word-spacing:0px;display:inline;fill:#2e3436;fill-opacity:1;stroke:none;stroke-width:0.264583"
       x="124.09703"
       y="169.29471"
       id="text141696"><tspan
         style="font-size:3.70417px;fill:#3584e4;stroke-width:0.264583"
         sodipodi:role="line"
         x="124.09703"
         y="169.29471"
         id="tspan144273">Values of the minimum and maximum </tspan><tspan
         style="font-size:3.70417px;fill:#3584e4;stroke-width:0.264583"
         sodipodi:role="line"
         x="124.09703"
         y="173.73972"
         id="tspan160981">and what they correspond to are shown</tspan><tspan
         style="font-size:3.70417px;fill:#3584e4;stroke-width:0.264583"
         sodipodi:role="line"
         x="124.09703"
         y="178.18472"
         id="tspan160983">in relevant list items.</tspan></text>
    <text
       xml:space="preserve"
       style="font-style:normal;font-variant:normal;font-weight:normal;font-stretch:normal;font-size:3.175px;line-height:1.2;font-family:Cantarell;-inkscape-font-specification:Cantarell;letter-spacing:0px;word-spacing:0px;display:inline;fill:#2e3436;fill-opacity:1;stroke:none;stroke-width:0.264583"
       x="124.09703"
       y="153.94885"
       id="text142217"><tspan
         style="font-size:3.70417px;fill:#3584e4;stroke-width:0.264583"
         sodipodi:role="line"
         x="124.09703"
         y="153.94885"
         id="tspan142215">Range total and relevant unit is displayed</tspan><tspan
         style="font-size:3.70417px;fill:#3584e4;stroke-width:0.264583"
         sodipodi:role="line"
         x="124.09703"
         y="158.39386"
         id="tspan142448">below the dial.</tspan></text>
    <circle
       style="opacity:1;fill:#3584e4;fill-opacity:1;stroke:none;stroke-width:2;stroke-linecap:round;stroke-linejoin:round;stroke-miterlimit:4;stroke-dasharray:2, 2;stroke-dashoffset:0;stroke-opacity:1"
       id="path79677"
       cx="93.397919"
       cy="112.44795"
       r="1.3229166" />
    <path
       style="display:inline;fill:none;stroke:#3584e4;stroke-width:0.529167;stroke-linecap:butt;stroke-linejoin:miter;stroke-miterlimit:4;stroke-dasharray:0.529167, 0.529167;stroke-dashoffset:0;stroke-opacity:1"
       d="M 121.97291,82.285426 H 72.760416"
       id="path31296"
       sodipodi:nodetypes="cc" />
    <path
       style="display:inline;fill:#3584e4;fill-opacity:1;stroke:none;stroke-width:0.264583px;stroke-linecap:butt;stroke-linejoin:miter;stroke-opacity:1"
       d="m 72.231249,81.227086 v 2.11667 l -1.058337,-1.05833 z"
       id="path31298"
       sodipodi:nodetypes="cccc" />
    <path
       id="circle102623"
       style="opacity:0.1;fill:#3584e4;fill-opacity:1;stroke:none;stroke-width:2;stroke-linecap:round;stroke-linejoin:round;stroke-miterlimit:4;stroke-dasharray:2, 2;stroke-dashoffset:0;stroke-opacity:1"
       d="m 94.609732,116.6797 c -0.209843,0.48249 -0.685663,0.79477 -1.211813,0.7953 -0.525593,-4.7e-4 -1.001057,-0.31204 -1.211294,-0.79375 -0.07325,0.16682 -0.111252,0.34698 -0.111623,0.52917 -2e-6,0.73063 0.592289,1.32292 1.322917,1.32292 0.730628,0 1.322919,-0.59229 1.322917,-1.32292 6e-6,-0.18268 -0.03782,-0.36338 -0.111104,-0.53072 z"
       sodipodi:nodetypes="ccccssc" />
    <path
       id="circle102621"
       style="opacity:0.2;fill:#3584e4;fill-opacity:1;stroke:none;stroke-width:2;stroke-linecap:round;stroke-linejoin:round;stroke-miterlimit:4;stroke-dasharray:2, 2;stroke-dashoffset:0;stroke-opacity:1"
       d="m 94.609732,115.0922 c -0.209843,0.48249 -0.685663,0.79477 -1.211813,0.7953 -0.525593,-4.7e-4 -1.001057,-0.31204 -1.211294,-0.79375 -0.07325,0.16682 -0.111252,0.34698 -0.111623,0.52917 4e-6,0.73062 0.592293,1.32291 1.322917,1.32291 0.730624,0 1.322913,-0.59229 1.322917,-1.32291 6e-6,-0.18268 -0.03782,-0.36338 -0.111104,-0.53072 z"
       sodipodi:nodetypes="ccccssc" />
    <path
       id="circle102865"
       style="opacity:0.4;fill:#3584e4;fill-opacity:1;stroke:none;stroke-width:2;stroke-linecap:round;stroke-linejoin:round;stroke-miterlimit:4;stroke-dasharray:2, 2;stroke-dashoffset:0;stroke-opacity:1"
       d="m 94.609732,113.5047 c -0.209844,0.48249 -0.685664,0.79477 -1.211813,0.7953 -0.525592,-4.7e-4 -1.001056,-0.31203 -1.211294,-0.79375 -0.07325,0.16682 -0.11125,0.34697 -0.111623,0.52916 -2e-6,0.73063 0.592289,1.32292 1.322917,1.32292 0.730628,0 1.322919,-0.59229 1.322917,-1.32292 4e-6,-0.18268 -0.03783,-0.36338 -0.111104,-0.53071 z"
       sodipodi:nodetypes="ccccssc" />
    <path
       style="display:inline;fill:none;stroke:#3584e4;stroke-width:0.529167;stroke-linecap:butt;stroke-linejoin:miter;stroke-miterlimit:4;stroke-dasharray:0.529167, 0.529167;stroke-dashoffset:0;stroke-opacity:1"
       d="M 121.97291,112.44791 H 96.043749"
       id="path102950"
       sodipodi:nodetypes="cc" />
    <path
       style="display:inline;fill:none;stroke:#3584e4;stroke-width:0.529167;stroke-linecap:butt;stroke-linejoin:miter;stroke-miterlimit:4;stroke-dasharray:0.529167, 0.529167;stroke-dashoffset:0;stroke-opacity:1"
       d="m 121.97291,169.0688 h -14.2875"
       id="path141684"
       sodipodi:nodetypes="cc" />
    <path
       style="display:inline;fill:#3584e4;fill-opacity:1;stroke:none;stroke-width:0.264583px;stroke-linecap:butt;stroke-linejoin:miter;stroke-opacity:1"
       d="m 107.15624,168.01046 v 2.11667 l -1.05833,-1.05833 z"
       id="path141686"
       sodipodi:nodetypes="cccc" />
    <path
       style="display:inline;fill:none;stroke:#3584e4;stroke-width:0.529167;stroke-linecap:butt;stroke-linejoin:miter;stroke-miterlimit:4;stroke-dasharray:0.529167, 0.529167;stroke-dashoffset:0;stroke-opacity:1"
       d="M 121.97291,153.19379 H 78.052082"
       id="path142205"
       sodipodi:nodetypes="cc" />
    <path
       style="display:inline;fill:#3584e4;fill-opacity:1;stroke:none;stroke-width:0.264583px;stroke-linecap:butt;stroke-linejoin:miter;stroke-opacity:1"
       d="m 77.522912,152.13545 v 2.11667 l -1.05833,-1.05833 z"
       id="path142207"
       sodipodi:nodetypes="cccc" />
    <path
       style="display:inline;fill:none;stroke:#3584e4;stroke-width:0.529167;stroke-linecap:butt;stroke-linejoin:miter;stroke-miterlimit:4;stroke-dasharray:0.529167, 0.529167;stroke-dashoffset:0;stroke-opacity:1"
       d="M 322.52719,126.73544 H 280.19385"
       id="path167819"
       sodipodi:nodetypes="cc" />
    <path
       style="display:inline;fill:#3584e4;fill-opacity:1;stroke:none;stroke-width:0.264583px;stroke-linecap:butt;stroke-linejoin:miter;stroke-opacity:1"
       d="m 280.19385,125.6771 v 2.11667 l -1.05833,-1.05833 z"
       id="path167821"
       sodipodi:nodetypes="cccc" />
    <text
       xml:space="preserve"
       style="font-style:normal;font-variant:normal;font-weight:normal;font-stretch:normal;font-size:3.175px;line-height:1.2;font-family:Cantarell;-inkscape-font-specification:Cantarell;letter-spacing:0px;word-spacing:0px;display:inline;fill:#2e3436;fill-opacity:1;stroke:none;stroke-width:0.264583"
       x="325.18033"
       y="125.37383"
       id="text167827"><tspan
         style="font-size:3.70417px;fill:#3584e4;stroke-width:0.264583"
         sodipodi:role="line"
         x="325.18033"
         y="125.37383"
         id="tspan167823">Range total and relevant unit is displayed</tspan><tspan
         style="font-size:3.70417px;fill:#3584e4;stroke-width:0.264583"
         sodipodi:role="line"
         x="325.18033"
         y="129.81883"
         id="tspan167825">within the dial, can be directly edited via</tspan><tspan
         style="font-size:3.70417px;fill:#3584e4;stroke-width:0.264583"
         sodipodi:role="line"
         x="325.18033"
         y="134.26384"
         id="tspan69572">text input if need be.</tspan></text>
    <path
       style="display:inline;fill:none;stroke:#3584e4;stroke-width:0.529167;stroke-linecap:butt;stroke-linejoin:miter;stroke-miterlimit:4;stroke-dasharray:0.529167, 0.529167;stroke-dashoffset:0;stroke-opacity:1"
       d="M 322.52719,105.56876 H 290.77718"
       id="path253233"
       sodipodi:nodetypes="cc" />
    <path
       style="display:inline;fill:#3584e4;fill-opacity:1;stroke:none;stroke-width:0.264583px;stroke-linecap:butt;stroke-linejoin:miter;stroke-opacity:1"
       d="m 290.77718,104.51042 v 2.11667 l -1.05833,-1.05833 z"
       id="path253235"
       sodipodi:nodetypes="cccc" />
    <text
       xml:space="preserve"
       style="font-style:normal;font-variant:normal;font-weight:normal;font-stretch:normal;font-size:3.175px;line-height:1.2;font-family:Cantarell;-inkscape-font-specification:Cantarell;letter-spacing:0px;word-spacing:0px;display:inline;fill:#2e3436;fill-opacity:1;stroke:none;stroke-width:0.264583"
       x="325.18033"
       y="104.20717"
       id="text253241"><tspan
         style="font-size:3.70417px;fill:#3584e4;stroke-width:0.264583"
         sodipodi:role="line"
         x="325.18033"
         y="104.20717"
         id="tspan253239">The slider can be grabbed and rotated</tspan><tspan
         style="font-size:3.70417px;fill:#3584e4;stroke-width:0.264583"
         sodipodi:role="line"
         x="325.18033"
         y="108.65218"
         id="tspan255106">endlessly around the dial. Even when the</tspan><tspan
         style="font-size:3.70417px;fill:#3584e4;stroke-width:0.264583"
         sodipodi:role="line"
         x="325.18033"
         y="113.09718"
         id="tspan256169">maximum value reached</tspan></text>
    <path
       style="display:inline;fill:none;stroke:#3584e4;stroke-width:0.529167;stroke-linecap:butt;stroke-linejoin:miter;stroke-miterlimit:4;stroke-dasharray:0.529167, 0.529167;stroke-dashoffset:0;stroke-opacity:1"
       d="M 322.52719,146.84378 H 280.19385"
       id="path16567"
       sodipodi:nodetypes="cc" />
    <text
       xml:space="preserve"
       style="font-style:normal;font-variant:normal;font-weight:normal;font-stretch:normal;font-size:3.175px;line-height:1.2;font-family:Cantarell;-inkscape-font-specification:Cantarell;letter-spacing:0px;word-spacing:0px;display:inline;fill:#2e3436;fill-opacity:1;stroke:none;stroke-width:0.264583"
       x="325.18033"
       y="145.48219"
       id="text16575"><tspan
         style="font-size:3.70417px;fill:#3584e4;stroke-width:0.264583"
         sodipodi:role="line"
         x="325.18033"
         y="145.48219"
         id="tspan16573">Clicking anywhere in the trough will move</tspan><tspan
         style="font-size:3.70417px;fill:#3584e4;stroke-width:0.264583"
         sodipodi:role="line"
         x="325.18033"
         y="149.9272"
         id="tspan18797">the slider to that position as if it were being</tspan><tspan
         style="font-size:3.70417px;fill:#3584e4;stroke-width:0.264583"
         sodipodi:role="line"
         x="325.18033"
         y="154.37221"
         id="tspan19708">rotated</tspan></text>
    <circle
       style="display:inline;fill:#3584e4;fill-opacity:1;stroke:none;stroke-width:2;stroke-linecap:round;stroke-linejoin:round;stroke-miterlimit:4;stroke-dasharray:2, 2;stroke-dashoffset:0;stroke-opacity:1"
       id="path79677-3"
       cx="278.87085"
       cy="146.84375"
       r="1.3229166" />
  </g>
</svg>
