<?xml version="1.0" encoding="UTF-8" standalone="no"?>
<!-- Created with Inkscape (http://www.inkscape.org/) -->

<svg
   width="2000"
   height="1500"
   viewBox="0 0 529.16665 396.87499"
   version="1.1"
   id="svg69188"
   sodipodi:docname="recovery-key.svg"
   inkscape:version="1.3 (0e150ed6c4, 2023-07-21)"
   xml:space="preserve"
   inkscape:export-filename="../recovery-key.png"
   inkscape:export-xdpi="90"
   inkscape:export-ydpi="90"
   xmlns:inkscape="http://www.inkscape.org/namespaces/inkscape"
   xmlns:sodipodi="http://sodipodi.sourceforge.net/DTD/sodipodi-0.dtd"
   xmlns:xlink="http://www.w3.org/1999/xlink"
   xmlns="http://www.w3.org/2000/svg"
   xmlns:svg="http://www.w3.org/2000/svg"><sodipodi:namedview
     id="namedview69190"
     pagecolor="#ffffff"
     bordercolor="#000000"
     borderopacity="0.25"
     inkscape:showpageshadow="2"
     inkscape:pageopacity="1"
     inkscape:pagecheckerboard="0"
     inkscape:deskcolor="#d1d1d1"
     inkscape:document-units="px"
     showgrid="false"
     inkscape:zoom="1"
     inkscape:cx="757.5"
     inkscape:cy="659.5"
     inkscape:window-width="2560"
     inkscape:window-height="1531"
     inkscape:window-x="0"
     inkscape:window-y="0"
     inkscape:window-maximized="1"
     inkscape:current-layer="layer1"
     inkscape:export-bgcolor="#ffffffff"><inkscape:grid
       type="xygrid"
       id="grid70066"
       originx="0"
       originy="0"
       spacingy="0.26458333"
       spacingx="0.26458333"
       units="px"
       visible="false" /></sodipodi:namedview><defs
     id="defs69185"><rect
       x="-240.00005"
       y="1027.5186"
       width="1034.9219"
       height="117.48434"
       id="rect63206" /><rect
       x="-240.00005"
       y="1027.5186"
       width="1034.9219"
       height="117.48434"
       id="rect69896" /><rect
       x="-240.00005"
       y="1027.5186"
       width="867.10553"
       height="132.32809"
       id="rect70900" /><rect
       x="-240.00005"
       y="1027.5186"
       width="1034.9219"
       height="117.48434"
       id="rect610329" /><rect
       x="-240.00005"
       y="1027.5186"
       width="1034.9219"
       height="117.48434"
       id="rect1233221" /><rect
       x="-240.00005"
       y="1027.5186"
       width="1034.9219"
       height="117.48434"
       id="rect8" /><rect
       x="-240.00005"
       y="1027.5186"
       width="1034.9219"
       height="117.48434"
       id="rect21" /><rect
       x="-240.00005"
       y="1027.5186"
       width="1034.9219"
       height="117.48434"
       id="rect29" /><rect
       x="-240.00005"
       y="1027.5186"
       width="1034.9219"
       height="117.48434"
       id="rect30" /></defs><g
     inkscape:label="Layer 1"
     inkscape:groupmode="layer"
     id="layer1"><rect
       inkscape:export-ydpi="90"
       inkscape:export-xdpi="90"
       y="50.413601"
       x="16.007292"
       height="165.89375"
       width="232.56876"
       id="rect610257"
       style="display:inline;fill:#fafafa;fill-opacity:1;stroke:#cfcfcf;stroke-width:0.264583;stroke-linecap:square;stroke-miterlimit:4;stroke-dasharray:none;stroke-dashoffset:0;stroke-opacity:1"
       rx="3.175"
       ry="3.175" /><text
       xml:space="preserve"
       id="text610269"
       style="font-style:normal;font-weight:normal;font-size:29.3333px;line-height:1.25;font-family:sans-serif;text-align:center;white-space:pre;shape-inside:url(#rect610329);display:inline;fill:#323232;fill-opacity:1;stroke:none"
       transform="matrix(0.26458333,0,0,0.26458333,58.763652,-203.85517)"
       x="68.07991"
       y="0"><tspan
         x="173.22505"
         y="1053.8612"
         id="tspan2"><tspan
           style="font-weight:800;font-family:Cantarell;-inkscape-font-specification:'Cantarell Ultra-Bold';text-anchor:middle"
           id="tspan1">Set a password</tspan></tspan></text><circle
       style="fill:#d9d9d9;fill-opacity:1;stroke:#2b7ee3;stroke-width:0;stroke-linecap:round;stroke-miterlimit:4;stroke-dasharray:none;stroke-opacity:1"
       id="circle1150890"
       cx="27.781261"
       cy="133.36304"
       r="6.3499994" /><g
       inkscape:label="go previous arrow left back"
       id="g1150898"
       transform="matrix(0,0.26458333,-0.26458333,0,81.22793,88.083399)"
       style="stroke-width:1"><title
         id="title1150892">go-previous</title><path
         d="m 165.13672,199.00391 a 1,1 0 0 0 -0.70899,0.29296 1,1 0 0 0 0,1.41407 l 6,6 a 1.0001,1.0001 0 0 0 1.41602,0 l 6,-6 a 1,1 0 0 0 0,-1.41407 1,1 0 0 0 -1.41602,0 l -5.29101,5.29297 -5.29297,-5.29297 a 1,1 0 0 0 -0.70703,-0.29296 z"
         id="path1150894"
         style="fill:#2e3436;fill-opacity:1;stroke-width:1" /><rect
         y="195.00317"
         x="163.1358"
         height="16"
         width="16"
         id="rect1150896"
         style="fill:none;fill-opacity:1;stroke-width:1" /></g><g
       id="g1150910"
       transform="translate(394.82042,1743.8422)"><circle
         style="opacity:0.506708;fill:#d9d9d9;fill-opacity:1;stroke:#2b7ee3;stroke-width:0;stroke-linecap:round;stroke-miterlimit:4;stroke-dasharray:none;stroke-opacity:1"
         id="circle1150900"
         cx="158.81209"
         cy="-1610.4792"
         r="6.3499994"
         transform="scale(-1,1)" /><g
         inkscape:label="go previous arrow left back"
         id="g1150908"
         transform="matrix(0,0.26458333,0.26458333,0,-212.52335,-1655.7589)"
         style="opacity:0.506708;stroke-width:1"><title
           id="title1150902">go-previous</title><path
           d="m 165.13672,199.00391 a 1,1 0 0 0 -0.70899,0.29296 1,1 0 0 0 0,1.41407 l 6,6 a 1.0001,1.0001 0 0 0 1.41602,0 l 6,-6 a 1,1 0 0 0 0,-1.41407 1,1 0 0 0 -1.41602,0 l -5.29101,5.29297 -5.29297,-5.29297 a 1,1 0 0 0 -0.70703,-0.29296 z"
           id="path1150904"
           style="fill:#2e3436;fill-opacity:1;stroke-width:1" /><rect
           y="195.00317"
           x="163.1358"
           height="16"
           width="16"
           id="rect1150906"
           style="fill:none;fill-opacity:1;stroke-width:1" /></g></g><text
       xml:space="preserve"
       id="text1233219"
       style="font-style:normal;font-weight:normal;font-size:26.6667px;line-height:1.25;font-family:sans-serif;text-align:start;white-space:pre;shape-inside:url(#rect1233221);display:inline;fill:#323232;fill-opacity:1;stroke:none"
       transform="matrix(0.26458333,0,0,0.26458333,79.33497,-255.71121)"
       x="-33.951954"
       y="0"><tspan
         x="-240"
         y="1051.4666"
         id="tspan4"><tspan
           style="font-weight:800;font-family:Cantarell;-inkscape-font-specification:'Cantarell Ultra-Bold'"
           id="tspan3">Password &amp; Recovery</tspan></tspan></text><rect
       ry="1.0583333"
       rx="1.0583332"
       y="111.92654"
       x="69.053169"
       height="2.1166663"
       width="122.23749"
       id="rect183302"
       style="color:#000000;display:inline;overflow:visible;visibility:visible;fill:#e6e6e6;fill-opacity:1;fill-rule:nonzero;stroke:#e6e6e6;stroke-width:0;stroke-miterlimit:4;stroke-dasharray:none;stroke-opacity:1;marker:none;enable-background:new" /><rect
       ry="1.0583333"
       rx="1.0583332"
       y="111.92654"
       x="69.053169"
       height="2.1166663"
       width="73.818039"
       id="rect183308"
       style="color:#000000;display:inline;overflow:visible;visibility:visible;fill:#f5c211;fill-opacity:1;fill-rule:nonzero;stroke:#e6e6e6;stroke-width:0;stroke-miterlimit:4;stroke-dasharray:none;stroke-opacity:1;marker:none;enable-background:new" /><rect
       inkscape:export-ydpi="90"
       inkscape:export-xdpi="90"
       style="display:inline;fill:#000000;fill-opacity:0.08;stroke:#000000;stroke-width:0;stroke-miterlimit:4;stroke-dasharray:none;stroke-opacity:1"
       id="rect183322"
       width="122.23749"
       height="15.610415"
       x="69.053169"
       y="92.611732"
       rx="2.3397272"
       ry="2.3397279" /><rect
       inkscape:export-ydpi="90"
       inkscape:export-xdpi="90"
       style="display:inline;fill:#fcfdff;fill-opacity:1;stroke:#ececec;stroke-width:0;stroke-miterlimit:4;stroke-dasharray:none;stroke-opacity:1"
       id="rect183324"
       width="121.70833"
       height="14.287499"
       x="69.316208"
       y="92.874519"
       rx="2.1883838"
       ry="2.1883833" /><text
       xml:space="preserve"
       style="font-style:normal;font-variant:normal;font-weight:normal;font-stretch:normal;font-size:3.175px;line-height:0%;font-family:Cantarell;-inkscape-font-specification:Cantarell;letter-spacing:0px;word-spacing:0px;display:inline;fill:#939799;fill-opacity:1;stroke:none;stroke-width:0.264583"
       x="74.076637"
       y="98.0233"
       id="text183328"><tspan
         style="font-size:3.175px;line-height:1.25;fill:#939799;fill-opacity:1;stroke-width:0.264583"
         sodipodi:role="line"
         id="tspan183326"
         x="74.076637"
         y="98.0233">Password</tspan></text><circle
       style="display:inline;fill:#2e3436;stroke:#2e3436;stroke-width:0;stroke-linecap:round;stroke-miterlimit:4;stroke-dasharray:none"
       id="circle183330"
       cx="97.096031"
       cy="102.14888"
       r="1.3229162" /><circle
       style="display:inline;fill:#2e3436;stroke:#2e3436;stroke-width:0;stroke-linecap:round;stroke-miterlimit:4;stroke-dasharray:none"
       id="circle183332"
       cx="92.862701"
       cy="102.14888"
       r="1.3229162" /><circle
       style="display:inline;fill:#2e3436;stroke:#2e3436;stroke-width:0;stroke-linecap:round;stroke-miterlimit:4;stroke-dasharray:none"
       id="circle183334"
       cx="88.629364"
       cy="102.14888"
       r="1.3229162" /><circle
       style="display:inline;fill:#2e3436;stroke:#2e3436;stroke-width:0;stroke-linecap:round;stroke-miterlimit:4;stroke-dasharray:none"
       id="circle183336"
       cx="84.396034"
       cy="102.14888"
       r="1.3229162" /><circle
       style="display:inline;fill:#2e3436;stroke:#2e3436;stroke-width:0;stroke-linecap:round;stroke-miterlimit:4;stroke-dasharray:none"
       id="circle183338"
       cx="80.162697"
       cy="102.14888"
       r="1.3229162" /><circle
       style="display:inline;fill:#2e3436;stroke:#2e3436;stroke-width:0;stroke-linecap:round;stroke-miterlimit:4;stroke-dasharray:none"
       id="circle183340"
       cx="75.929367"
       cy="102.14888"
       r="1.3229162" /><circle
       style="display:inline;fill:#2e3436;stroke:#2e3436;stroke-width:0;stroke-linecap:round;stroke-miterlimit:4;stroke-dasharray:none"
       id="circle183342"
       cx="101.32935"
       cy="102.14888"
       r="1.3229162" /><path
       d="m 173.10784,97.856259 c -0.15296,0.003 -0.30901,0.061 -0.44752,0.19947 l -2.38125,2.381251 c -0.0992,0.0992 -0.15502,0.2336 -0.15502,0.37415 v 0.79375 h 0.79375 c 0.14057,0 0.27493,-0.0558 0.37415,-0.15502 l 2.38125,-2.381253 c 0.47334,-0.47337 0.0217,-1.161708 -0.50025,-1.209227 -0.0217,-0.003 -0.0434,-0.003 -0.0651,-0.003 z m -0.47025,0.953957 0.28112,0.28112 -1.86862,1.868624 -0.28112,-0.28112 z"
       fill="#2e3436"
       id="path183344"
       style="display:inline;fill:#2e3436;fill-opacity:1;stroke-width:0.264583"
       sodipodi:nodetypes="ccsscssccccccccc" /><g
       id="g183350"
       style="display:inline;fill:#2e3436"
       transform="matrix(0.26458332,0,0,0.26458332,154.51662,-2.9054885)"><path
         style="opacity:1;vector-effect:none;fill:#2e3436;fill-opacity:1;stroke:none;stroke-width:1.5;stroke-linecap:butt;stroke-linejoin:round;stroke-miterlimit:4;stroke-dasharray:none;stroke-dashoffset:0;stroke-opacity:1;marker:none;marker-start:none;marker-mid:none;marker-end:none;paint-order:normal"
         id="path183346"
         d="m 108,382 a 8,8 0 0 0 -7.73828,6.00977 A 8,8 0 0 0 108,394 8,8 0 0 0 115.73828,387.99023 8,8 0 0 0 108,382 Z m 0,2 a 4,4 0 0 1 4,4 4,4 0 0 1 -4,4 4,4 0 0 1 -4,-4 4,4 0 0 1 4,-4 z"
         inkscape:connector-curvature="0" /><path
         style="vector-effect:none;fill:#2e3436;fill-opacity:1;stroke:none;stroke-width:1;stroke-linecap:round;stroke-linejoin:round;stroke-miterlimit:4;stroke-dasharray:none;stroke-opacity:1"
         d="m 110,388.00003 a 2,2 0 0 1 -2,2 2,2 0 0 1 -2,-2 2,2 0 0 1 2,-2 2,2 0 0 1 2,2 z"
         id="path183348"
         inkscape:connector-curvature="0" /></g><rect
       inkscape:export-ydpi="90"
       inkscape:export-xdpi="90"
       style="display:inline;fill:#000000;fill-opacity:0.08;stroke:#000000;stroke-width:0;stroke-miterlimit:4;stroke-dasharray:none;stroke-opacity:1"
       id="rect183352"
       width="122.23749"
       height="15.610415"
       x="69.053169"
       y="127.00748"
       rx="2.3397272"
       ry="2.3397279" /><rect
       inkscape:export-ydpi="90"
       inkscape:export-xdpi="90"
       style="display:inline;fill:#fcfdff;fill-opacity:1;stroke:#ececec;stroke-width:0;stroke-miterlimit:4;stroke-dasharray:none;stroke-opacity:1"
       id="rect183354"
       width="121.70833"
       height="14.287499"
       x="69.316208"
       y="127.27023"
       rx="2.1883838"
       ry="2.1883833" /><text
       xml:space="preserve"
       style="font-style:normal;font-variant:normal;font-weight:normal;font-stretch:normal;font-size:3.175px;line-height:0%;font-family:Cantarell;-inkscape-font-specification:Cantarell;letter-spacing:0px;word-spacing:0px;display:inline;fill:#939799;fill-opacity:1;stroke:none;stroke-width:0.264583"
       x="74.076637"
       y="132.41908"
       id="text183358"><tspan
         style="font-size:3.175px;line-height:1.25;fill:#939799;fill-opacity:1;stroke-width:0.264583"
         sodipodi:role="line"
         id="tspan183356"
         x="74.076637"
         y="132.41908">Confirm Password</tspan></text><path
       style="display:inline;fill:none;stroke:#000000;stroke-width:0.264583px;stroke-linecap:butt;stroke-linejoin:miter;stroke-opacity:1"
       d="m 103.58129,133.88593 v 5.29167"
       id="path183360"
       sodipodi:nodetypes="cc" /><circle
       style="display:inline;fill:#2e3436;stroke:#2e3436;stroke-width:0;stroke-linecap:round;stroke-miterlimit:4;stroke-dasharray:none"
       id="circle183362"
       cx="97.096031"
       cy="136.54471"
       r="1.3229162" /><circle
       style="display:inline;fill:#2e3436;stroke:#2e3436;stroke-width:0;stroke-linecap:round;stroke-miterlimit:4;stroke-dasharray:none"
       id="circle183364"
       cx="92.862701"
       cy="136.54471"
       r="1.3229162" /><circle
       style="display:inline;fill:#2e3436;stroke:#2e3436;stroke-width:0;stroke-linecap:round;stroke-miterlimit:4;stroke-dasharray:none"
       id="circle183366"
       cx="88.629364"
       cy="136.54471"
       r="1.3229162" /><circle
       style="display:inline;fill:#2e3436;stroke:#2e3436;stroke-width:0;stroke-linecap:round;stroke-miterlimit:4;stroke-dasharray:none"
       id="circle183368"
       cx="84.396034"
       cy="136.54471"
       r="1.3229162" /><circle
       style="display:inline;fill:#2e3436;stroke:#2e3436;stroke-width:0;stroke-linecap:round;stroke-miterlimit:4;stroke-dasharray:none"
       id="circle183370"
       cx="80.162697"
       cy="136.54471"
       r="1.3229162" /><circle
       style="display:inline;fill:#2e3436;stroke:#2e3436;stroke-width:0;stroke-linecap:round;stroke-miterlimit:4;stroke-dasharray:none"
       id="circle183372"
       cx="75.929367"
       cy="136.54471"
       r="1.3229162" /><circle
       style="display:inline;fill:#2e3436;stroke:#2e3436;stroke-width:0;stroke-linecap:round;stroke-miterlimit:4;stroke-dasharray:none"
       id="circle183374"
       cx="101.32935"
       cy="136.54471"
       r="1.3229162" /><path
       d="m 173.10784,132.25205 c -0.15296,0.003 -0.30901,0.061 -0.44752,0.19947 l -2.38125,2.38125 c -0.0992,0.0992 -0.15502,0.2336 -0.15502,0.37415 v 0.79375 h 0.79375 c 0.14057,0 0.27493,-0.0558 0.37415,-0.15502 l 2.38125,-2.38125 c 0.47334,-0.47337 0.0217,-1.16171 -0.50025,-1.20923 -0.0217,-0.003 -0.0434,-0.003 -0.0651,-0.003 z m -0.47025,0.95396 0.28112,0.28112 -1.86862,1.86862 -0.28112,-0.28112 z"
       fill="#2e3436"
       id="path183376"
       style="display:inline;fill:#2e3436;fill-opacity:1;stroke-width:0.264583"
       sodipodi:nodetypes="ccsscssccccccccc" /><g
       id="g183382"
       style="display:inline;fill:#2e3436"
       transform="matrix(0.26458332,0,0,0.26458332,154.51662,31.490336)"><path
         style="opacity:1;vector-effect:none;fill:#2e3436;fill-opacity:1;stroke:none;stroke-width:1.5;stroke-linecap:butt;stroke-linejoin:round;stroke-miterlimit:4;stroke-dasharray:none;stroke-dashoffset:0;stroke-opacity:1;marker:none;marker-start:none;marker-mid:none;marker-end:none;paint-order:normal"
         id="path183378"
         d="m 108,382 a 8,8 0 0 0 -7.73828,6.00977 A 8,8 0 0 0 108,394 8,8 0 0 0 115.73828,387.99023 8,8 0 0 0 108,382 Z m 0,2 a 4,4 0 0 1 4,4 4,4 0 0 1 -4,4 4,4 0 0 1 -4,-4 4,4 0 0 1 4,-4 z"
         inkscape:connector-curvature="0" /><path
         style="vector-effect:none;fill:#2e3436;fill-opacity:1;stroke:none;stroke-width:1;stroke-linecap:round;stroke-linejoin:round;stroke-miterlimit:4;stroke-dasharray:none;stroke-opacity:1"
         d="m 110,388.00003 a 2,2 0 0 1 -2,2 2,2 0 0 1 -2,-2 2,2 0 0 1 2,-2 2,2 0 0 1 2,2 z"
         id="path183380"
         inkscape:connector-curvature="0" /></g><text
       id="text183386"
       y="-2446.6895"
       x="2290.418"
       style="font-style:normal;font-variant:normal;font-weight:normal;font-stretch:normal;font-size:12px;line-height:145%;font-family:Cantarell;-inkscape-font-specification:Cantarell;text-align:start;letter-spacing:0px;word-spacing:0px;text-anchor:start;white-space:pre;inline-size:448.685;display:inline;fill:#2e3436;fill-opacity:1;stroke:none"
       xml:space="preserve"
       transform="matrix(0.26458332,0,0,0.26458332,-530.60691,796.06509)"><tspan
         x="2290.418"
         y="-2446.6895"
         id="tspan5">Passwords match</tspan></text><g
       inkscape:label="default check done affirmative"
       id="g183394"
       transform="matrix(0,0.26458332,-0.26458332,0,125.14576,102.44075)"
       style="display:inline"><title
         id="title183388">emblem-default</title><rect
         y="195.00317"
         x="163.1358"
         height="16"
         width="16"
         id="rect183390"
         style="fill:none;fill-opacity:1" /><path
         id="path183392"
         style="fill:#26a269;fill-opacity:1"
         d="m 528,628 c -4.40642,0 -8,3.59357 -8,8 0,4.40643 3.59358,8 8,8 4.40643,0 8,-3.59357 8,-8 0,-4.40643 -3.59357,-8 -8,-8 z m 3.40039,4.50586 a 1,1 0 0 1 0.73242,0.2207 1,1 0 0 1 0.14063,1.40625 l -4.5,5.5 a 1.0001,1.0001 0 0 1 -1.48047,0.0742 l -2.5,-2.5 a 1,1 0 0 1 0,-1.41406 1,1 0 0 1 1.41406,0 l 1.71875,1.71875 3.80078,-4.64453 a 1,1 0 0 1 0.67383,-0.36133 z"
         transform="rotate(-90,133.03544,597.96742)" /></g><rect
       inkscape:export-ydpi="90"
       inkscape:export-xdpi="90"
       style="display:inline;fill:none;fill-opacity:1;stroke:#1c71d8;stroke-width:0.529167;stroke-miterlimit:4;stroke-dasharray:none;stroke-opacity:1"
       id="rect190537"
       width="121.17916"
       height="13.758332"
       x="69.580917"
       y="127.53484"
       rx="2.1883838"
       ry="2.1883833" /><g
       id="g1719"
       transform="matrix(0.26458332,0,0,0.26458332,-521.23227,1473.4751)"
       style="display:inline"><text
         id="text1703"
         y="-2446.6895"
         x="2290.418"
         style="font-style:normal;font-variant:normal;font-weight:normal;font-stretch:normal;font-size:12px;line-height:145%;font-family:Cantarell;-inkscape-font-specification:Cantarell;text-align:start;letter-spacing:0px;word-spacing:0px;text-anchor:start;white-space:pre;inline-size:448.685;display:inline;fill:#2e3436;fill-opacity:1;stroke:none"
         xml:space="preserve"
         transform="translate(-37.431826,-2668.2937)"><tspan
           x="2290.418"
           y="-2446.6895"
           id="tspan6">Valid password. Try adding more letters, numbers and punctuation.</tspan></text><g
         inkscape:label="default check done affirmative"
         id="g1711"
         transform="rotate(90,3866.435,-1423.4313)"><title
           id="title1705">emblem-default</title><rect
           y="195.00317"
           x="163.1358"
           height="16"
           width="16"
           id="rect1707"
           style="fill:none;fill-opacity:1" /><path
           id="path1709"
           style="fill:#f5c211;fill-opacity:1"
           d="m 528,628 c -4.40642,0 -8,3.59357 -8,8 0,4.40643 3.59358,8 8,8 4.40643,0 8,-3.59357 8,-8 0,-4.40643 -3.59357,-8 -8,-8 z m 3.40039,4.50586 a 1,1 0 0 1 0.73242,0.2207 1,1 0 0 1 0.14063,1.40625 l -4.5,5.5 a 1.0001,1.0001 0 0 1 -1.48047,0.0742 l -2.5,-2.5 a 1,1 0 0 1 0,-1.41406 1,1 0 0 1 1.41406,0 l 1.71875,1.71875 3.80078,-4.64453 a 1,1 0 0 1 0.67383,-0.36133 z"
           transform="rotate(-90,133.03544,597.96742)" /></g></g><text
       xml:space="preserve"
       id="text8"
       style="font-style:normal;font-weight:normal;font-size:16px;line-height:1.25;font-family:sans-serif;text-align:start;white-space:pre;shape-inside:url(#rect8);display:inline;fill:#323232;fill-opacity:1;stroke:none"
       transform="matrix(0.26458333,0,0,0.26458333,79.33497,-239.83617)"
       x="-33.951954"
       y="0"><tspan
         x="-240"
         y="1041.8877"
         id="tspan8"><tspan
           style="font-family:Cantarell;-inkscape-font-specification:Cantarell"
           id="tspan7">When users are created in an encrypted home environment their password will be used to generate a secure recovery key. It is important to get </tspan></tspan><tspan
         x="-240"
         y="1062.0996"
         id="tspan10"><tspan
           style="font-family:Cantarell;-inkscape-font-specification:Cantarell"
           id="tspan9">them to save this or be aware of how to view it later for their account security.</tspan></tspan></text><rect
       inkscape:export-ydpi="90"
       inkscape:export-xdpi="90"
       y="50.413601"
       x="280.59067"
       height="165.89375"
       width="232.56876"
       id="rect9"
       style="display:inline;fill:#fafafa;fill-opacity:1;stroke:#cfcfcf;stroke-width:0.264583;stroke-linecap:square;stroke-miterlimit:4;stroke-dasharray:none;stroke-dashoffset:0;stroke-opacity:1"
       rx="3.175"
       ry="3.175" /><text
       xml:space="preserve"
       id="text10"
       style="font-style:normal;font-weight:normal;font-size:29.3333px;line-height:1.25;font-family:sans-serif;text-align:center;white-space:pre;shape-inside:url(#rect21);display:inline;fill:#323232;fill-opacity:1;stroke:none"
       transform="matrix(0.26458333,0,0,0.26458333,323.34712,-203.85517)"
       x="68.07991"
       y="0"><tspan
         x="184.50372"
         y="1053.8612"
         id="tspan12"><tspan
           style="font-weight:800;font-family:Cantarell;-inkscape-font-specification:'Cantarell Ultra-Bold';text-anchor:middle"
           id="tspan11">Recovery Key</tspan></tspan></text><g
       id="g13"
       transform="translate(449.79184,1743.8817)"><circle
         style="fill:#d9d9d9;fill-opacity:1;stroke:#2b7ee3;stroke-width:0;stroke-linecap:round;stroke-miterlimit:4;stroke-dasharray:none;stroke-opacity:1"
         id="circle10"
         cx="-157.42708"
         cy="-1610.5188"
         r="6.3499994" /><g
         inkscape:label="go previous arrow left back"
         id="g10"
         transform="matrix(0,0.26458333,-0.26458333,0,-103.98041,-1655.7984)"
         style="stroke-width:1"><title
           id="title10">go-previous</title><path
           d="m 165.13672,199.00391 a 1,1 0 0 0 -0.70899,0.29296 1,1 0 0 0 0,1.41407 l 6,6 a 1.0001,1.0001 0 0 0 1.41602,0 l 6,-6 a 1,1 0 0 0 0,-1.41407 1,1 0 0 0 -1.41602,0 l -5.29101,5.29297 -5.29297,-5.29297 a 1,1 0 0 0 -0.70703,-0.29296 z"
           id="path10"
           style="fill:#2e3436;fill-opacity:1;stroke-width:1" /><rect
           y="195.00317"
           x="163.1358"
           height="16"
           width="16"
           id="rect10"
           style="fill:none;fill-opacity:1;stroke-width:1" /></g><g
         id="g12"
         transform="translate(209.61208,-0.03949754)"><circle
           style="opacity:0.506708;fill:#d9d9d9;fill-opacity:1;stroke:#2b7ee3;stroke-width:0;stroke-linecap:round;stroke-miterlimit:4;stroke-dasharray:none;stroke-opacity:1"
           id="circle11"
           cx="158.81209"
           cy="-1610.4792"
           r="6.3499994"
           transform="scale(-1,1)" /><g
           inkscape:label="go previous arrow left back"
           id="g11"
           transform="matrix(0,0.26458333,0.26458333,0,-212.52335,-1655.7589)"
           style="opacity:0.506708;stroke-width:1"><title
             id="title11">go-previous</title><path
             d="m 165.13672,199.00391 a 1,1 0 0 0 -0.70899,0.29296 1,1 0 0 0 0,1.41407 l 6,6 a 1.0001,1.0001 0 0 0 1.41602,0 l 6,-6 a 1,1 0 0 0 0,-1.41407 1,1 0 0 0 -1.41602,0 l -5.29101,5.29297 -5.29297,-5.29297 a 1,1 0 0 0 -0.70703,-0.29296 z"
             id="path11"
             style="fill:#2e3436;fill-opacity:1;stroke-width:1" /><rect
             y="195.00317"
             x="163.1358"
             height="16"
             width="16"
             id="rect11"
             style="fill:none;fill-opacity:1;stroke-width:1" /></g></g></g><path
       id="rect17"
       style="display:inline;fill-opacity:0.08;stroke:#000000;stroke-width:0"
       d="m 341.00651,120.13011 h 111.7372 c 1.29621,0 2.33973,1.04352 2.33973,2.33973 v 14.63513 c 0,1.29621 -1.04352,2.33973 -2.33973,2.33973 h -111.7372 c -1.29621,0 -2.33973,-1.04352 -2.33973,-2.33973 v -14.63513 c 0,-1.29621 1.04352,-2.33973 2.33973,-2.33973 z"
       sodipodi:nodetypes="sssssssss" /><path
       id="rect18"
       style="display:inline;fill:#fcfdff;stroke:#ececec;stroke-width:0"
       d="m 341.11835,120.39268 h 111.51073 c 1.21236,0 2.18838,0.97602 2.18838,2.18838 v 13.6149 c 0,1.21237 -0.97602,2.18839 -2.18838,2.18839 H 341.11835 c -1.21237,0 -2.18839,-0.97602 -2.18839,-2.18839 v -13.6149 c 0,-1.21236 0.97602,-2.18838 2.18839,-2.18838 z"
       sodipodi:nodetypes="sssssssss" /><g
       id="g52546"
       inkscape:label="qr scan barcode"
       transform="matrix(0.26458332,0,0,0.26458332,422.53956,90.230184)"><title
         id="title52548">qr-code</title><path
         id="rect51788"
         style="fill:#222222"
         d="m 81,141 v 1 4 h 5 v -5 z m 7,0 v 1 h 1 v -1 z m 0,1 h -1 v 1 h 1 z m 0,1 v 1 h -1 v 2 h 2 v -2 -1 z m 2,-2 v 1 4 h 5 v -5 z m -7,2 h 1 v 1 h -1 z m 9,0 h 1 v 1 h -1 z m -11,4 v 1 h 1 v -1 z m 1,1 v 1 h 1 v -1 z m 1,0 h 1 v 1 h 2 v -2 h -2 -1 z m 4,-1 v 3 1 h 1 v -1 h 2 v -3 z m 3,3 v 1 h 1 v -1 z m 1,0 h 1 v -1 h -1 z m 1,-1 h 1 v 1 h 1 v -1 -1 h 1 v -1 h -1 -2 z m 1,1 h -1 v 1 h 1 z m -3,1 h -1 v 1 h 1 z m 0,1 v 1 h 1 v -1 z m -1,0 h -2 v 2 1 h 1 v -1 h 1 z m 0,2 v 1 h 1 v -1 z m -1,-6 h 1 v 1 h -1 z m -7,2 v 1 4 h 5 v -5 z m 13,1 v 1 h -2 v 2 1 h 1 v -1 h 1 v -1 h 1 v -1 -1 z m 0,3 v 1 h 1 v -1 z m -11,-2 h 1 v 1 h -1 z" /><rect
         y="140"
         x="80"
         height="16"
         width="16"
         id="rect52458"
         style="fill:none" /></g><g
       style="stroke-linecap:round"
       inkscape:label="edit copy paste document file text content"
       id="g6927"
       transform="matrix(0,0.26458332,-0.26458332,0,488.95082,84.108835)"><title
         id="title6915">edit-copy</title><path
         id="rect79924-8"
         style="fill:#2e3436"
         d="m 166.13581,211.00317 c -1.6447,0 -3,-1.35529 -3,-3 v -5 c 0,-1.6447 1.3553,-3 3,-3 a 1,1 0 0 1 1,1 1,1 0 0 1 -1,1 c -0.57129,0 -1,0.4287 -1,1 v 5 c 0,0.57131 0.42871,1 1,1 h 5 c 0.5713,0 1,-0.42869 1,-1 a 1,1 0 0 1 1,-1 1,1 0 0 1 1,1 c 0,1.64471 -1.3553,3 -3,3 z m 5,-5 c -1.6447,0 -3,-1.3553 -3,-3 v -5 c 0,-1.6447 1.3553,-3 3,-3 h 5 c 1.64471,0 3,1.3553 3,3 v 5 c 0,1.6447 -1.35529,3 -3,3 z m 0,-2 h 5 c 0.5713,0 1,-0.4287 1,-1 v -5 c 0,-0.5713 -0.4287,-1 -1,-1 h -5 c -0.57129,0 -1,0.4287 -1,1 v 5 c 0,0.5713 0.42871,1 1,1 z" /><rect
         y="195.00317"
         x="163.1358"
         height="16"
         width="16"
         id="rect6917"
         style="fill:none;stroke-linecap:round" /></g><text
       xml:space="preserve"
       style="font-style:normal;font-variant:normal;font-weight:normal;font-stretch:normal;font-size:3.88056px;line-height:0%;font-family:Cantarell;-inkscape-font-specification:Cantarell;text-align:start;letter-spacing:0px;word-spacing:0px;text-anchor:start;white-space:pre;inline-size:97.9991;display:inline;fill:#2e3436;fill-opacity:1;stroke:none;stroke-width:0.264583"
       x="343.69025"
       y="114.39816"
       id="text21"
       transform="translate(0,14.287498)"><tspan
         x="343.69025"
         y="114.39816"
         id="tspan14"><tspan
           style="line-height:1.25;font-family:Monospace;-inkscape-font-specification:Monospace"
           id="tspan13">dehgheth-gntevcib-lnlijjfc-neerulnn-</tspan></tspan><tspan
         x="343.69025"
         y="119.24886"
         id="tspan16"><tspan
           style="line-height:1.25;font-family:Monospace;-inkscape-font-specification:Monospace"
           id="tspan15">nndflbbi-vdlhgvdg-unvfldlv-lcrcfnbg</tspan></tspan></text><g
       id="g9"
       transform="translate(0,12.699999)"
       style="opacity:1"><path
         id="path77893"
         d="m 341.84166,132.02707 c -1.1667,0 -2.11666,0.94998 -2.11666,2.11667 0,1.1667 0.94996,2.11667 2.11666,2.11667 1.1667,0 2.11667,-0.94997 2.11667,-2.11667 0,-1.16669 -0.94997,-2.11667 -2.11667,-2.11667 z m 0,0.52917 c 0.88147,0 1.5875,0.70603 1.5875,1.5875 0,0.88147 -0.70603,1.5875 -1.5875,1.5875 -0.88146,0 -1.5875,-0.70603 -1.5875,-1.5875 0,-0.88147 0.70604,-1.5875 1.5875,-1.5875 z m 0,0.4961 c -0.16439,0 -0.29765,0.13326 -0.29765,0.29765 0,0.16439 0.13326,0.29766 0.29765,0.29766 0.16439,0 0.29766,-0.13327 0.29766,-0.29766 0,-0.16439 -0.13327,-0.29765 -0.29766,-0.29765 z m -0.40359,0.82682 c -0.0701,0.004 -0.12557,0.0613 -0.12557,0.13229 0,0.0733 0.059,0.13229 0.13229,0.13229 h 0.13229 v 0.79375 h -0.13229 c -0.0733,0 -0.13229,0.059 -0.13229,0.13229 0,0.0733 0.059,0.13229 0.13229,0.13229 h 0.13229 0.13229 0.007 0.39016 0.13229 c 0.0733,0 0.13229,-0.059 0.13229,-0.13229 0,-0.0733 -0.059,-0.13229 -0.13229,-0.13229 h -0.13229 v -1.05833 h -0.39016 -0.007 -0.13229 -0.13229 c -0.002,0 -0.005,-1.2e-4 -0.007,0 z"
         style="fill:#2e3436;fill-opacity:1;stroke-width:0.471289" /><text
         xml:space="preserve"
         style="font-style:normal;font-variant:normal;font-weight:normal;font-stretch:normal;font-size:3.52778px;line-height:0%;font-family:Cantarell;-inkscape-font-specification:Cantarell;text-align:start;letter-spacing:0px;word-spacing:0px;text-anchor:start;white-space:pre;inline-size:112.667;display:inline;fill:#2e3436;fill-opacity:1;stroke:none;stroke-width:0.264583"
         x="343.69025"
         y="109.10648"
         id="text22"
         transform="translate(2.6458336,24.341667)"><tspan
           x="343.69025"
           y="109.10648"
           id="tspan18"><tspan
             style="line-height:1.25"
             id="tspan17">Your recovery key may be used in place of your password whenever </tspan></tspan><tspan
           x="343.69025"
           y="113.51621"
           id="tspan20"><tspan
             style="line-height:1.25"
             id="tspan19">authentication is requested.&#10;</tspan></tspan></text></g><rect
       inkscape:export-ydpi="90"
       inkscape:export-xdpi="90"
       y="230.33041"
       x="354.67401"
       height="124.07898"
       width="84.402084"
       id="rect27"
       style="display:inline;fill:#fafafa;fill-opacity:1;stroke:#cfcfcf;stroke-width:0.264583;stroke-linecap:square;stroke-miterlimit:4;stroke-dasharray:none;stroke-dashoffset:0;stroke-opacity:1"
       rx="3.175"
       ry="3.1750002" /><circle
       style="display:inline;fill:#d8d8d8;fill-opacity:1;stroke:#3584e4;stroke-width:0;stroke-miterlimit:4;stroke-dasharray:none"
       id="circle21873"
       cx="433.12305"
       cy="236.27286"
       r="2.9104159" /><g
       style="display:inline;fill:#2e3436;fill-opacity:1"
       transform="matrix(0.26458333,0,0,0.26458333,415.13226,97.105831)"
       id="g21879"><g
         transform="translate(19,-242)"
         id="g21877"
         style="display:inline;fill:#2e3436;fill-opacity:1"><path
           inkscape:connector-curvature="0"
           d="m 45,764 h 1 c 0.01037,-1.2e-4 0.02079,-4.6e-4 0.03125,0 0.254951,0.0112 0.50987,0.12858 0.6875,0.3125 L 49,766.59375 51.3125,764.3125 C 51.578125,764.082 51.759172,764.007 52,764 h 1 v 1 c 0,0.28647 -0.03434,0.55065 -0.25,0.75 l -2.28125,2.28125 2.25,2.25 C 52.906938,770.46942 52.999992,770.7347 53,771 v 1 h -1 c -0.265301,-10e-6 -0.530586,-0.0931 -0.71875,-0.28125 L 49,769.4375 46.71875,771.71875 C 46.530586,771.90694 46.26529,772 46,772 h -1 v -1 c -3e-6,-0.26529 0.09306,-0.53058 0.28125,-0.71875 l 2.28125,-2.25 L 45.28125,765.75 C 45.070508,765.55537 44.97809,765.28075 45,765 Z"
           id="path21875"
           style="color:#bebebe;font-style:normal;font-variant:normal;font-weight:normal;font-stretch:normal;font-size:medium;line-height:normal;font-family:'Andale Mono';-inkscape-font-specification:'Andale Mono';text-indent:0;text-align:start;text-decoration:none;text-decoration-line:none;letter-spacing:normal;word-spacing:normal;text-transform:none;writing-mode:lr-tb;direction:ltr;text-anchor:start;display:inline;overflow:visible;visibility:visible;fill:#2e3436;fill-opacity:1;fill-rule:nonzero;stroke:none;stroke-width:1.78125;marker:none;enable-background:new" /></g></g><text
       xml:space="preserve"
       style="font-style:normal;font-variant:normal;font-weight:normal;font-stretch:normal;font-size:3.88056px;line-height:0%;font-family:Cantarell;-inkscape-font-specification:Cantarell;text-align:center;letter-spacing:0px;word-spacing:0px;text-anchor:middle;white-space:pre;inline-size:74.8291;display:inline;fill:#2e3436;fill-opacity:1;stroke:none;stroke-width:0.264583"
       x="380.56332"
       y="109.10648"
       id="text22-7"
       transform="translate(15.55639,230.95413)"><tspan
         x="380.56332"
         y="109.10648"
         id="tspan22"><tspan
   style="line-height:1.25"
   id="tspan21">Scan to save your secret recovery key to</tspan><tspan
   y="109.10648"
   id="tspan23"> </tspan></tspan><tspan
         x="380.56332"
         y="113.95718"
         id="tspan25"><tspan
           style="line-height:1.25"
           id="tspan24">another device&#10;</tspan></tspan></text><path
       id="path27"
       style="display:inline;fill-opacity:0.08;stroke:#000000;stroke-width:0"
       d="m 363.76082,246.07185 h 66.22886 c 1.29621,0 2.33973,1.04352 2.33973,2.33973 v 67.5518 c 0,1.29621 -1.04352,2.33973 -2.33973,2.33973 h -66.22886 c -1.29621,0 -2.33973,-1.04352 -2.33973,-2.33973 v -67.5518 c 0,-1.29621 1.04352,-2.33973 2.33973,-2.33973 z"
       sodipodi:nodetypes="sssssssss" /><path
       id="path28"
       style="display:inline;fill:#ffffff;fill-opacity:1;stroke:#ececec;stroke-width:0"
       d="m 363.87394,246.32706 h 66.00239 c 1.21236,0 2.18838,0.97602 2.18838,2.18838 v 66.53157 c 0,1.21237 -0.97602,2.18839 -2.18838,2.18839 h -66.00239 c -1.21237,0 -2.18839,-0.97602 -2.18839,-2.18839 v -66.53157 c 0,-1.21236 0.97602,-2.18838 2.18839,-2.18838 z"
       sodipodi:nodetypes="sssssssss" /><image
       width="63.896873"
       height="64.690628"
       preserveAspectRatio="none"
       xlink:href="data:image/png;base64,iVBORw0KGgoAAAANSUhEUgAAAKEAAACjCAYAAADimX69AAAABHNCSVQICAgIfAhkiAAABMRJREFU&#10;eJzt3duO20gMRdE4mP//5Z7nEQzQJR5yyz17PSZWy0kfFIi6sF4/Pz8/fyTQX/oLSIZQOEMonCEU&#10;zhAKZwiF++fdH75er9UvcZ0lqt7fnVW6/vzq/d3vl/73VN/v9Plp1fdzJBTOEApnCIV7WxNepVf2&#10;TmuS6v3dGqd6/rQGS9dc0zUc/ft1JBTOEApnCIX7qCa8Std0XafzcqfPn/79qe15u8r279eRUDhD&#10;KJwhFO5WTTitu/Z6+nx3nnB73vP0+aef4HAkFM4QCmcIhXtkTTi9Vtvdf5feT3j6/LfVfBVHQuEM&#10;oXCGULhbNeH2WvDV9tpuZXrtePsMznaN6UgonCEUzhAK91FNuL3fbbqmmz53PP3zK/SZmFOOhMIZ&#10;QuEMoXCvb2gXnO69sl1jnj7f9QW/0v9wJBTOEApnCIX7qD8hPc80PY/Wff/02nX6zEx6bb5if0I9&#10;niEUzhAKF1k7TtdE3TMdpz9/+xzv0/YDpvsznnIkFM4QCmcIhfto7Xh6bTTdm+XbzuX+trXj0/9/&#10;R0LhDKFwhlC4W/eYdPsFVrbnBdN32Z3q1rSnNeXTzjk7EgpnCIUzhMIh547pe0DSNeJ0v8Kr7bXe&#10;6XlHR0LhDKFwhlC4kbXj6Xml6n3bvV+m+yluf7/q+XTN6UgonCEUzhAK97YmpHu3bN+3mz6HXH0+&#10;/X3Suv8+9xPq6xhC4QyhcLfuMZmet5p+/vTnpe+Wo2tQeu3+ypFQOEMonCEU7m1NeFojpPvndX/+&#10;9JmNdM2VXnume+2cPu9IKJwhFM4QCnfrjMn22mm3ZunWiNvngru29yt2ORIKZwiFM4TCRXrRpM/l&#10;Ts/jPf1ekvRabvp96XlHR0LhDKFwhlC4yN12V9P3mpyq3t9d2z39fHptvfL0eU1HQuEMoXCGULhb&#10;+wm378ut3k/ff1z9vO48aHrterrmPOVIKJwhFM4QCheZJ+z2UH5ajbJ9BqV6vvv/O30Piv0J9fUM&#10;oXCGULiP5gm315Kn97udSp9znu4tk+6Rna5RrxwJhTOEwhlC4W71rE73OqH7HU7XUNX7KtN3y9E9&#10;xB0JhTOEwhlC4SL9Ca+m5wG7ZzToMyDTa7nT0v0RHQmFM4TCGULhRvYT0jXg9LxluvfO9F2C2/es&#10;nHIkFM4QCmcIhbvVs/oqvR+tu//uabr9ErvvS6+Np2tGR0LhDKFwhlC4W/sJu5+vnq/Q9/9u7z88&#10;fX+a+wn16xlC4QyhcB/NE6Ztn4tN372X7nF9le5VM61b8zoSCmcIhTOEwr2dJ6Q9bd6v+nxle//g&#10;9jxk932OhMIZQuEMoXAfnTGZ9vS75U73N6b3D9I14/SZGUdC4QyhcIZQuI/Wjrd7QFefnz7Tsn0X&#10;3Pb9w93fZ7qGdyQUzhAKZwiFu7WfcLtXSfoejW4/vep96b+n+ymecp5QX8cQCmcIhUPOmGyj7xlJ&#10;z1t2P1/ZPsPiSCicIRTOEAr3yJpw+u64dM337fsvp9fKK46EwhlC4QyhcLdqwu2jyukzJpV0jZQ+&#10;w1E9P71Wn64ZHQmFM4TCGULhIveYpHXPjKTRPbi7a9PTZ3KuTv/9joTCGULhDKFwj+xPqP8XR0Lh&#10;DKFwhlA4QyicIRTOEApnCIX7FzaHr6HUmyxRAAAAAElFTkSuQmCC&#10;"
       id="image1"
       x="365.28726"
       y="249.39711"
       style="stroke-width:0.666667;image-rendering:pixelated" /><text
       xml:space="preserve"
       id="text29"
       style="font-style:normal;font-weight:normal;font-size:24px;line-height:1.25;font-family:sans-serif;text-align:center;white-space:pre;shape-inside:url(#rect29);display:inline;fill:#323232;fill-opacity:1;stroke:none"
       transform="matrix(0.26458333,0,0,0.26458333,323.34725,52.261584)"
       x="68.07991"
       y="0"><tspan
         x="207.18893"
         y="1049.0718"
         id="tspan27"><tspan
           style="font-weight:800;font-family:Cantarell;-inkscape-font-specification:'Cantarell Ultra-Bold';text-anchor:middle"
           id="tspan26">Scan to Save</tspan></tspan></text><text
       xml:space="preserve"
       id="text30"
       style="font-style:normal;font-weight:normal;font-size:14.6667px;line-height:1.25;font-family:sans-serif;text-align:center;white-space:pre;shape-inside:url(#rect30);display:inline;fill:#323232;fill-opacity:1;stroke:none"
       transform="matrix(0.26458333,0,0,0.26458333,323.34725,-37.696753)"
       x="68.07991"
       y="0"><tspan
         x="232.61749"
         y="1040.6904"
         id="tspan29"><tspan
           style="font-weight:bold;font-family:Cantarell;-inkscape-font-specification:'Cantarell Ultra-Bold';text-anchor:middle"
           id="tspan28">Recovery Key</tspan></tspan></text><text
       xml:space="preserve"
       style="font-style:normal;font-variant:normal;font-weight:normal;font-stretch:normal;font-size:3.88056px;line-height:0%;font-family:Cantarell;-inkscape-font-specification:Cantarell;text-align:start;letter-spacing:0px;word-spacing:0px;text-anchor:start;white-space:pre;inline-size:117.962;display:inline;fill:#2e3436;fill-opacity:1;stroke:none;stroke-width:0.264583"
       x="343.69025"
       y="109.10648"
       id="text32"
       transform="translate(-3.7041663,-10.054168)"><tspan
         x="343.69025"
         y="109.10648"
         id="tspan31"><tspan
           style="line-height:1.25"
           id="tspan30">This secret recovery key has been generated for your user account </tspan></tspan><tspan
         x="343.69025"
         y="113.95718"
         id="tspan33"><tspan
           style="line-height:1.25"
           id="tspan32">and is used to secure your data. Please save it in a safe location as it </tspan></tspan><tspan
         x="343.69025"
         y="118.80788"
         id="tspan35"><tspan
           style="line-height:1.25"
           id="tspan34">is important for regaining access to your device if other credentials </tspan></tspan><tspan
         x="343.69025"
         y="123.65858"
         id="tspan37"><tspan
           style="line-height:1.25"
           id="tspan36">have been lost or forgotten. </tspan></tspan></text><text
       xml:space="preserve"
       style="font-style:normal;font-variant:normal;font-weight:normal;font-stretch:normal;font-size:3.88056px;line-height:1.25;font-family:Cantarell;-inkscape-font-specification:Cantarell;text-align:start;letter-spacing:0px;word-spacing:0px;text-anchor:start;white-space:pre;inline-size:114.653;display:inline;fill:#2e3436;fill-opacity:1;stroke:none;stroke-width:0.264583"
       x="343.69025"
       y="109.10648"
       id="text9"
       transform="translate(-3.7041663,52.3875)"><tspan
         x="343.69025"
         y="109.10648"
         id="tspan38">You can view your recovery key at any time in your account settings </tspan><tspan
         x="343.69025"
         y="113.95718"
         id="tspan39">in the Users panel.</tspan></text><text
       xml:space="preserve"
       style="font-style:normal;font-variant:normal;font-weight:normal;font-stretch:normal;font-size:3.88056px;line-height:1.25;font-family:Cantarell;-inkscape-font-specification:Cantarell;text-align:center;letter-spacing:0px;word-spacing:0px;text-anchor:middle;white-space:pre;inline-size:120.66;display:inline;fill:#2e3436;fill-opacity:1;stroke:none;stroke-width:0.264583"
       x="380.56332"
       y="109.10648"
       id="text31"
       transform="translate(15.55639,255.2958)"><tspan
         x="380.56332"
         y="109.10648"
         id="tspan40">Display a dialog of the security key encoded as a QR code. &#10;</tspan><tspan
         x="380.56332"
         y="113.95718"
         id="tspan41">&#10;</tspan><tspan
         x="380.56332"
         y="118.80788"
         id="tspan42">The caveat being there isn't any universal method for handling key as<tspan
   y="118.80788"
   id="tspan43"> </tspan></tspan><tspan
         x="380.56332"
         y="123.65858"
         id="tspan44">QR but we'll leave it up to users to take advantage of this as-is.</tspan></text></g></svg>
