<?xml version="1.0" encoding="UTF-8" standalone="no"?>
<!-- Created with Inkscape (http://www.inkscape.org/) -->

<svg
   width="600"
   height="800"
   viewBox="0 0 600 800"
   version="1.1"
   id="svg2924"
   inkscape:version="1.1.1 (3bf5ae0d25, 2021-09-20)"
   sodipodi:docname="account-info-portal.svg"
   inkscape:export-filename="../account-info-portal.png"
   inkscape:export-xdpi="96"
   inkscape:export-ydpi="96"
   xmlns:inkscape="http://www.inkscape.org/namespaces/inkscape"
   xmlns:sodipodi="http://sodipodi.sourceforge.net/DTD/sodipodi-0.dtd"
   xmlns:xlink="http://www.w3.org/1999/xlink"
   xmlns="http://www.w3.org/2000/svg"
   xmlns:svg="http://www.w3.org/2000/svg"
   xmlns:rdf="http://www.w3.org/1999/02/22-rdf-syntax-ns#"
   xmlns:cc="http://creativecommons.org/ns#"
   xmlns:dc="http://purl.org/dc/elements/1.1/">
  <defs
     id="defs2918">
    <linearGradient
       id="linearGradient54375"
       inkscape:collect="always">
      <stop
         id="stop54371"
         offset="0"
         style="stop-color:#613583;stop-opacity:1" />
      <stop
         id="stop54373"
         offset="1"
         style="stop-color:#e01b24;stop-opacity:1" />
    </linearGradient>
    <inkscape:path-effect
       effect="spiro"
       id="path-effect8915-0-8-2-7-4-4-8"
       is_visible="true"
       lpeversion="0" />
    <radialGradient
       inkscape:collect="always"
       xlink:href="#linearGradient1722"
       id="radialGradient2561"
       gradientUnits="userSpaceOnUse"
       gradientTransform="matrix(1.0125135,2.1002674,-1.6092836,0.11574215,-4.6063107,-300.00018)"
       cx="131.91475"
       cy="55.927143"
       fx="131.91475"
       fy="55.927143"
       r="160" />
    <linearGradient
       id="linearGradient1722"
       inkscape:collect="always">
      <stop
         id="stop1718"
         offset="0"
         style="stop-color:#e01b24;stop-opacity:1" />
      <stop
         id="stop1720"
         offset="1"
         style="stop-color:#f8e45c;stop-opacity:1" />
    </linearGradient>
    <radialGradient
       inkscape:collect="always"
       xlink:href="#linearGradient1594"
       id="radialGradient3300"
       gradientUnits="userSpaceOnUse"
       gradientTransform="matrix(-0.56672219,1.0065537,-1.1024699,-0.69087589,1449.8905,-224.44988)"
       cx="525.58777"
       cy="638.5918"
       fx="525.58777"
       fy="638.5918"
       r="192" />
    <linearGradient
       inkscape:collect="always"
       id="linearGradient1594">
      <stop
         style="stop-color:#2ec27e;stop-opacity:1"
         offset="0"
         id="stop1590" />
      <stop
         style="stop-color:#57e389;stop-opacity:0"
         offset="1"
         id="stop1592" />
    </linearGradient>
    <clipPath
       clipPathUnits="userSpaceOnUse"
       id="clipPath9424">
      <path
         inkscape:connector-curvature="0"
         style="display:inline;opacity:1;fill:none;fill-opacity:1;stroke:#000000;stroke-width:2;stroke-linecap:square;stroke-linejoin:round;stroke-miterlimit:4;stroke-dasharray:none;stroke-dashoffset:0;stroke-opacity:1;enable-background:new"
         d="M 41.125566,217.49784 A 12.742462,12.742462 0 0 0 28.496653,228.63349 12.742462,12.742462 0 0 0 41.125566,239.79715 12.742462,12.742462 0 0 0 53.754478,228.6615 12.742462,12.742462 0 0 0 41.125566,217.49784 Z"
         id="path9426" />
    </clipPath>
    <radialGradient
       inkscape:collect="always"
       xlink:href="#linearGradient1722"
       id="radialGradient12189"
       gradientUnits="userSpaceOnUse"
       gradientTransform="matrix(1.0125135,2.1002674,-1.6092836,0.11574215,-4.6063107,-300.00018)"
       cx="131.91475"
       cy="55.927143"
       fx="131.91475"
       fy="55.927143"
       r="160" />
    <radialGradient
       inkscape:collect="always"
       xlink:href="#linearGradient1594"
       id="radialGradient12197"
       gradientUnits="userSpaceOnUse"
       gradientTransform="matrix(-0.56672219,1.0065537,-1.1024699,-0.69087589,1449.8905,-224.44988)"
       cx="525.58777"
       cy="638.5918"
       fx="525.58777"
       fy="638.5918"
       r="192" />
    <radialGradient
       inkscape:collect="always"
       xlink:href="#linearGradient1722"
       id="radialGradient12217"
       gradientUnits="userSpaceOnUse"
       gradientTransform="matrix(1.0125135,2.1002674,-1.6092836,0.11574215,-4.6063107,-300.00018)"
       cx="131.91475"
       cy="55.927143"
       fx="131.91475"
       fy="55.927143"
       r="160" />
    <radialGradient
       inkscape:collect="always"
       xlink:href="#linearGradient1594"
       id="radialGradient12225"
       gradientUnits="userSpaceOnUse"
       gradientTransform="matrix(-0.56672219,1.0065537,-1.1024699,-0.69087589,1449.8905,-224.44988)"
       cx="525.58777"
       cy="638.5918"
       fx="525.58777"
       fy="638.5918"
       r="192" />
    <linearGradient
       inkscape:collect="always"
       xlink:href="#linearGradient54375"
       id="linearGradient36056"
       x1="232"
       y1="63.333328"
       x2="328"
       y2="63.333328"
       gradientUnits="userSpaceOnUse"
       gradientTransform="rotate(-90,326,93.33333)" />
  </defs>
  <sodipodi:namedview
     id="base"
     pagecolor="#ffffff"
     bordercolor="#666666"
     borderopacity="1.0"
     inkscape:pageopacity="1"
     inkscape:pageshadow="2"
     inkscape:zoom="1"
     inkscape:cx="233.5"
     inkscape:cy="439"
     inkscape:document-units="px"
     inkscape:current-layer="layer1"
     showgrid="false"
     units="px"
     borderlayer="true"
     inkscape:showpageshadow="false"
     showguides="false"
     inkscape:guide-bbox="true"
     inkscape:snap-bbox="true"
     inkscape:bbox-paths="true"
     inkscape:bbox-nodes="false"
     inkscape:snap-nodes="true"
     inkscape:window-width="1920"
     inkscape:window-height="1011"
     inkscape:window-x="0"
     inkscape:window-y="0"
     inkscape:window-maximized="1"
     inkscape:pagecheckerboard="0"
     inkscape:snap-bbox-midpoints="true"
     inkscape:snap-global="true">
    <inkscape:grid
       type="xygrid"
       id="grid6536"
       empspacing="4" />
  </sodipodi:namedview>
  <metadata
     id="metadata2921">
    <rdf:RDF>
      <cc:Work
         rdf:about="">
        <dc:format>image/svg+xml</dc:format>
        <dc:type
           rdf:resource="http://purl.org/dc/dcmitype/StillImage" />
      </cc:Work>
    </rdf:RDF>
  </metadata>
  <g
     inkscape:label="Layer 1"
     inkscape:groupmode="layer"
     id="layer1"
     transform="translate(0,224.66667)">
    <path
       id="path42445"
       style="display:inline;fill:#eaeaea;stroke:#bababa;stroke-width:1.00137;stroke-linecap:square"
       d="M 72.50399,-7.1665 H 519.50262 V 303.83213 H 72.50399 Z"
       sodipodi:nodetypes="ccccc" />
    <g
       inkscape:groupmode="layer"
       inkscape:label="Layer 1"
       id="layer1-6"
       transform="translate(-247,617.33331)" />
    <path
       id="rect2193"
       style="display:inline;fill:#f6f5f4;stroke:#deddda;stroke-width:1.00137;stroke-linecap:square"
       d="M 72.50399,-7.1665 H 519.50262 V 359.83213 H 72.50399 Z"
       sodipodi:nodetypes="ccccc" />
    <g
       id="g20776"
       transform="translate(-1388,-980.00004)">
      <g
         id="g20768"
         style="display:inline"
         transform="translate(1589.0461,1161.8822)">
        <rect
           rx="2.8382869"
           y="28.95117"
           x="17.453899"
           height="15.000001"
           width="15.008028"
           id="rect20764"
           style="color:#000000;display:inline;overflow:visible;visibility:visible;fill:#62a0ea;fill-opacity:1;fill-rule:nonzero;stroke:#1a5fb4;stroke-width:1;stroke-linecap:butt;stroke-linejoin:round;stroke-miterlimit:4;stroke-dasharray:none;stroke-dashoffset:0;stroke-opacity:1;marker:none;enable-background:accumulate"
           ry="2.884424" />
      </g>
      <rect
         style="color:#000000;display:inline;overflow:visible;visibility:visible;fill:none;stroke:none;stroke-width:1.99661;marker:none;enable-background:accumulate"
         id="rect20770"
         width="16"
         height="16"
         x="1606"
         y="1191.3334" />
      <g
         transform="matrix(0.99650823,0,0,0.99810193,1569.2627,1161.9991)"
         id="g20774"
         style="fill:#9a9996">
        <path
           style="color:#000000;font-style:normal;font-variant:normal;font-weight:normal;font-stretch:normal;font-size:medium;line-height:normal;font-family:sans-serif;-inkscape-font-specification:sans-serif;text-indent:0;text-align:start;text-decoration:none;text-decoration-line:none;letter-spacing:normal;word-spacing:normal;text-transform:none;writing-mode:lr-tb;direction:ltr;baseline-shift:baseline;text-anchor:start;display:inline;overflow:visible;visibility:visible;fill:#ffffff;fill-opacity:1;stroke:none;stroke-width:3;marker:none;enable-background:accumulate"
           d="m 50.867961,31.448612 -6.9811,6.843038 -1.871896,-1.872654 -2.138425,-0.01563 0.01122,1.699486 2.936988,2.938186 c 0.586676,0.586674 1.537597,0.586674 2.124273,0 l 7.996316,-8.077832 0.002,-1.570761 z"
           id="path20772"
           inkscape:connector-curvature="0"
           sodipodi:nodetypes="cccccccccc" />
      </g>
    </g>
    <flowRoot
       xml:space="preserve"
       id="flowRoot20784"
       style="font-style:normal;font-variant:normal;font-weight:normal;font-stretch:normal;font-size:14.6667px;line-height:1.25;font-family:Cantarell;-inkscape-font-specification:Cantarell;font-variant-ligatures:normal;font-variant-caps:normal;font-variant-numeric:normal;font-feature-settings:normal;text-align:start;letter-spacing:0px;word-spacing:0px;writing-mode:lr-tb;text-anchor:start;fill:#241f31;fill-opacity:1;stroke:none"
       transform="translate(-685.50011,70.50852)"><flowRegion
         id="flowRegion20780"
         style="font-style:normal;font-variant:normal;font-weight:normal;font-stretch:normal;font-size:14.6667px;font-family:Cantarell;-inkscape-font-specification:Cantarell;fill:#241f31"><rect
           id="rect20778"
           width="298.56854"
           height="32"
           x="926"
           y="141"
           style="font-style:normal;font-variant:normal;font-weight:normal;font-stretch:normal;font-size:14.66666698px;font-family:Cantarell;-inkscape-font-specification:Cantarell;fill:#241f31" /></flowRegion><flowPara
         id="flowPara20782">Include profile picture</flowPara></flowRoot>
    <path
       style="color:#bebebe;display:inline;overflow:visible;visibility:visible;fill:#f2f2f2;fill-opacity:1;fill-rule:nonzero;stroke:#bababa;stroke-width:1;stroke-miterlimit:4;stroke-dasharray:none;stroke-opacity:1;marker:none;filter:url(#filter12000-4-9-2);enable-background:accumulate"
       d="m 82.426,-40.16689 h 427.1544 c 5.4989,0 9.9258,4.45997 9.9258,10 V 6.83641 H 509.5804 82.426 72.5 v -37.0033 c 0,-5.54 4.4269,-10 9.926,-10 z"
       id="path2195"
       inkscape:connector-curvature="0"
       sodipodi:nodetypes="sssccccss" />
    <rect
       inkscape:export-ydpi="90"
       inkscape:export-xdpi="90"
       inkscape:export-filename="/home/lapo.fedora/SparkleShare/gnome-mockups/content selection/content-selection.png"
       ry="4"
       rx="4"
       y="-33.166687"
       x="79.503304"
       height="33"
       width="79"
       id="rect2197"
       style="color:#000000;display:inline;overflow:visible;visibility:visible;fill:#f2f2f2;fill-opacity:1;fill-rule:nonzero;stroke:#bababa;stroke-width:1;stroke-linecap:butt;stroke-linejoin:miter;stroke-miterlimit:4;stroke-dasharray:none;stroke-dashoffset:0;stroke-opacity:1;marker:none;enable-background:accumulate" />
    <text
       id="text2201"
       y="-11.320679"
       x="118.60352"
       style="font-style:normal;font-variant:normal;font-weight:normal;font-stretch:normal;font-size:14.6667px;line-height:0%;font-family:Cantarell;-inkscape-font-specification:Cantarell;text-align:center;letter-spacing:0px;word-spacing:0px;text-anchor:middle;display:inline;fill:#2e3436;fill-opacity:1;stroke:none;stroke-width:1"
       xml:space="preserve"><tspan
         y="-11.320679"
         x="118.60352"
         id="tspan2199"
         sodipodi:role="line"
         style="font-size:14.6667px;line-height:1.25;stroke-width:1">Cancel</tspan></text>
    <rect
       style="color:#000000;display:inline;overflow:visible;visibility:visible;fill:#3584e4;fill-opacity:1;fill-rule:nonzero;stroke:#1c71d8;stroke-width:1;stroke-linecap:butt;stroke-linejoin:miter;stroke-miterlimit:4;stroke-dasharray:none;stroke-dashoffset:0;stroke-opacity:1;marker:none;enable-background:accumulate"
       id="rect2207"
       width="79"
       height="33"
       x="431.5033"
       y="-32.166687"
       rx="2.9999986"
       ry="3"
       inkscape:export-filename="/home/lapo.fedora/SparkleShare/gnome-mockups/content selection/content-selection.png"
       inkscape:export-xdpi="90"
       inkscape:export-ydpi="90" />
    <text
       xml:space="preserve"
       style="font-style:normal;font-variant:normal;font-weight:normal;font-stretch:normal;font-size:14.6667px;line-height:0%;font-family:Cantarell;-inkscape-font-specification:Cantarell;text-align:center;letter-spacing:0px;word-spacing:0px;text-anchor:middle;display:inline;fill:#ffffff;fill-opacity:1;stroke:none;stroke-width:1"
       x="471.30737"
       y="-10.829277"
       id="text2211"><tspan
         style="font-size:14.6667px;line-height:1.25;fill:#ffffff;stroke-width:1"
         sodipodi:role="line"
         id="tspan2209"
         x="471.30737"
         y="-10.829277">Share</tspan></text>
    <flowRoot
       transform="matrix(0.26458334,0,0,0.26458334,248.5873,-991.41398)"
       style="font-style:normal;font-weight:bold;font-size:110.866px;line-height:125%;font-family:Sans;-inkscape-font-specification:'Sans Bold';text-align:start;letter-spacing:0px;word-spacing:0px;text-anchor:start;fill:#2e3436;fill-opacity:1;stroke:none;stroke-width:1px;stroke-linecap:butt;stroke-linejoin:miter;stroke-opacity:1"
       id="flowRoot4692"
       xml:space="preserve"><flowRegion
         style="font-size:110.866px;text-align:start;text-anchor:start"
         id="flowRegion4688"><rect
           style="font-size:110.86614227px;text-align:start;text-anchor:start;fill:#2e3436"
           y="3102.4331"
           x="-652.37823"
           height="1439.9998"
           width="1277.4802"
           id="rect4686" /></flowRegion><flowPara
         style="font-style:normal;font-variant:normal;font-weight:800;font-stretch:normal;font-size:110.866px;font-family:Cantarell;-inkscape-font-specification:'Cantarell Ultra-Bold';text-align:start;text-anchor:start;fill:#2e3436"
         id="flowPara4690">Account Info Sharing</flowPara></flowRoot>
    <flowRoot
       transform="matrix(0.26458334,0,0,0.26458334,248.5873,-939.41398)"
       style="font-style:normal;font-weight:bold;font-size:151.181px;line-height:0.5;font-family:Sans;-inkscape-font-specification:'Sans Bold';text-align:start;letter-spacing:0px;word-spacing:0px;text-anchor:start;fill:#2e3436;fill-opacity:1;stroke:none;stroke-width:1px;stroke-linecap:butt;stroke-linejoin:miter;stroke-opacity:1"
       id="flowRoot4700"
       xml:space="preserve"><flowRegion
         style="text-align:start;text-anchor:start"
         id="flowRegion4696"><rect
           style="text-align:start;text-anchor:start;fill:#2e3436;stroke-width:1px"
           y="3102.4331"
           x="-652.37823"
           height="266.06052"
           width="1642.2969"
           id="rect4694" /></flowRegion><flowPara
         style="font-style:normal;font-variant:normal;font-weight:normal;font-stretch:normal;font-size:55.4331px;font-family:Cantarell;-inkscape-font-specification:'Cantarell Bold';text-align:start;text-anchor:start;fill:#2e3436"
         id="flowPara4698">Dialog that appears when applications are requesting access to local account information</flowPara></flowRoot>
    <rect
       inkscape:export-ydpi="90"
       inkscape:export-xdpi="90"
       inkscape:export-filename="/home/lapo.fedora/SparkleShare/gnome-mockups/content selection/content-selection.png"
       ry="4"
       rx="4"
       y="-33.165237"
       x="176.5031"
       height="33"
       width="239"
       id="rect12809"
       style="color:#000000;display:inline;overflow:visible;visibility:visible;fill:#f2f2f2;fill-opacity:1;fill-rule:nonzero;stroke:#bababa;stroke-width:0.999996;stroke-linecap:butt;stroke-linejoin:miter;stroke-miterlimit:4;stroke-dasharray:none;stroke-dashoffset:0;stroke-opacity:1;marker:none;enable-background:accumulate" />
    <path
       style="fill:none;stroke:#bababa;stroke-width:1px;stroke-linecap:butt;stroke-linejoin:miter;stroke-opacity:1"
       d="m 295.4998,-0.66524 v -32"
       id="path12943" />
    <text
       id="text13129"
       y="-10.876244"
       x="353.06134"
       style="font-style:normal;font-variant:normal;font-weight:bold;font-stretch:normal;font-size:12px;line-height:0%;font-family:Cantarell;-inkscape-font-specification:'Cantarell Bold';text-align:center;letter-spacing:0px;word-spacing:0px;text-anchor:middle;display:inline;fill:#2e3436;fill-opacity:1;stroke:none;stroke-width:1"
       xml:space="preserve"><tspan
         style="font-weight:normal;font-size:14px;line-height:1.25;stroke-width:1"
         y="-10.876244"
         x="353.06134"
         id="tspan13127"
         sodipodi:role="line">Displays</tspan></text>
    <text
       id="text13235"
       y="-10.876244"
       x="235.06133"
       style="font-style:normal;font-variant:normal;font-weight:bold;font-stretch:normal;font-size:12px;line-height:0%;font-family:Cantarell;-inkscape-font-specification:'Cantarell Bold';text-align:center;letter-spacing:0px;word-spacing:0px;text-anchor:middle;display:inline;fill:#2e3436;fill-opacity:1;stroke:none;stroke-width:1"
       xml:space="preserve"><tspan
         style="font-weight:normal;font-size:14px;line-height:1.25;stroke-width:1"
         y="-10.876244"
         x="235.06133"
         id="tspan13233"
         sodipodi:role="line">Windows</tspan></text>
    <path
       id="rect20317"
       style="color:#000000;display:inline;overflow:visible;visibility:visible;opacity:0.2;fill:#9a9996;fill-opacity:1;fill-rule:nonzero;stroke:none;stroke-width:0.999996;stroke-linecap:butt;stroke-linejoin:miter;stroke-miterlimit:4;stroke-dasharray:none;stroke-dashoffset:0;stroke-opacity:1;marker:none;enable-background:accumulate"
       d="m 180.50371,-33.165223 c -2.216,0 -4,1.784 -4,4 v 25 c 0,2.216 1.784,4 4,4 H 294.9998 v -33 z"
       sodipodi:nodetypes="ssssccs" />
    <path
       style="color:#bebebe;display:inline;overflow:visible;visibility:visible;fill:#deddda;fill-opacity:1;fill-rule:nonzero;stroke:#c0bfbc;stroke-width:1;stroke-miterlimit:4;stroke-dasharray:none;stroke-opacity:1;marker:none;filter:url(#filter12000-4-9-2);enable-background:accumulate"
       d="m 82.426,-40.16689 h 427.1544 c 5.4989,0 9.9258,4.45997 9.9258,10 V 6.83641 H 509.5804 82.426 72.5 v -37.0033 c 0,-5.54 4.4269,-10 9.926,-10 z"
       id="path42447"
       inkscape:connector-curvature="0"
       sodipodi:nodetypes="sssccccss" />
    <rect
       inkscape:export-ydpi="90"
       inkscape:export-xdpi="90"
       inkscape:export-filename="/home/lapo.fedora/SparkleShare/gnome-mockups/content selection/content-selection.png"
       ry="6"
       rx="6"
       y="-33.166687"
       x="79.503304"
       height="33"
       width="79"
       id="rect42449"
       style="color:#000000;display:inline;overflow:visible;visibility:visible;fill:#f2f2f2;fill-opacity:1;fill-rule:nonzero;stroke:#bababa;stroke-width:1;stroke-linecap:butt;stroke-linejoin:miter;stroke-miterlimit:4;stroke-dasharray:none;stroke-dashoffset:0;stroke-opacity:1;marker:none;enable-background:accumulate" />
    <text
       id="text42453"
       y="-11.320679"
       x="118.60352"
       style="font-style:normal;font-variant:normal;font-weight:normal;font-stretch:normal;font-size:14.6667px;line-height:0%;font-family:Cantarell;-inkscape-font-specification:Cantarell;text-align:center;letter-spacing:0px;word-spacing:0px;text-anchor:middle;display:inline;fill:#2e3436;fill-opacity:1;stroke:none;stroke-width:1"
       xml:space="preserve"><tspan
         y="-11.320679"
         x="118.60352"
         id="tspan42451"
         sodipodi:role="line"
         style="font-size:14.6667px;line-height:1.25;stroke-width:1">Cancel</tspan></text>
    <rect
       style="color:#000000;display:inline;overflow:visible;visibility:visible;fill:#3584e4;fill-opacity:1;fill-rule:nonzero;stroke:#1c71d8;stroke-width:1;stroke-linecap:butt;stroke-linejoin:miter;stroke-miterlimit:4;stroke-dasharray:none;stroke-dashoffset:0;stroke-opacity:1;marker:none;enable-background:accumulate"
       id="rect42455"
       width="79"
       height="33"
       x="431.5033"
       y="-32.166687"
       rx="6"
       ry="6"
       inkscape:export-filename="/home/lapo.fedora/SparkleShare/gnome-mockups/content selection/content-selection.png"
       inkscape:export-xdpi="90"
       inkscape:export-ydpi="90" />
    <text
       xml:space="preserve"
       style="font-style:normal;font-variant:normal;font-weight:normal;font-stretch:normal;font-size:14.6667px;line-height:0%;font-family:Cantarell;-inkscape-font-specification:Cantarell;text-align:center;letter-spacing:0px;word-spacing:0px;text-anchor:middle;display:inline;fill:#ffffff;fill-opacity:1;stroke:none;stroke-width:1"
       x="471.30737"
       y="-10.829277"
       id="text42459"><tspan
         style="font-weight:bold;font-size:14.6667px;line-height:1.25;fill:#ffffff;stroke-width:1"
         sodipodi:role="line"
         id="tspan42457"
         x="471.30737"
         y="-10.829277">Share</tspan></text>
    <flowRoot
       transform="matrix(0.26458334,0,0,0.26458334,302.0248,-791.40524)"
       style="font-style:normal;font-weight:bold;font-size:151.181px;line-height:0;font-family:Sans;-inkscape-font-specification:'Sans Bold';text-align:center;letter-spacing:0px;word-spacing:0px;text-anchor:middle;opacity:1;fill:#5e5c64;fill-opacity:1;stroke:none;stroke-width:1px;stroke-linecap:butt;stroke-linejoin:miter;stroke-opacity:1"
       id="flowRoot42469"
       xml:space="preserve"><flowRegion
         id="flowRegion42463"
         style="line-height:0.25;text-align:center;text-anchor:middle;fill:#5e5c64"><rect
           style="text-align:center;text-anchor:middle;fill:#5e5c64;stroke-width:1px"
           y="3102.4331"
           x="-652.37823"
           height="1416.3774"
           width="1265.3739"
           id="rect42461" /></flowRegion><flowPara
         style="font-style:normal;font-variant:normal;font-weight:normal;font-stretch:normal;font-size:55.4331px;line-height:1.25;font-family:Cantarell;-inkscape-font-specification:'Cantarell Bold';text-align:center;text-anchor:middle;fill:#5e5c64"
         id="flowPara29265"><flowSpan
           id="flowSpan31703"
           style="font-style:normal;font-variant:normal;font-weight:normal;font-stretch:normal;font-size:55.4331px;line-height:1.25;font-family:Cantarell;-inkscape-font-specification:Cantarell;text-align:center;text-anchor:middle;fill:#5e5c64"><flowSpan
   style="font-weight:bold;text-align:center;text-anchor:middle;fill:#5e5c64"
   id="flowSpan31705">Some App</flowSpan> </flowSpan><flowSpan
           style="font-style:normal;font-variant:normal;font-weight:normal;font-stretch:normal;font-size:55.4331px;font-family:Cantarell;-inkscape-font-specification:Cantarell;text-align:center;text-anchor:middle;fill:#5e5c64"
           id="flowSpan29267">is asking to use your name, username and profile picture for {Reason}</flowSpan></flowPara></flowRoot>
    <text
       id="text42541"
       y="-10.876244"
       x="296.0311"
       style="font-style:normal;font-variant:normal;font-weight:bold;font-stretch:normal;font-size:14.6667px;line-height:0%;font-family:Cantarell;-inkscape-font-specification:'Cantarell Bold';text-align:center;letter-spacing:0px;word-spacing:0px;text-anchor:middle;display:inline;fill:#2e3436;fill-opacity:1;stroke:none;stroke-width:1"
       xml:space="preserve"><tspan
         style="font-style:normal;font-variant:normal;font-weight:bold;font-stretch:normal;font-size:14.6667px;line-height:1.25;font-family:Cantarell;-inkscape-font-specification:Cantarell;stroke-width:1"
         y="-10.876244"
         x="296.0311"
         id="tspan42539"
         sodipodi:role="line">Share Details</tspan></text>
    <rect
       y="293.83331"
       x="125.5033"
       height="49"
       width="339"
       id="rect2347"
       style="display:inline;fill:#ffffff;fill-opacity:1;stroke:#babdb6;stroke-width:1;stroke-linecap:square;stroke-miterlimit:4;stroke-dasharray:none;stroke-dashoffset:0;stroke-opacity:1" />
    <rect
       y="293.83331"
       x="125.5033"
       height="49"
       width="339"
       id="rect42471"
       style="display:inline;fill:#ffffff;fill-opacity:1;stroke:#deddda;stroke-width:1;stroke-linecap:square;stroke-miterlimit:4;stroke-dasharray:none;stroke-dashoffset:0;stroke-opacity:1" />
    <rect
       style="display:inline;fill:#ffffff;fill-opacity:1;stroke:#babdb6;stroke-width:1;stroke-linecap:square;stroke-miterlimit:4;stroke-dasharray:none;stroke-dashoffset:0;stroke-opacity:1"
       id="rect2377"
       width="339"
       height="49"
       x="125.5033"
       y="244.84198" />
    <flowRoot
       transform="translate(-784.9362,169.50855)"
       style="font-style:normal;font-variant:normal;font-weight:normal;font-stretch:normal;font-size:14.6667px;line-height:1.25;font-family:Cantarell;-inkscape-font-specification:Cantarell;font-variant-ligatures:normal;font-variant-caps:normal;font-variant-numeric:normal;font-feature-settings:normal;text-align:start;letter-spacing:0px;word-spacing:0px;writing-mode:lr-tb;text-anchor:start;fill:#241f31;fill-opacity:1;stroke:none"
       id="flowRoot42479"
       xml:space="preserve"><flowRegion
         style="font-style:normal;font-variant:normal;font-weight:normal;font-stretch:normal;font-size:14.6667px;font-family:Cantarell;-inkscape-font-specification:Cantarell;fill:#241f31"
         id="flowRegion42475"><rect
           style="font-style:normal;font-variant:normal;font-weight:normal;font-stretch:normal;font-size:14.66666698px;font-family:Cantarell;-inkscape-font-specification:Cantarell;fill:#241f31"
           y="141"
           x="926"
           height="31.999996"
           width="242"
           id="rect42473" /></flowRegion><flowPara
         id="flowPara42477">Username</flowPara></flowRoot>
    <rect
       style="display:inline;fill:#ffffff;fill-opacity:1;stroke:#deddda;stroke-width:1;stroke-linecap:square;stroke-miterlimit:4;stroke-dasharray:none;stroke-dashoffset:0;stroke-opacity:1"
       id="rect42481"
       width="339"
       height="49"
       x="125.5033"
       y="244.84198" />
    <flowRoot
       xml:space="preserve"
       id="flowRoot42489"
       style="color:#000000;font-style:normal;font-variant:normal;font-weight:normal;font-stretch:normal;font-size:14.6667px;line-height:0.01%;font-family:Cantarell;-inkscape-font-specification:Cantarell;text-align:start;letter-spacing:0px;word-spacing:0px;writing-mode:lr-tb;text-anchor:start;display:inline;overflow:visible;visibility:visible;fill:#241f31;fill-opacity:1;fill-rule:nonzero;stroke:none;marker:none;enable-background:new"
       transform="translate(-244.9362,81.09389)"><flowRegion
         id="flowRegion42485"
         style="font-size:14.6667px;fill:#241f31"><rect
           id="rect42483"
           width="262.37665"
           height="73.482239"
           x="386"
           y="160"
           style="color:#000000;font-style:normal;font-variant:normal;font-weight:normal;font-stretch:normal;font-size:14.6667px;line-height:400%;font-family:Cantarell;-inkscape-font-specification:Cantarell;text-align:start;writing-mode:lr-tb;text-anchor:start;display:inline;overflow:visible;visibility:visible;fill:#241f31;fill-opacity:1;fill-rule:nonzero;stroke:none;stroke-width:1;marker:none;enable-background:new" /></flowRegion><flowPara
         id="flowPara42487"
         style="font-size:14.6667px;line-height:4;fill:#241f31">Name</flowPara></flowRoot>
    <path
       id="rect17081"
       style="display:inline;overflow:visible;mix-blend-mode:multiply;fill:none;stroke:#deddda;marker:none;enable-background:accumulate"
       d="m 321.5033,252.83331 h 131 c 2.216,0 4,1.784 4,4 v 25 c 0,2.216 -1.784,4 -4,4 h -131 c -2.216,0 -4,-1.784 -4,-4 v -25 c 0,-2.216 1.784,-4 4,-4 z"
       sodipodi:nodetypes="sssssssss" />
    <path
       id="rect17101"
       style="display:inline;overflow:visible;mix-blend-mode:multiply;fill:none;stroke:#deddda;marker:none;enable-background:accumulate"
       d="m 321.5033,302.83331 h 131 c 2.216,0 4,1.784 4,4 v 25 c 0,2.216 -1.784,4 -4,4 h -131 c -2.216,0 -4,-1.784 -4,-4 v -25 c 0,-2.216 1.784,-4 4,-4 z"
       sodipodi:nodetypes="sssssssss" />
    <text
       id="text18491"
       y="275.12375"
       x="324.46912"
       style="font-style:normal;font-variant:normal;font-weight:bold;font-stretch:normal;font-size:12px;line-height:0%;font-family:Cantarell;-inkscape-font-specification:'Cantarell Bold';text-align:start;letter-spacing:0px;word-spacing:0px;text-anchor:start;display:inline;fill:#2e3436;fill-opacity:1;stroke:none;stroke-width:1"
       xml:space="preserve"><tspan
         style="font-weight:normal;font-size:14px;line-height:1.25;text-align:start;text-anchor:start;stroke-width:1"
         y="275.12375"
         x="324.46912"
         id="tspan18489"
         sodipodi:role="line">Real Name</tspan></text>
    <text
       id="text20893"
       y="325.12375"
       x="324.59512"
       style="font-style:normal;font-variant:normal;font-weight:bold;font-stretch:normal;font-size:12px;line-height:0%;font-family:Cantarell;-inkscape-font-specification:'Cantarell Bold';text-align:start;letter-spacing:0px;word-spacing:0px;text-anchor:start;display:inline;fill:#2e3436;fill-opacity:1;stroke:none;stroke-width:1"
       xml:space="preserve"><tspan
         style="font-weight:normal;font-size:14px;line-height:1.25;text-align:start;text-anchor:start;stroke-width:1"
         y="325.12375"
         x="324.59512"
         id="tspan20891"
         sodipodi:role="line">realname</tspan></text>
    <rect
       inkscape:export-ydpi="90"
       inkscape:export-xdpi="90"
       inkscape:export-filename="/home/lapo.fedora/SparkleShare/gnome-mockups/content selection/content-selection.png"
       ry="6"
       rx="6"
       y="86.833313"
       x="240.50331"
       height="105"
       width="111"
       id="rect35271"
       style="color:#000000;display:inline;overflow:visible;visibility:visible;fill:#deddda;fill-opacity:1;fill-rule:nonzero;stroke:#c0bfbc;stroke-width:0.999997;stroke-linecap:butt;stroke-linejoin:miter;stroke-miterlimit:4;stroke-dasharray:none;stroke-dashoffset:0;stroke-opacity:1;marker:none;enable-background:accumulate" />
    <path
       style="color:#000000;opacity:0.8;fill:url(#linearGradient36056);fill-opacity:1;stroke-width:1;-inkscape-stroke:none"
       d="M 295.99999,91.333335 A 47.999999,47.999999 0 0 1 344,139.33333 a 47.999999,47.999999 0 0 1 -48.00001,48 47.999999,47.999999 0 0 1 -47.99999,-48 47.999999,47.999999 0 0 1 47.99999,-47.999995 z"
       id="path35545" />
    <flowRoot
       transform="matrix(0.26458334,0,0,0.26458334,248.5873,-437.41398)"
       style="font-style:normal;font-weight:bold;font-size:151.181px;line-height:0.5;font-family:Sans;-inkscape-font-specification:'Sans Bold';text-align:start;letter-spacing:0px;word-spacing:0px;text-anchor:start;fill:#2e3436;fill-opacity:1;stroke:none;stroke-width:1px;stroke-linecap:butt;stroke-linejoin:miter;stroke-opacity:1"
       id="flowRoot53014"
       xml:space="preserve"><flowRegion
         style="text-align:start;text-anchor:start"
         id="flowRegion53010"><rect
           style="text-align:start;text-anchor:start;fill:#2e3436;stroke-width:1px"
           y="3102.4331"
           x="-652.37823"
           height="618.90009"
           width="1642.2969"
           id="rect53008" /></flowRegion><flowPara
         style="font-style:normal;font-variant:normal;font-weight:normal;font-stretch:normal;font-size:55.4331px;font-family:Cantarell;-inkscape-font-specification:'Cantarell Bold';text-align:start;text-anchor:start;fill:#2e3436"
         id="flowPara72537">Field in the dialog are always editable so people can exclude or change what information they want to share or share none at all.</flowPara></flowRoot>
  </g>
</svg>
