<?xml version="1.0" encoding="UTF-8"?>
<svg height="128px" viewBox="0 0 128 128" width="128px" xmlns="http://www.w3.org/2000/svg" xmlns:xlink="http://www.w3.org/1999/xlink">
    <linearGradient id="a" gradientUnits="userSpaceOnUse" x1="11.999841" x2="115.999841" y1="64.038956" y2="64.038956">
        <stop offset="0" stop-color="#1a5fb4"/>
        <stop offset="0.142655" stop-color="#62a0ea"/>
        <stop offset="0.264076" stop-color="#1a5fb4"/>
        <stop offset="1" stop-color="#1a5fb4"/>
    </linearGradient>
    <linearGradient id="b" gradientTransform="matrix(1 0 0 0.999971 -0.000159 0.042306)" gradientUnits="userSpaceOnUse" x1="63.970703" x2="116" y1="112" y2="112">
        <stop offset="0" stop-color="#ff7800"/>
        <stop offset="0.438134" stop-color="#c84800"/>
        <stop offset="0.763264" stop-color="#c64600"/>
        <stop offset="0.92312" stop-color="#ffa348"/>
        <stop offset="1" stop-color="#c64600"/>
    </linearGradient>
    <path d="m 51 12.039062 h 26 c 21.539062 0 39 17.460938 39 39 v 22 c 0 21.539063 -17.460938 39 -39 39 h -26 c -21.539062 0 -39 -17.460937 -39 -39 v -22 c 0 -21.539062 17.460938 -39 39 -39 z m 0 0" fill="#3584e4"/>
    <path d="m 12 74.5625 v 4 h 0.039062 c 0.796876 20.894531 17.867188 37.476562 38.960938 37.476562 h 26 l -13.03125 -0.003906 v -3.996094 h -12.96875 c -21.09375 0 -38.164062 -16.582031 -38.960938 -37.476562 z m 0 0" fill="url(#a)"/>
    <path d="m 116 104.039062 c 0 4.433594 -3.566406 8 -8 8 h -44.03125 v 3.996094 l 13.03125 0.003906 h 31 c 4.433594 0 8 -3.566406 8 -8 z m 0 0" fill="url(#b)"/>
    <g fill="#ff9632">
        <path d="m 20 12.039062 c -4.433594 0 -8 3.566407 -8 8 v 37.324219 c 2.417969 6.195313 5.898438 11.984375 10.605469 17.050781 c 5.503906 5.925782 13.683593 10.878907 22.144531 12.714844 c 8.460938 1.839844 17.207031 0.5625 23.859375 -5.972656 c 2.277344 -2.234375 4.199219 -5.550781 4.875 -8.949219 c 0.679687 -3.398437 0.113281 -6.871093 -2.574219 -9.445312 c -0.851562 -0.816407 -2.113281 -1.511719 -3.390625 -1.742188 c -1.273437 -0.230469 -2.558593 0 -3.484375 1.019531 c 1.035156 0.9375 1.265625 2.242188 1.035156 3.523438 c -0.234374 1.292969 -0.933593 2.5625 -1.757812 3.421875 c -2.582031 2.703125 -6.082031 3.265625 -9.492188 2.585937 c -3.40625 -0.679687 -6.730468 -2.601562 -8.976562 -4.890624 c -4.910156 -4.996094 -6.855469 -11.175782 -6.746094 -17.53125 c 0.039063 -2.117188 0.304688 -4.253907 0.761719 -6.371094 c 1.84375 -8.472656 6.800781 -16.65625 12.730469 -22.167969 c 3.789062 -3.519531 7.980468 -6.347656 12.441406 -8.570313 z m 0 0"/>
        <path d="m 76.886719 36.1875 c -6.339844 -0.109375 -12.507813 1.832031 -17.496094 6.730469 c -2.277344 2.238281 -4.199219 5.558593 -4.875 8.953125 c -0.675781 3.398437 -0.113281 6.875 2.574219 9.445312 c 0.851562 0.816406 2.113281 1.511719 3.390625 1.742188 c 1.273437 0.230468 2.558593 0 3.484375 -1.019532 c -1.03125 -0.9375 -1.265625 -2.242187 -1.035156 -3.527343 c 0.234374 -1.289063 0.933593 -2.558594 1.757812 -3.421875 c 2.585938 -2.699219 6.082031 -3.265625 9.492188 -2.585938 c 3.410156 0.679688 6.730468 2.605469 8.972656 4.890625 c 4.910156 5 6.859375 11.179688 6.75 17.53125 c -0.035156 2.121094 -0.300782 4.257813 -0.761719 6.375 c -1.839844 8.472657 -6.796875 16.65625 -12.730469 22.167969 c -3.789062 3.519531 -7.980468 6.347656 -12.441406 8.570312 h 44.03125 c 4.433594 0 8 -3.566406 8 -8 v -37.324218 c -2.417969 -6.195313 -5.898438 -11.984375 -10.609375 -17.050782 c -5.5 -5.925781 -13.675781 -10.878906 -22.140625 -12.714843 c -2.113281 -0.460938 -4.246094 -0.726563 -6.363281 -0.761719 z m 0 0"/>
    </g>
</svg>
