<?xml version="1.0" encoding="UTF-8" standalone="no"?>
<!-- Created with Inkscape (http://www.inkscape.org/) -->

<svg
   width="680"
   height="1000"
   viewBox="0 0 179.91666 264.58334"
   version="1.1"
   id="svg1281"
   inkscape:version="1.1 (c68e22c387, 2021-05-23)"
   sodipodi:docname="error-messages.svg"
   inkscape:export-filename="../error-messages.png"
   inkscape:export-xdpi="96"
   inkscape:export-ydpi="96"
   xmlns:inkscape="http://www.inkscape.org/namespaces/inkscape"
   xmlns:sodipodi="http://sodipodi.sourceforge.net/DTD/sodipodi-0.dtd"
   xmlns="http://www.w3.org/2000/svg"
   xmlns:svg="http://www.w3.org/2000/svg">
  <sodipodi:namedview
     id="namedview1283"
     pagecolor="#ffffff"
     bordercolor="#cccccc"
     borderopacity="1"
     inkscape:pageshadow="0"
     inkscape:pageopacity="1"
     inkscape:pagecheckerboard="0"
     inkscape:document-units="px"
     showgrid="false"
     inkscape:zoom="1"
     inkscape:cx="245"
     inkscape:cy="286"
     inkscape:window-width="1920"
     inkscape:window-height="1131"
     inkscape:window-x="0"
     inkscape:window-y="0"
     inkscape:window-maximized="1"
     inkscape:current-layer="layer1"
     inkscape:snap-bbox="true"
     inkscape:bbox-paths="true"
     inkscape:bbox-nodes="true"
     inkscape:snap-nodes="false"
     units="px">
    <inkscape:grid
       type="xygrid"
       id="grid2222" />
  </sodipodi:namedview>
  <defs
     id="defs1278">
    <rect
       x="60"
       y="210"
       width="290"
       height="95.000008"
       id="rect10344" />
    <marker
       style="overflow:visible"
       id="TriangleOutM"
       refX="0"
       refY="0"
       orient="auto"
       inkscape:stockid="TriangleOutM"
       inkscape:isstock="true">
      <path
         transform="scale(0.4)"
         style="fill:context-stroke;fill-rule:evenodd;stroke:context-stroke;stroke-width:1pt"
         d="M 5.77,0 -2.88,5 V -5 Z"
         id="path33944" />
    </marker>
    <clipPath
       clipPathUnits="userSpaceOnUse"
       id="clipPath31866">
      <rect
         style="fill:#1a5fb4;stroke:#c1bab5;stroke-width:0;stroke-miterlimit:4;stroke-dasharray:none"
         id="rect31868"
         width="1613.8583"
         height="631.18103"
         x="-674.57068"
         y="3086.6609" />
    </clipPath>
    <rect
       x="60"
       y="210"
       width="420"
       height="100.00001"
       id="rect24968" />
    <rect
       x="60"
       y="210"
       width="519.50006"
       height="96.5"
       id="rect34624" />
    <rect
       x="60"
       y="210"
       width="202.92191"
       height="136.00781"
       id="rect39464" />
    <rect
       x="60"
       y="210"
       width="413.84769"
       height="120.60547"
       id="rect58441" />
  </defs>
  <g
     inkscape:label="Layer 1"
     inkscape:groupmode="layer"
     id="layer1">
    <rect
       style="opacity:0.895264;fill:#2e3436;fill-opacity:0.82805;stroke:#2e3436;stroke-width:0.264583;stroke-linecap:round;stroke-miterlimit:4;stroke-dasharray:none;stroke-opacity:0.869026"
       id="rect1066"
       width="137.31876"
       height="12.435417"
       x="16.007292"
       y="74.21563"
       rx="3.1750002"
       ry="3.175" />
    <rect
       style="display:inline;fill:#f8f7f7;fill-opacity:1;stroke:#c1bab5;stroke-width:0.264526;stroke-linecap:round;stroke-miterlimit:4;stroke-dasharray:none;stroke-opacity:1;enable-background:new"
       id="rect1068"
       width="137.05423"
       height="98.689644"
       x="16.272245"
       y="138.77393"
       rx="3.1749997"
       ry="3.1750002" />
    <filter
       id="a"
       height="1"
       width="1"
       x="0"
       y="0">
      <feColorMatrix
         in="SourceGraphic"
         type="matrix"
         values="0 0 0 0 1 0 0 0 0 1 0 0 0 0 1 0 0 0 1 0"
         id="feColorMatrix43640" />
    </filter>
    <mask
       id="b">
      <g
         filter="url(#a)"
         id="g43645">
        <path
           d="M 0,0 H 16 V 16 H 0 Z"
           fill-opacity="0.3"
           id="path43643" />
      </g>
    </mask>
    <clipPath
       id="c">
      <path
         d="M 0,0 H 1024 V 800 H 0 Z"
         id="path43648" />
    </clipPath>
    <mask
       id="d">
      <g
         filter="url(#a)"
         id="g43653">
        <path
           d="M 0,0 H 16 V 16 H 0 Z"
           fill-opacity="0.05"
           id="path43651" />
      </g>
    </mask>
    <clipPath
       id="e">
      <path
         d="M 0,0 H 1024 V 800 H 0 Z"
         id="path43656" />
    </clipPath>
    <mask
       id="f">
      <g
         filter="url(#a)"
         id="g43661">
        <path
           d="M 0,0 H 16 V 16 H 0 Z"
           fill-opacity="0.05"
           id="path43659" />
      </g>
    </mask>
    <clipPath
       id="g">
      <path
         d="M 0,0 H 1024 V 800 H 0 Z"
         id="path43664" />
    </clipPath>
    <mask
       id="h">
      <g
         filter="url(#a)"
         id="g43669">
        <path
           d="M 0,0 H 16 V 16 H 0 Z"
           fill-opacity="0.05"
           id="path43667" />
      </g>
    </mask>
    <clipPath
       id="i">
      <path
         d="M 0,0 H 1024 V 800 H 0 Z"
         id="path43672" />
    </clipPath>
    <mask
       id="j">
      <g
         filter="url(#a)"
         id="g43677">
        <path
           d="M 0,0 H 16 V 16 H 0 Z"
           fill-opacity="0.05"
           id="path43675" />
      </g>
    </mask>
    <clipPath
       id="k">
      <path
         d="M 0,0 H 1024 V 800 H 0 Z"
         id="path43680" />
    </clipPath>
    <mask
       id="l">
      <g
         filter="url(#a)"
         id="g43685">
        <path
           d="M 0,0 H 16 V 16 H 0 Z"
           fill-opacity="0.05"
           id="path43683" />
      </g>
    </mask>
    <clipPath
       id="m">
      <path
         d="M 0,0 H 1024 V 800 H 0 Z"
         id="path43688" />
    </clipPath>
    <mask
       id="n">
      <g
         filter="url(#a)"
         id="g43693">
        <path
           d="M 0,0 H 16 V 16 H 0 Z"
           fill-opacity="0.05"
           id="path43691" />
      </g>
    </mask>
    <clipPath
       id="o">
      <path
         d="M 0,0 H 1024 V 800 H 0 Z"
         id="path43696" />
    </clipPath>
    <mask
       id="p">
      <g
         filter="url(#a)"
         id="g43701">
        <path
           d="M 0,0 H 16 V 16 H 0 Z"
           fill-opacity="0.3"
           id="path43699" />
      </g>
    </mask>
    <clipPath
       id="q">
      <path
         d="M 0,0 H 1024 V 800 H 0 Z"
         id="path43704" />
    </clipPath>
    <mask
       id="r">
      <g
         filter="url(#a)"
         id="g43709">
        <path
           d="M 0,0 H 16 V 16 H 0 Z"
           fill-opacity="0.5"
           id="path43707" />
      </g>
    </mask>
    <clipPath
       id="s">
      <path
         d="M 0,0 H 1024 V 800 H 0 Z"
         id="path43712" />
    </clipPath>
    <mask
       id="t">
      <g
         filter="url(#a)"
         id="g43717">
        <path
           d="M 0,0 H 16 V 16 H 0 Z"
           fill-opacity="0.4"
           id="path43715" />
      </g>
    </mask>
    <clipPath
       id="u">
      <path
         d="M 0,0 H 1024 V 800 H 0 Z"
         id="path43720" />
    </clipPath>
    <mask
       id="v">
      <g
         filter="url(#a)"
         id="g43725">
        <path
           d="M 0,0 H 16 V 16 H 0 Z"
           fill-opacity="0.4"
           id="path43723" />
      </g>
    </mask>
    <clipPath
       id="w">
      <path
         d="M 0,0 H 1024 V 800 H 0 Z"
         id="path43728" />
    </clipPath>
    <mask
       id="x">
      <g
         filter="url(#a)"
         id="g43733">
        <path
           d="M 0,0 H 16 V 16 H 0 Z"
           fill-opacity="0.5"
           id="path43731" />
      </g>
    </mask>
    <clipPath
       id="y">
      <path
         d="M 0,0 H 1024 V 800 H 0 Z"
         id="path43736" />
    </clipPath>
    <mask
       id="z">
      <g
         filter="url(#a)"
         id="g43741">
        <path
           d="M 0,0 H 16 V 16 H 0 Z"
           fill-opacity="0.5"
           id="path43739" />
      </g>
    </mask>
    <clipPath
       id="A">
      <path
         d="M 0,0 H 1024 V 800 H 0 Z"
         id="path43744" />
    </clipPath>
    <g
       clip-path="url(#c)"
       mask="url(#b)"
       transform="matrix(0.26458333,0,0,0.26458333,-23.276102,-21.825024)"
       id="g43753">
      <path
         d="m 562.46094,212.05859 h 10.44922 c -1.1836,0.49219 -1.29688,2.46094 0,3 h -10.44922 z m 0,0"
         fill="#2e3436"
         id="path43751" />
    </g>
    <g
       clip-path="url(#e)"
       mask="url(#d)"
       transform="matrix(0.26458333,0,0,0.26458333,-23.276102,-21.825024)"
       id="g43757">
      <path
         d="m 16,632 h 1 v 1 h -1 z m 0,0"
         fill="#2e3436"
         fill-rule="evenodd"
         id="path43755" />
    </g>
    <g
       clip-path="url(#g)"
       mask="url(#f)"
       transform="matrix(0.26458333,0,0,0.26458333,-23.276102,-21.825024)"
       id="g43761">
      <path
         d="m 17,631 h 1 v 1 h -1 z m 0,0"
         fill="#2e3436"
         fill-rule="evenodd"
         id="path43759" />
    </g>
    <g
       clip-path="url(#i)"
       mask="url(#h)"
       transform="matrix(0.26458333,0,0,0.26458333,-23.276102,-21.825024)"
       id="g43765">
      <path
         d="m 18,634 h 1 v 1 h -1 z m 0,0"
         fill="#2e3436"
         fill-rule="evenodd"
         id="path43763" />
    </g>
    <g
       clip-path="url(#k)"
       mask="url(#j)"
       transform="matrix(0.26458333,0,0,0.26458333,-23.276102,-21.825024)"
       id="g43769">
      <path
         d="m 16,634 h 1 v 1 h -1 z m 0,0"
         fill="#2e3436"
         fill-rule="evenodd"
         id="path43767" />
    </g>
    <g
       clip-path="url(#m)"
       mask="url(#l)"
       transform="matrix(0.26458333,0,0,0.26458333,-23.276102,-21.825024)"
       id="g43773">
      <path
         d="m 17,635 h 1 v 1 h -1 z m 0,0"
         fill="#2e3436"
         fill-rule="evenodd"
         id="path43771" />
    </g>
    <g
       clip-path="url(#o)"
       mask="url(#n)"
       transform="matrix(0.26458333,0,0,0.26458333,-23.276102,-21.825024)"
       id="g43777">
      <path
         d="m 19,635 h 1 v 1 h -1 z m 0,0"
         fill="#2e3436"
         fill-rule="evenodd"
         id="path43775" />
    </g>
    <g
       clip-path="url(#q)"
       mask="url(#p)"
       transform="matrix(0.26458333,0,0,0.26458333,-23.276102,-21.825024)"
       id="g43781">
      <path
         d="m 136,660 v 7 h 7 v -7 z m 0,0"
         fill="#2e3436"
         id="path43779" />
    </g>
    <g
       clip-path="url(#s)"
       mask="url(#r)"
       transform="matrix(0.26458333,0,0,0.26458333,-23.276102,-21.825024)"
       id="g43785">
      <path
         d="m 199,642 h 3 v 12 h -3 z m 0,0"
         fill="#2e3436"
         id="path43783" />
    </g>
    <g
       clip-path="url(#u)"
       mask="url(#t)"
       transform="matrix(0.26458333,0,0,0.26458333,-23.276102,-21.825024)"
       id="g43789">
      <path
         d="m 209.5,144.16016 c 0.27734,0 0.5,0.22265 0.5,0.5 v 1 c 0,0.27734 -0.22266,0.5 -0.5,0.5 -0.27734,0 -0.5,-0.22266 -0.5,-0.5 v -1 c 0,-0.27735 0.22266,-0.5 0.5,-0.5 z m 0,0"
         fill="#2e3436"
         id="path43787" />
    </g>
    <g
       clip-path="url(#w)"
       mask="url(#v)"
       transform="matrix(0.26458333,0,0,0.26458333,-23.276102,-21.825024)"
       id="g43793">
      <path
         d="m 206.5,144.16016 c 0.27734,0 0.5,0.22265 0.5,0.5 v 1 c 0,0.27734 -0.22266,0.5 -0.5,0.5 -0.27734,0 -0.5,-0.22266 -0.5,-0.5 v -1 c 0,-0.27735 0.22266,-0.5 0.5,-0.5 z m 0,0"
         fill="#2e3436"
         id="path43791" />
    </g>
    <g
       clip-path="url(#y)"
       mask="url(#x)"
       transform="matrix(0.26458333,0,0,0.26458333,-23.276102,-21.825024)"
       id="g43797">
      <path
         d="m 229.5,143.16016 c -0.54688,0 -1,0.45703 -1,1 0,0.54687 0.45312,1 1,1 0.54687,0 1,-0.45313 1,-1 0,-0.54297 -0.45313,-1 -1,-1 z m 0,0"
         fill="#2e3436"
         id="path43795" />
    </g>
    <g
       clip-path="url(#A)"
       mask="url(#z)"
       transform="matrix(0.26458333,0,0,0.26458333,-23.276102,-21.825024)"
       id="g43801">
      <path
         d="m 226.45312,143.16016 c -0.51953,0 -0.95312,0.43359 -0.95312,0.95312 v 0.0937 c 0,0.51953 0.43359,0.95313 0.95312,0.95313 h 0.0937 c 0.51954,0 0.95313,-0.4336 0.95313,-0.95313 v -0.0937 c 0,-0.51953 -0.43359,-0.95312 -0.95313,-0.95312 z m 0,0"
         fill="#2e3436"
         id="path43799" />
    </g>
    <rect
       style="fill:#ffffff;stroke:#c1bab5;stroke-width:0.264583;stroke-miterlimit:4;stroke-dasharray:none"
       id="rect1070"
       width="116.15208"
       height="38.100002"
       x="26.326412"
       y="179.78442"
       rx="1.5874999"
       ry="1.5874999" />
    <text
       xml:space="preserve"
       style="font-style:normal;font-variant:normal;font-weight:800;font-stretch:normal;font-size:5.64444px;line-height:125%;font-family:Cantarell;-inkscape-font-specification:'Cantarell Ultra-Bold';text-align:center;letter-spacing:0px;word-spacing:0px;text-anchor:middle;display:inline;fill:#2e3436;fill-opacity:1;stroke:none;stroke-width:0.264583"
       x="84.703178"
       y="152.39014"
       id="text1074"><tspan
         id="tspan1072"
         sodipodi:role="line"
         x="84.703178"
         y="152.39014"
         style="stroke-width:0.264583">Unable to Download Updates</tspan></text>
    <path
       style="fill:none;fill-rule:evenodd;stroke:#d0d0d0;stroke-width:0.264583px;stroke-linecap:butt;stroke-linejoin:miter;stroke-opacity:1"
       d="M 16.483339,225.82189 H 153.27293"
       id="path1076"
       inkscape:connector-curvature="0" />
    <text
       id="text1080"
       y="232.82309"
       x="119.059"
       style="font-style:normal;font-variant:normal;font-weight:normal;font-stretch:normal;font-size:3.70417px;line-height:125%;font-family:Cantarell;-inkscape-font-specification:Cantarell;text-align:center;letter-spacing:0px;word-spacing:0px;text-anchor:middle;display:inline;fill:#2e3436;fill-opacity:1;stroke:none;stroke-width:0.264583"
       xml:space="preserve"><tspan
         y="232.82309"
         x="119.059"
         id="tspan1078"
         sodipodi:role="line"
         style="stroke-width:0.264583">Close</tspan></text>
    <flowRoot
       transform="matrix(0.07000434,0,0,0.07000434,72.094347,-60.50464)"
       style="font-style:normal;font-weight:bold;font-size:151.181px;line-height:30%;font-family:Sans;-inkscape-font-specification:'Sans Bold';text-align:center;letter-spacing:0px;word-spacing:0px;text-anchor:middle;fill:#2e3436;fill-opacity:1;stroke:none;stroke-width:1px;stroke-linecap:butt;stroke-linejoin:miter;stroke-opacity:1"
       id="flowRoot1088"
       xml:space="preserve"><flowRegion
         id="flowRegion1084"><rect
           style="text-align:center;text-anchor:middle;fill:#2e3436;stroke-width:1px"
           y="3102.4331"
           x="-652.37823"
           height="890.93481"
           width="1649.7931"
           id="rect1082" /></flowRegion><flowPara
         style="font-style:normal;font-variant:normal;font-weight:normal;font-stretch:normal;font-size:51.9685px;font-family:Cantarell;-inkscape-font-specification:'Cantarell Bold';text-align:center;text-anchor:middle;fill:#2e3436"
         id="flowPara1086">An error occurred when attempting to download updates from gnome-nightly. If this issue persists, please report it.</flowPara></flowRoot>
    <flowRoot
       transform="matrix(0.07000434,0,0,0.07000434,75.269347,-34.575467)"
       style="font-style:normal;font-weight:bold;font-size:50.3937px;line-height:135%;font-family:Sans;-inkscape-font-specification:'Sans Bold';text-align:center;letter-spacing:0px;word-spacing:0px;text-anchor:middle;fill:#2e3436;fill-opacity:1;stroke:none;stroke-width:1px;stroke-linecap:butt;stroke-linejoin:miter;stroke-opacity:1"
       id="flowRoot1098"
       xml:space="preserve"
       clip-path="url(#clipPath31866)"><flowRegion
         id="flowRegion1092"><rect
           style="text-align:center;text-anchor:middle;fill:#2e3436;stroke-width:1px"
           y="3102.4331"
           x="-652.37823"
           height="909.33026"
           width="1558.0216"
           id="rect1090" /></flowRegion><flowPara
         style="font-style:normal;font-variant:normal;font-weight:normal;font-stretch:normal;font-size:50.3937px;font-family:monospace;-inkscape-font-specification:monospace;text-align:start;text-anchor:start;fill:#2e3436"
         id="flowPara1094">Unable to download updates:</flowPara><flowPara
         style="font-style:normal;font-variant:normal;font-weight:normal;font-stretch:normal;font-size:50.3937px;font-family:monospace;-inkscape-font-specification:monospace;text-align:start;text-anchor:start;fill:#2e3436"
         id="flowPara1096">While pulling runtime/org.gnome.Platform/x86_64/master from remote gnome-nightly: While fetching https://nightly.gnome.org/repo/objects/72/25a0e85c7fbc6bcf93d9ef3f87fe26d97a493cfbee0f6a1138cb71341d6f.fil-ez[18] Transerred a partial file</flowPara></flowRoot>
    <flowRoot
       transform="matrix(0.07000434,0,0,0.07000434,71.860487,-44.629642)"
       style="font-style:normal;font-weight:bold;font-size:151.181px;line-height:26%;font-family:Sans;-inkscape-font-specification:'Sans Bold';text-align:start;letter-spacing:0px;word-spacing:0px;text-anchor:start;fill:#2e3436;fill-opacity:1;stroke:none;stroke-width:1px;stroke-linecap:butt;stroke-linejoin:miter;stroke-opacity:1"
       id="flowRoot1106"
       xml:space="preserve"><flowRegion
         id="flowRegion1102"
         style="text-align:start;text-anchor:start"><rect
           style="text-align:start;text-anchor:start;fill:#2e3436;stroke-width:1px"
           y="3102.4331"
           x="-652.37823"
           height="887.98199"
           width="1484.2174"
           id="rect1100" /></flowRegion><flowPara
         style="font-style:normal;font-variant:normal;font-weight:bold;font-stretch:normal;font-size:51.9685px;font-family:Cantarell;-inkscape-font-specification:'Cantarell Bold';text-align:start;text-anchor:start;fill:#2e3436"
         id="flowPara1104">Details</flowPara></flowRoot>
    <path
       d="m 144.19889,79.375093 h 0.27278 c 0.0675,0.0029 0.13494,0.03413 0.18204,0.08282 l 0.60351,0.602987 0.61172,-0.603251 c 0.0704,-0.06112 0.11827,-0.08096 0.18203,-0.08282 h 0.26458 v 0.264583 c 0,0.07567 -0.009,0.145521 -0.0661,0.198438 l -0.60352,0.60378 0.59532,0.595312 c 0.0497,0.04974 0.0743,0.120121 0.0743,0.190236 v 0.264583 h -0.26458 c -0.0701,0 -0.14023,-0.02461 -0.19023,-0.07435 l -0.60352,-0.603515 -0.60351,0.60325 a 0.26855208,0.26855208 0 0 1 -0.19024,0.07461 h -0.26458 v -0.264583 c 0,-0.07011 0.0246,-0.14023 0.0743,-0.190236 l 0.60351,-0.595312 -0.60325,-0.603516 a 0.24050625,0.24050625 0 0 1 -0.0746,-0.198437 z"
       style="line-height:normal;-inkscape-font-specification:'Andale Mono';text-indent:0;text-align:start;text-decoration-line:none;text-transform:none;fill:#ffffff;stroke-width:0.264583;marker:none"
       color="#bebebe"
       font-weight="400"
       font-family="'Andale Mono'"
       overflow="visible"
       fill="#2e3436"
       id="path1108" />
    <text
       xml:space="preserve"
       style="font-style:normal;font-variant:normal;font-weight:bold;font-stretch:normal;font-size:3.88056px;line-height:125%;font-family:Cantarell;-inkscape-font-specification:'Cantarell Bold';text-align:start;letter-spacing:0px;word-spacing:0px;text-anchor:start;display:inline;fill:#2e3436;fill-opacity:1;stroke:none;stroke-width:0.264583"
       x="21.864866"
       y="81.847771"
       id="text1112"><tspan
         id="tspan1110"
         sodipodi:role="line"
         x="21.864866"
         y="81.847771"
         style="font-style:normal;font-variant:normal;font-weight:bold;font-stretch:normal;font-size:3.88056px;font-family:Cantarell;-inkscape-font-specification:'Cantarell Bold';text-align:start;text-anchor:start;fill:#ffffff;stroke-width:0.264583">Unable to Download Updates</tspan></text>
    <rect
       style="display:inline;fill:#2e3436;fill-opacity:0.209571;stroke:#2e3436;stroke-width:0.264526;stroke-linecap:round;stroke-miterlimit:4;stroke-dasharray:none;stroke-opacity:0.337858;enable-background:new"
       id="rect1114"
       width="29.368834"
       height="8.731308"
       x="108.34709"
       y="76.067657"
       rx="1.5875"
       ry="1.5875" />
    <text
       xml:space="preserve"
       style="font-style:normal;font-variant:normal;font-weight:bold;font-stretch:normal;font-size:3.88056px;line-height:125%;font-family:Cantarell;-inkscape-font-specification:'Cantarell Bold';text-align:start;letter-spacing:0px;word-spacing:0px;text-anchor:start;display:inline;fill:#2e3436;fill-opacity:1;stroke:none;stroke-width:0.264583"
       x="111.82302"
       y="81.847771"
       id="text1118"><tspan
         id="tspan1116"
         sodipodi:role="line"
         x="111.82302"
         y="81.847771"
         style="font-style:normal;font-variant:normal;font-weight:bold;font-stretch:normal;font-size:3.88056px;font-family:Cantarell;-inkscape-font-specification:'Cantarell Bold';text-align:start;text-anchor:start;fill:#ffffff;stroke-width:0.264583">View Details</tspan></text>
    <path
       style="fill:none;stroke:#000000;stroke-width:0.529167;stroke-linecap:butt;stroke-linejoin:miter;stroke-miterlimit:4;stroke-dasharray:none;stroke-opacity:1;marker-end:url(#TriangleOutM)"
       d="m 123.03152,91.011504 0.0663,15.365556 H 84.964917 l -0.0663,25.04749"
       id="path1120"
       sodipodi:nodetypes="cccc" />
    <text
       xml:space="preserve"
       transform="matrix(0.26458333,0,0,0.26458333,0,-37.041668)"
       id="text10342"
       style="font-style:normal;font-weight:normal;font-size:32px;line-height:1.25;font-family:sans-serif;white-space:pre;shape-inside:url(#rect10344);fill:#2e3436;fill-opacity:1;stroke:none"><tspan
         x="60"
         y="238.7364"
         id="tspan63237"><tspan
           style="font-weight:800;font-family:Cantarell;-inkscape-font-specification:'Cantarell, Ultra-Bold'"
           id="tspan63235">Error Messages</tspan></tspan></text>
    <text
       xml:space="preserve"
       transform="matrix(0.26458333,0,0,0.26458333,0,-22.754165)"
       id="text24966"
       style="font-style:normal;font-weight:normal;font-size:14.6667px;line-height:1.25;font-family:sans-serif;white-space:pre;shape-inside:url(#rect24968);fill:#2e3436;fill-opacity:1;stroke:none"><tspan
         x="60"
         y="223.17088"
         id="tspan63241"><tspan
           style="font-weight:bold;font-family:Cantarell;-inkscape-font-specification:Cantarell"
           id="tspan63239">Design pattern for showing error information.</tspan></tspan></text>
    <text
       xml:space="preserve"
       transform="matrix(0.26458333,0,0,0.26458333,0,-6.8791643)"
       id="text34622"
       style="font-style:normal;font-weight:normal;font-size:14.6667px;line-height:1.25;font-family:sans-serif;white-space:pre;shape-inside:url(#rect34624);fill:#2e3436;fill-opacity:1;stroke:none"><tspan
         x="60"
         y="223.17088"
         id="tspan63245"><tspan
           style="font-family:Cantarell;-inkscape-font-specification:Cantarell"
           id="tspan63243">If the error is specific to something the user is doing in the app, it is first shown </tspan></tspan><tspan
         x="60"
         y="241.69855"
         id="tspan63249"><tspan
           style="font-family:Cantarell;-inkscape-font-specification:Cantarell"
           id="tspan63247">as an in-app notification:</tspan></tspan></text>
    <text
       xml:space="preserve"
       transform="matrix(0.26458333,0,0,0.26458333,0,46.566668)"
       id="text39462"
       style="font-style:normal;font-weight:normal;font-size:14.6667px;line-height:1.25;font-family:sans-serif;white-space:pre;shape-inside:url(#rect39464);fill:#2e3436;fill-opacity:1;stroke:none"><tspan
         x="60"
         y="223.17088"
         id="tspan63253"><tspan
           style="font-family:Cantarell;-inkscape-font-specification:Cantarell"
           id="tspan63251">Pressing view details opens a </tspan></tspan><tspan
         x="60"
         y="241.69855"
         id="tspan63257"><tspan
           style="font-family:Cantarell;-inkscape-font-specification:Cantarell"
           id="tspan63255">message dialog with more </tspan></tspan><tspan
         x="60"
         y="260.22621"
         id="tspan63261"><tspan
           style="font-family:Cantarell;-inkscape-font-specification:Cantarell"
           id="tspan63259">information, including </tspan></tspan><tspan
         x="60"
         y="278.75389"
         id="tspan63265"><tspan
           style="font-family:Cantarell;-inkscape-font-specification:Cantarell"
           id="tspan63263">technical details.</tspan></tspan></text>
    <path
       style="fill:none;fill-rule:evenodd;stroke:#d0d0d0;stroke-width:0.264583px;stroke-linecap:butt;stroke-linejoin:miter;stroke-opacity:1"
       d="m 84.798958,225.95417 v 11.3771"
       id="path55642"
       inkscape:connector-curvature="0" />
    <text
       id="text55812"
       y="232.82309"
       x="50.53191"
       style="font-style:normal;font-variant:normal;font-weight:normal;font-stretch:normal;font-size:3.70417px;line-height:125%;font-family:Cantarell;-inkscape-font-specification:Cantarell;text-align:center;letter-spacing:0px;word-spacing:0px;text-anchor:middle;display:inline;fill:#2e3436;fill-opacity:1;stroke:none;stroke-width:0.264583"
       xml:space="preserve"><tspan
         y="232.82309"
         x="50.53191"
         id="tspan55810"
         sodipodi:role="line"
         style="stroke-width:0.264583">Copy Details</tspan></text>
    <text
       xml:space="preserve"
       transform="matrix(0.26458333,0,0,0.26458333,0,191.5584)"
       id="text58439"
       style="font-style:normal;font-weight:normal;font-size:14.6667px;line-height:1.25;font-family:sans-serif;white-space:pre;shape-inside:url(#rect58441);fill:#2e3436;fill-opacity:1;stroke:none"><tspan
         x="60"
         y="223.17088"
         id="tspan63269"><tspan
           style="font-family:Cantarell;-inkscape-font-specification:Cantarell"
           id="tspan63267">Text area scrolls if there is more content than there is space.</tspan></tspan></text>
  </g>
</svg>
