<?xml version="1.0" encoding="UTF-8" standalone="no"?>
<svg
   sodipodi:docname="round-scrollbars-2.svg"
   inkscape:version="1.1-rc (52f87abb86, 2021-05-02)"
   version="1.1"
   id="svg6328"
   viewBox="0 0 1220 1560"
   height="1560"
   width="1220"
   inkscape:export-filename="/home/tobias/Design/os-mockups/scrollbars/round-scrollbars.png"
   inkscape:export-xdpi="96"
   inkscape:export-ydpi="96"
   xmlns:inkscape="http://www.inkscape.org/namespaces/inkscape"
   xmlns:sodipodi="http://sodipodi.sourceforge.net/DTD/sodipodi-0.dtd"
   xmlns:xlink="http://www.w3.org/1999/xlink"
   xmlns="http://www.w3.org/2000/svg"
   xmlns:svg="http://www.w3.org/2000/svg"
   xmlns:rdf="http://www.w3.org/1999/02/22-rdf-syntax-ns#"
   xmlns:cc="http://creativecommons.org/ns#"
   xmlns:dc="http://purl.org/dc/elements/1.1/">
  <defs
     id="defs6330">
    <inkscape:path-effect
       effect="fillet_chamfer"
       id="path-effect47135"
       is_visible="true"
       lpeversion="1"
       satellites_param="F,0,0,1,0,12,0,1 @ F,0,0,1,0,12,0,1 @ F,0,0,1,0,0,0,1 @ F,0,0,1,0,0,0,1"
       unit="px"
       method="auto"
       mode="F"
       radius="12"
       chamfer_steps="1"
       flexible="false"
       use_knot_distance="true"
       apply_no_radius="true"
       apply_with_radius="true"
       only_selected="false"
       hide_knots="false" />
    <inkscape:path-effect
       effect="fillet_chamfer"
       id="path-effect47113"
       is_visible="true"
       lpeversion="1"
       satellites_param="F,0,0,1,0,0,0,1 @ F,0,0,1,0,0,0,1 @ F,0,0,1,0,12,0,1 @ F,0,0,1,0,12,0,1"
       unit="px"
       method="auto"
       mode="F"
       radius="12"
       chamfer_steps="1"
       flexible="false"
       use_knot_distance="true"
       apply_no_radius="true"
       apply_with_radius="true"
       only_selected="false"
       hide_knots="false" />
    <inkscape:path-effect
       effect="fillet_chamfer"
       id="path-effect47109"
       is_visible="true"
       lpeversion="1"
       satellites_param="F,0,0,1,0,12,0,1 @ F,0,0,1,0,12,0,1 @ F,0,0,1,0,0,0,1 @ F,0,0,1,0,0,0,1"
       unit="px"
       method="auto"
       mode="F"
       radius="12"
       chamfer_steps="1"
       flexible="false"
       use_knot_distance="true"
       apply_no_radius="true"
       apply_with_radius="true"
       only_selected="false"
       hide_knots="false" />
    <inkscape:path-effect
       effect="fillet_chamfer"
       id="path-effect47093"
       is_visible="true"
       lpeversion="1"
       satellites_param="F,0,0,1,0,12,0,1 @ F,0,0,1,0,12,0,1 @ F,0,0,1,0,0,0,1 @ F,0,0,1,0,0,0,1"
       unit="px"
       method="auto"
       mode="F"
       radius="12"
       chamfer_steps="1"
       flexible="false"
       use_knot_distance="true"
       apply_no_radius="true"
       apply_with_radius="true"
       only_selected="false"
       hide_knots="false" />
    <inkscape:path-effect
       effect="fillet_chamfer"
       id="path-effect47065"
       is_visible="true"
       lpeversion="1"
       satellites_param="F,0,0,1,0,12,0,1 @ F,0,0,1,0,12,0,1 @ F,0,0,1,0,0,0,1 @ F,0,0,1,0,0,0,1"
       unit="px"
       method="auto"
       mode="F"
       radius="12"
       chamfer_steps="1"
       flexible="false"
       use_knot_distance="true"
       apply_no_radius="true"
       apply_with_radius="true"
       only_selected="false"
       hide_knots="false" />
    <inkscape:path-effect
       effect="fillet_chamfer"
       id="path-effect47019"
       is_visible="true"
       lpeversion="1"
       satellites_param="F,0,0,1,0,0,0,1 @ F,0,0,1,0,0,0,1 @ F,0,0,1,0,12,0,1 @ F,0,0,1,0,12,0,1"
       unit="px"
       method="auto"
       mode="F"
       radius="12"
       chamfer_steps="1"
       flexible="false"
       use_knot_distance="true"
       apply_no_radius="true"
       apply_with_radius="true"
       only_selected="false"
       hide_knots="false" />
    <inkscape:path-effect
       effect="fillet_chamfer"
       id="path-effect47015"
       is_visible="true"
       lpeversion="1"
       satellites_param="F,0,0,1,0,12,0,1 @ F,0,0,1,0,12,0,1 @ F,0,0,1,0,0,0,1 @ F,0,0,1,0,0,0,1"
       unit="px"
       method="auto"
       mode="F"
       radius="12"
       chamfer_steps="1"
       flexible="false"
       use_knot_distance="true"
       apply_no_radius="true"
       apply_with_radius="true"
       only_selected="false"
       hide_knots="false" />
    <inkscape:path-effect
       effect="fillet_chamfer"
       id="path-effect46985"
       is_visible="true"
       lpeversion="1"
       satellites_param="F,0,0,1,0,12,0,1 @ F,0,0,1,0,12,0,1 @ F,0,0,1,0,0,0,1 @ F,0,0,1,0,0,0,1"
       unit="px"
       method="auto"
       mode="F"
       radius="12"
       chamfer_steps="1"
       flexible="false"
       use_knot_distance="true"
       apply_no_radius="true"
       apply_with_radius="true"
       only_selected="false"
       hide_knots="false" />
    <inkscape:path-effect
       effect="fillet_chamfer"
       id="path-effect27721"
       is_visible="true"
       lpeversion="1"
       satellites_param="F,0,0,1,0,12,0,1 @ F,0,0,1,0,12,0,1 @ F,0,0,1,0,0,0,1 @ F,0,0,1,0,0,0,1"
       unit="px"
       method="auto"
       mode="F"
       radius="12"
       chamfer_steps="1"
       flexible="false"
       use_knot_distance="true"
       apply_no_radius="true"
       apply_with_radius="true"
       only_selected="false"
       hide_knots="false" />
    <inkscape:path-effect
       effect="fillet_chamfer"
       id="path-effect27675"
       is_visible="true"
       lpeversion="1"
       satellites_param="F,0,0,1,0,0,0,1 @ F,0,0,1,0,0,0,1 @ F,0,0,1,0,12,0,1 @ F,0,0,1,0,12,0,1"
       unit="px"
       method="auto"
       mode="F"
       radius="12"
       chamfer_steps="1"
       flexible="false"
       use_knot_distance="true"
       apply_no_radius="true"
       apply_with_radius="true"
       only_selected="false"
       hide_knots="false" />
    <inkscape:path-effect
       effect="fillet_chamfer"
       id="path-effect27671"
       is_visible="true"
       lpeversion="1"
       satellites_param="F,0,0,1,0,12,0,1 @ F,0,0,1,0,12,0,1 @ F,0,0,1,0,0,0,1 @ F,0,0,1,0,0,0,1"
       unit="px"
       method="auto"
       mode="F"
       radius="12"
       chamfer_steps="1"
       flexible="false"
       use_knot_distance="true"
       apply_no_radius="true"
       apply_with_radius="true"
       only_selected="false"
       hide_knots="false" />
    <inkscape:path-effect
       effect="fillet_chamfer"
       id="path-effect27629"
       is_visible="true"
       lpeversion="1"
       satellites_param="F,0,0,1,0,12,0,1 @ F,0,0,1,0,12,0,1 @ F,0,0,1,0,0,0,1 @ F,0,0,1,0,0,0,1"
       unit="px"
       method="auto"
       mode="F"
       radius="12"
       chamfer_steps="1"
       flexible="false"
       use_knot_distance="true"
       apply_no_radius="true"
       apply_with_radius="true"
       only_selected="false"
       hide_knots="false" />
    <inkscape:path-effect
       effect="fillet_chamfer"
       id="path-effect17725"
       is_visible="true"
       lpeversion="1"
       satellites_param="F,0,0,1,0,12,0,1 @ F,0,0,1,0,12,0,1 @ F,0,0,1,0,0,0,1 @ F,0,0,1,0,0,0,1"
       unit="px"
       method="auto"
       mode="F"
       radius="12"
       chamfer_steps="1"
       flexible="false"
       use_knot_distance="true"
       apply_no_radius="true"
       apply_with_radius="true"
       only_selected="false"
       hide_knots="false" />
    <inkscape:path-effect
       effect="fillet_chamfer"
       id="path-effect2624"
       is_visible="true"
       lpeversion="1"
       satellites_param="F,0,0,1,0,12,0,1 @ F,0,0,1,0,12,0,1 @ F,0,0,1,0,0,0,1 @ F,0,0,1,0,0,0,1"
       unit="px"
       method="auto"
       mode="F"
       radius="12"
       chamfer_steps="1"
       flexible="false"
       use_knot_distance="true"
       apply_no_radius="true"
       apply_with_radius="true"
       only_selected="false"
       hide_knots="false" />
    <inkscape:path-effect
       effect="fillet_chamfer"
       id="path-effect9936"
       is_visible="true"
       lpeversion="1"
       satellites_param="F,0,0,1,0,0,0,1 @ F,0,0,1,0,0,0,1 @ F,0,0,1,0,12,0,1 @ F,0,0,1,0,12,0,1"
       unit="px"
       method="auto"
       mode="F"
       radius="12"
       chamfer_steps="1"
       flexible="false"
       use_knot_distance="true"
       apply_no_radius="true"
       apply_with_radius="true"
       only_selected="false"
       hide_knots="false" />
    <inkscape:path-effect
       effect="fillet_chamfer"
       id="path-effect9932"
       is_visible="true"
       lpeversion="1"
       satellites_param="F,0,0,1,0,12,0,1 @ F,0,0,1,0,12,0,1 @ F,0,0,1,0,0,0,1 @ F,0,0,1,0,0,0,1"
       unit="px"
       method="auto"
       mode="F"
       radius="12"
       chamfer_steps="1"
       flexible="false"
       use_knot_distance="true"
       apply_no_radius="true"
       apply_with_radius="true"
       only_selected="false"
       hide_knots="false" />
    <linearGradient
       id="linearGradient7212"
       inkscape:swatch="solid">
      <stop
         style="stop-color:#000000;stop-opacity:1;"
         offset="0"
         id="stop7214" />
    </linearGradient>
    <clipPath
       clipPathUnits="userSpaceOnUse"
       id="clipPath5703">
      <rect
         style="opacity:0.323228;fill:#ffffff;fill-opacity:0.358243;stroke-width:2;stroke-linecap:square;stroke-linejoin:round;stroke-dashoffset:26.4"
         id="rect5705"
         width="200"
         height="620"
         x="6780"
         y="-2427.6379" />
    </clipPath>
    <filter
       inkscape:collect="always"
       x="-0.18084335"
       width="1.4236733"
       y="-0.15324057"
       height="1.2645561"
       id="filter5601-0"
       style="color-interpolation-filters:sRGB">
      <feGaussianBlur
         inkscape:collect="always"
         stdDeviation="0.610872"
         id="feGaussianBlur5603-6" />
    </filter>
    <linearGradient
       inkscape:collect="always"
       xlink:href="#linearGradient5716"
       id="linearGradient14215"
       gradientUnits="userSpaceOnUse"
       x1="29.089951"
       y1="11.772627"
       x2="33.971455"
       y2="9.7093649" />
    <linearGradient
       id="linearGradient5716">
      <stop
         style="stop-color:#000000;stop-opacity:1;"
         offset="0"
         id="stop5718" />
      <stop
         style="stop-color:#484848;stop-opacity:1;"
         offset="1"
         id="stop5720" />
    </linearGradient>
    <clipPath
       clipPathUnits="userSpaceOnUse"
       id="clipPath17687">
      <rect
         style="opacity:0.323228;fill:#f8e45c;fill-opacity:1;stroke-width:2;stroke-linecap:square;stroke-linejoin:round;stroke-dashoffset:26.4"
         id="rect17689"
         width="200"
         height="620"
         x="6080"
         y="-3147.6379" />
    </clipPath>
    <linearGradient
       inkscape:collect="always"
       xlink:href="#linearGradient5716"
       id="linearGradient27731"
       gradientUnits="userSpaceOnUse"
       x1="29.089951"
       y1="11.772627"
       x2="33.971455"
       y2="9.7093649" />
    <linearGradient
       inkscape:collect="always"
       xlink:href="#linearGradient5716"
       id="linearGradient45548"
       gradientUnits="userSpaceOnUse"
       x1="29.089951"
       y1="11.772627"
       x2="33.971455"
       y2="9.7093649" />
    <linearGradient
       inkscape:collect="always"
       xlink:href="#linearGradient5716"
       id="linearGradient45560"
       gradientUnits="userSpaceOnUse"
       x1="29.089951"
       y1="11.772627"
       x2="33.971455"
       y2="9.7093649" />
    <linearGradient
       inkscape:collect="always"
       xlink:href="#linearGradient5716"
       id="linearGradient47179"
       gradientUnits="userSpaceOnUse"
       x1="29.089951"
       y1="11.772627"
       x2="33.971455"
       y2="9.7093649" />
    <linearGradient
       inkscape:collect="always"
       xlink:href="#linearGradient5716"
       id="linearGradient47181"
       gradientUnits="userSpaceOnUse"
       x1="29.089951"
       y1="11.772627"
       x2="33.971455"
       y2="9.7093649" />
    <linearGradient
       inkscape:collect="always"
       xlink:href="#linearGradient5716"
       id="linearGradient47183"
       gradientUnits="userSpaceOnUse"
       x1="29.089951"
       y1="11.772627"
       x2="33.971455"
       y2="9.7093649" />
    <linearGradient
       inkscape:collect="always"
       xlink:href="#linearGradient5716"
       id="linearGradient47185"
       gradientUnits="userSpaceOnUse"
       x1="29.089951"
       y1="11.772627"
       x2="33.971455"
       y2="9.7093649" />
  </defs>
  <sodipodi:namedview
     inkscape:document-rotation="0"
     inkscape:snap-bbox-midpoints="true"
     inkscape:snap-bbox-edge-midpoints="true"
     inkscape:snap-object-midpoints="true"
     inkscape:snap-center="true"
     inkscape:snap-text-baseline="true"
     inkscape:snap-nodes="true"
     inkscape:bbox-nodes="true"
     inkscape:bbox-paths="true"
     inkscape:snap-bbox="true"
     inkscape:showpageshadow="false"
     units="px"
     inkscape:window-maximized="1"
     inkscape:window-y="0"
     inkscape:window-x="0"
     inkscape:window-height="1011"
     inkscape:window-width="1920"
     showgrid="false"
     inkscape:current-layer="layer1"
     inkscape:document-units="px"
     inkscape:cy="483.66104"
     inkscape:cx="323.85491"
     inkscape:zoom="0.35355339"
     inkscape:pageshadow="2"
     inkscape:pageopacity="1"
     borderopacity="1.0"
     bordercolor="#666666"
     pagecolor="#ffffff"
     id="base"
     inkscape:object-paths="true"
     inkscape:snap-intersection-paths="true"
     inkscape:snap-smooth-nodes="true"
     objecttolerance="10.0"
     gridtolerance="10.0"
     guidetolerance="10.0"
     inkscape:pagecheckerboard="0"
     height="1900px">
    <inkscape:grid
       id="grid6971"
       type="xygrid"
       originx="-6040"
       originy="-360.00011" />
  </sodipodi:namedview>
  <metadata
     id="metadata6333">
    <rdf:RDF>
      <cc:Work
         rdf:about="">
        <dc:format>image/svg+xml</dc:format>
        <dc:type
           rdf:resource="http://purl.org/dc/dcmitype/StillImage" />
      </cc:Work>
    </rdf:RDF>
  </metadata>
  <g
     transform="translate(-6040,3407.6377)"
     id="layer1"
     inkscape:groupmode="layer"
     inkscape:label="Layer 1">
    <g
       id="g17721"
       clip-path="url(#clipPath17687)"
       transform="translate(120)">
      <rect
         style="fill:#fafafa;fill-opacity:1;stroke:#d1cbc8;stroke-width:1;stroke-linecap:round;stroke-linejoin:round;stroke-dashoffset:26.4;stroke-opacity:1"
         id="rect17709"
         width="178.9998"
         height="528.00018"
         x="6058.5"
         y="-3111.1377"
         rx="11"
         ry="11" />
      <g
         id="g17719"
         clip-path="none"
         transform="translate(-700,-719.9999)">
        <path
           id="path17711"
           style="display:inline;fill:#ebebeb;fill-opacity:1;stroke:#d1cbc8;stroke-width:0.999999;stroke-linecap:square;stroke-miterlimit:4;stroke-dasharray:none;stroke-dashoffset:0;stroke-opacity:1"
           d="m 6770.5,-2391.1378 h 154.9999 a 12,12 45 0 1 12,12 l 0,35 H 6758.5 v -35 a 12,12 135 0 1 12,-12 z"
           inkscape:path-effect="#path-effect17725"
           inkscape:original-d="m 6758.5,-2391.1378 h 178.9999 v 47 H 6758.5 Z"
           sodipodi:nodetypes="ccccc" />
        <g
           style="display:inline;fill:#888a85"
           transform="translate(6844.0016,-2893.6415)"
           id="g17717">
          <g
             transform="translate(19,-242)"
             id="g17715"
             style="display:inline;fill:#888a85">
            <path
               inkscape:connector-curvature="0"
               d="m 45,764 h 1 c 0.01037,-1.2e-4 0.02079,-4.6e-4 0.03125,0 0.254951,0.0112 0.50987,0.12858 0.6875,0.3125 L 49,766.59375 51.3125,764.3125 C 51.578125,764.082 51.759172,764.007 52,764 h 1 v 1 c 0,0.28647 -0.03434,0.55065 -0.25,0.75 l -2.28125,2.28125 2.25,2.25 C 52.906938,770.46942 52.999992,770.7347 53,771 v 1 h -1 c -0.265301,-10e-6 -0.530586,-0.0931 -0.71875,-0.28125 L 49,769.4375 46.71875,771.71875 C 46.530586,771.90694 46.26529,772 46,772 h -1 v -1 c -3e-6,-0.26529 0.09306,-0.53058 0.28125,-0.71875 l 2.28125,-2.25 L 45.28125,765.75 C 45.070508,765.55537 44.97809,765.28075 45,765 Z"
               id="path17713"
               style="color:#bebebe;font-style:normal;font-variant:normal;font-weight:normal;font-stretch:normal;font-size:medium;line-height:normal;font-family:'Andale Mono';-inkscape-font-specification:'Andale Mono';text-indent:0;text-align:start;text-decoration:none;text-decoration-line:none;letter-spacing:normal;word-spacing:normal;text-transform:none;writing-mode:lr-tb;direction:ltr;text-anchor:start;display:inline;overflow:visible;visibility:visible;fill:#2e3436;fill-opacity:1;fill-rule:nonzero;stroke:none;stroke-width:1.78125;marker:none;enable-background:new" />
          </g>
        </g>
      </g>
    </g>
    <g
       id="g2665"
       transform="translate(0,-1)" />
    <g
       inkscape:label="status"
       transform="translate(3071.9911,-3691.6384)"
       id="g8161"
       style="display:inline;fill:#f2f2f2;fill-opacity:1;stroke:#c1bab5;stroke-opacity:1" />
    <g
       style="fill:#f2f2f2;fill-opacity:1;stroke:#c1bab5;stroke-opacity:1"
       inkscape:label="devices"
       transform="translate(3071.9911,-3691.6384)"
       id="g8163" />
    <g
       style="fill:#f2f2f2;fill-opacity:1;stroke:#c1bab5;stroke-opacity:1"
       inkscape:label="apps"
       transform="translate(3071.9911,-3691.6384)"
       id="g8165" />
    <g
       style="fill:#f2f2f2;fill-opacity:1;stroke:#c1bab5;stroke-opacity:1"
       inkscape:label="places"
       transform="translate(3071.9911,-3691.6384)"
       id="g8173" />
    <g
       style="fill:#f2f2f2;fill-opacity:1;stroke:#c1bab5;stroke-opacity:1"
       inkscape:label="mimetypes"
       transform="translate(3071.9911,-3691.6384)"
       id="g8175" />
    <g
       inkscape:label="emblems"
       transform="translate(3071.9911,-3691.6384)"
       id="g8177"
       style="display:inline;fill:#f2f2f2;fill-opacity:1;stroke:#c1bab5;stroke-opacity:1" />
    <g
       inkscape:label="categories"
       transform="translate(3071.9911,-3691.6384)"
       id="g8179"
       style="display:inline;fill:#f2f2f2;fill-opacity:1;stroke:#c1bab5;stroke-opacity:1" />
    <title
       id="title9167">Gnome Symbolic Icon Theme</title>
    <g
       id="g3855-8"
       transform="matrix(0.03365125,0,0,0.03365125,8255.8637,-2788.953)"
       style="fill:#ffffff;fill-opacity:1;stroke-width:21.3461" />
    <text
       xml:space="preserve"
       style="font-style:normal;font-variant:normal;font-weight:300;font-stretch:normal;font-size:53.3333px;line-height:1.25;font-family:Cantarell;-inkscape-font-specification:'Cantarell Light';text-align:start;letter-spacing:0px;word-spacing:0px;text-anchor:start"
       x="6120"
       y="-3287.6377"
       id="text3503"><tspan
         sodipodi:role="line"
         id="tspan3501"
         x="6120"
         y="-3287.6377">Round Scrollbars</tspan></text>
    <text
       xml:space="preserve"
       style="font-style:normal;font-variant:normal;font-weight:800;font-stretch:normal;font-size:14px;line-height:1.25;font-family:Cantarell;-inkscape-font-specification:'Cantarell Ultra-Bold';text-align:start;letter-spacing:0px;word-spacing:0px;text-anchor:start"
       x="6120"
       y="-3227.6377"
       id="text3507"><tspan
         sodipodi:role="line"
         x="6120"
         y="-3227.6377"
         style="font-weight:normal"
         id="tspan3604">More subtle, rounded styling for the trough, while retaining all the functional characteristics of the status quo.</tspan><tspan
         sodipodi:role="line"
         x="6120"
         y="-3210.1377"
         style="font-weight:normal"
         id="tspan27563" /><tspan
         sodipodi:role="line"
         x="6120"
         y="-3192.6377"
         style="font-weight:normal"
         id="tspan30191">Non-overlay scrollbars would stay as they are, except for the different drag state color and lighter trough background color.</tspan></text>
    <title
       id="title9167-3">Gnome Symbolic Icon Theme</title>
    <text
       xml:space="preserve"
       style="font-style:normal;font-variant:normal;font-weight:bold;font-stretch:normal;font-size:12px;line-height:1.25;font-family:Cantarell;-inkscape-font-specification:'Cantarell Bold';text-align:start;letter-spacing:0px;word-spacing:0px;text-anchor:start"
       x="6263"
       y="-2562.6377"
       id="text10668"><tspan
         sodipodi:role="line"
         x="6263"
         y="-2562.6377"
         id="tspan10670"
         style="font-weight:normal;font-size:12px">6px horiz.</tspan><tspan
         sodipodi:role="line"
         x="6263"
         y="-2547.6377"
         id="tspan10674"
         style="font-weight:normal;font-size:12px">7px vertical</tspan></text>
    <text
       xml:space="preserve"
       style="font-style:normal;font-variant:normal;font-weight:bold;font-stretch:normal;font-size:12px;line-height:1.25;font-family:Cantarell;-inkscape-font-specification:'Cantarell Bold';text-align:start;letter-spacing:0px;word-spacing:0px;text-anchor:start"
       x="6349"
       y="-2562.6377"
       id="text17004"><tspan
         sodipodi:role="line"
         x="6349"
         y="-2562.6377"
         id="tspan17000"
         style="font-weight:normal;font-size:12px">3px horiz.</tspan><tspan
         sodipodi:role="line"
         x="6349"
         y="-2547.6377"
         id="tspan17002"
         style="font-weight:normal;font-size:12px">7px vertical</tspan></text>
    <rect
       style="opacity:0.6;fill:#000000;fill-opacity:0.367646;stroke-width:1.99999;stroke-linecap:square;stroke-linejoin:round;stroke-dashoffset:26.4"
       id="rect5765"
       width="3"
       height="256.99988"
       x="6351"
       y="-2847.6379"
       rx="1.5"
       ry="1.5" />
    <g
       id="g9928"
       clip-path="url(#clipPath5703)"
       transform="translate(-370,-719.9999)">
      <path
         id="path9918"
         style="display:inline;fill:#ebebeb;fill-opacity:1;stroke:#d1cbc8;stroke-width:0.999999;stroke-linecap:square;stroke-miterlimit:4;stroke-dasharray:none;stroke-dashoffset:0;stroke-opacity:1"
         d="m 6770.5,-2391.1378 h 154.9999 a 12,12 45 0 1 12,12 l 0,35 H 6758.5 v -35 a 12,12 135 0 1 12,-12 z"
         inkscape:path-effect="#path-effect9932"
         inkscape:original-d="m 6758.5,-2391.1378 h 178.9999 v 47 H 6758.5 Z"
         sodipodi:nodetypes="ccccc" />
      <g
         style="display:inline;fill:#888a85"
         transform="translate(6844.0016,-2893.6415)"
         id="g9924">
        <g
           transform="translate(19,-242)"
           id="g9922"
           style="display:inline;fill:#888a85">
          <path
             inkscape:connector-curvature="0"
             d="m 45,764 h 1 c 0.01037,-1.2e-4 0.02079,-4.6e-4 0.03125,0 0.254951,0.0112 0.50987,0.12858 0.6875,0.3125 L 49,766.59375 51.3125,764.3125 C 51.578125,764.082 51.759172,764.007 52,764 h 1 v 1 c 0,0.28647 -0.03434,0.55065 -0.25,0.75 l -2.28125,2.28125 2.25,2.25 C 52.906938,770.46942 52.999992,770.7347 53,771 v 1 h -1 c -0.265301,-10e-6 -0.530586,-0.0931 -0.71875,-0.28125 L 49,769.4375 46.71875,771.71875 C 46.530586,771.90694 46.26529,772 46,772 h -1 v -1 c -3e-6,-0.26529 0.09306,-0.53058 0.28125,-0.71875 l 2.28125,-2.25 L 45.28125,765.75 C 45.070508,765.55537 44.97809,765.28075 45,765 Z"
             id="path9920"
             style="color:#bebebe;font-style:normal;font-variant:normal;font-weight:normal;font-stretch:normal;font-size:medium;line-height:normal;font-family:'Andale Mono';-inkscape-font-specification:'Andale Mono';text-indent:0;text-align:start;text-decoration:none;text-decoration-line:none;letter-spacing:normal;word-spacing:normal;text-transform:none;writing-mode:lr-tb;direction:ltr;text-anchor:start;display:inline;overflow:visible;visibility:visible;fill:#2e3436;fill-opacity:1;fill-rule:nonzero;stroke:none;stroke-width:1.78125;marker:none;enable-background:new" />
        </g>
      </g>
      <path
         id="path9926"
         style="display:inline;fill:#fafafa;fill-opacity:1;stroke:#d1cbc8;stroke-width:0.999998;stroke-linecap:square;stroke-miterlimit:4;stroke-dasharray:none;stroke-dashoffset:0;stroke-opacity:1"
         d="m 6758.5,-2345.1376 h 178.9999 v 470 a 12,12 135 0 1 -12,12 H 6770.5 a 12,12 45 0 1 -12,-12 z"
         inkscape:path-effect="#path-effect9936"
         inkscape:original-d="m 6758.5,-2345.1376 h 178.9999 v 482 H 6758.5 Z"
         sodipodi:nodetypes="ccccc" />
    </g>
    <rect
       style="opacity:1;fill:#000000;fill-opacity:0.107866;stroke-width:1.99999;stroke-linecap:square;stroke-linejoin:round;stroke-dashoffset:26.4"
       id="rect9938"
       width="8"
       height="466"
       x="6553"
       y="-3056.6377"
       rx="4"
       ry="4" />
    <rect
       style="opacity:1;fill:#000000;fill-opacity:0.534381;stroke-width:1.99999;stroke-linecap:square;stroke-linejoin:round;stroke-dashoffset:26.4"
       id="rect9940"
       width="8"
       height="258"
       x="6553"
       y="-2848.6377"
       rx="4"
       ry="4" />
    <g
       id="g13670"
       transform="matrix(1.7584538,0,0,1.7584538,6975.2455,-5383.44)">
      <g
         id="g13668">
        <path
           style="color:#000000;display:block;overflow:visible;visibility:visible;opacity:0.6;fill:#000000;fill-opacity:1;fill-rule:nonzero;stroke:#000000;stroke-width:1;stroke-linecap:butt;stroke-linejoin:miter;stroke-miterlimit:10;stroke-dasharray:none;stroke-dashoffset:0;stroke-opacity:1;marker:none;filter:url(#filter5601-0);enable-background:accumulate"
           d="m -236.7972,1475.3964 v 16.4402 l 3.7123,-3.6239 2.1214,4.331 c 0.5196,1.1714 3.2208,0.2295 2.4527,-1.3369 l -2.0992,-4.4967 h 4.6846 z"
           id="path13662"
           sodipodi:nodetypes="cccccccc"
           inkscape:connector-curvature="0" />
        <g
           id="g13666"
           inkscape:label="#g5607"
           transform="translate(-263.9324,1472.5476)"
           style="display:inline">
          <path
             sodipodi:nodetypes="cccccccc"
             id="path13664"
             d="M 26.604893,2.3179921 V 18.758225 l 3.712311,-3.623922 2.12132,4.331029 c 0.519598,1.171377 3.220861,0.229524 2.452777,-1.336875 l -2.099224,-4.496756 4.684582,-4.4e-5 z"
             style="color:#000000;display:block;overflow:visible;visibility:visible;fill:url(#linearGradient14215);fill-opacity:1;fill-rule:nonzero;stroke:#ffffff;stroke-width:1;stroke-linecap:butt;stroke-linejoin:miter;stroke-miterlimit:10;stroke-dasharray:none;stroke-dashoffset:0;stroke-opacity:1;marker:none;enable-background:accumulate"
             inkscape:connector-curvature="0" />
        </g>
      </g>
    </g>
    <text
       xml:space="preserve"
       style="font-style:normal;font-variant:normal;font-weight:bold;font-stretch:normal;font-size:14px;line-height:1.25;font-family:Cantarell;-inkscape-font-specification:'Cantarell Bold';text-align:start;letter-spacing:0px;word-spacing:0px;text-anchor:start"
       x="6120"
       y="-3127.6377"
       id="text15493"><tspan
         sodipodi:role="line"
         x="6120"
         y="-3127.6377"
         style="font-style:normal;font-variant:normal;font-weight:bold;font-stretch:normal;font-family:Cantarell;-inkscape-font-specification:'Cantarell Bold'"
         id="tspan15491">Light</tspan></text>
    <text
       xml:space="preserve"
       style="font-style:normal;font-variant:normal;font-weight:800;font-stretch:normal;font-size:12px;line-height:1.25;font-family:Cantarell;-inkscape-font-specification:'Cantarell Ultra-Bold';text-align:start;letter-spacing:0px;word-spacing:0px;text-anchor:start"
       x="6500"
       y="-2562.6377"
       id="text3507-3"><tspan
         sodipodi:role="line"
         x="6500"
         y="-2562.6377"
         style="font-weight:normal;font-size:12px"
         id="tspan24153">Darker gray instead of</tspan><tspan
         sodipodi:role="line"
         x="6500"
         y="-2547.6377"
         style="font-weight:normal;font-size:12px"
         id="tspan26531">blue for the drag state</tspan></text>
    <g
       id="g17685"
       clip-path="url(#clipPath17687)"
       transform="translate(40)">
      <rect
         style="fill:#fafafa;fill-opacity:1;stroke:#d1cbc8;stroke-width:1;stroke-linecap:round;stroke-linejoin:round;stroke-dashoffset:26.4;stroke-opacity:1"
         id="rect3577"
         width="178.9998"
         height="528.00018"
         x="6058.5"
         y="-3111.1377"
         rx="11"
         ry="11" />
      <g
         id="g2620"
         clip-path="none"
         transform="translate(-700,-719.9999)">
        <path
           id="path2610"
           style="display:inline;fill:#ebebeb;fill-opacity:1;stroke:#d1cbc8;stroke-width:0.999999;stroke-linecap:square;stroke-miterlimit:4;stroke-dasharray:none;stroke-dashoffset:0;stroke-opacity:1"
           d="m 6770.5,-2391.1378 h 154.9999 a 12,12 45 0 1 12,12 l 0,35 H 6758.5 v -35 a 12,12 135 0 1 12,-12 z"
           inkscape:path-effect="#path-effect2624"
           inkscape:original-d="m 6758.5,-2391.1378 h 178.9999 v 47 H 6758.5 Z"
           sodipodi:nodetypes="ccccc" />
        <g
           style="display:inline;fill:#888a85"
           transform="translate(6844.0016,-2893.6415)"
           id="g2616">
          <g
             transform="translate(19,-242)"
             id="g2614"
             style="display:inline;fill:#888a85">
            <path
               inkscape:connector-curvature="0"
               d="m 45,764 h 1 c 0.01037,-1.2e-4 0.02079,-4.6e-4 0.03125,0 0.254951,0.0112 0.50987,0.12858 0.6875,0.3125 L 49,766.59375 51.3125,764.3125 C 51.578125,764.082 51.759172,764.007 52,764 h 1 v 1 c 0,0.28647 -0.03434,0.55065 -0.25,0.75 l -2.28125,2.28125 2.25,2.25 C 52.906938,770.46942 52.999992,770.7347 53,771 v 1 h -1 c -0.265301,-10e-6 -0.530586,-0.0931 -0.71875,-0.28125 L 49,769.4375 46.71875,771.71875 C 46.530586,771.90694 46.26529,772 46,772 h -1 v -1 c -3e-6,-0.26529 0.09306,-0.53058 0.28125,-0.71875 l 2.28125,-2.25 L 45.28125,765.75 C 45.070508,765.55537 44.97809,765.28075 45,765 Z"
               id="path2612"
               style="color:#bebebe;font-style:normal;font-variant:normal;font-weight:normal;font-stretch:normal;font-size:medium;line-height:normal;font-family:'Andale Mono';-inkscape-font-specification:'Andale Mono';text-indent:0;text-align:start;text-decoration:none;text-decoration-line:none;letter-spacing:normal;word-spacing:normal;text-transform:none;writing-mode:lr-tb;direction:ltr;text-anchor:start;display:inline;overflow:visible;visibility:visible;fill:#2e3436;fill-opacity:1;fill-rule:nonzero;stroke:none;stroke-width:1.78125;marker:none;enable-background:new" />
          </g>
        </g>
      </g>
    </g>
    <g
       id="g2634"
       transform="translate(-240)">
      <rect
         style="opacity:1;fill:#000000;fill-opacity:0.107866;stroke-width:1.99999;stroke-linecap:square;stroke-linejoin:round;stroke-dashoffset:26.4"
         id="rect2630"
         width="8"
         height="466.00018"
         x="6503"
         y="-3056.6379"
         rx="4"
         ry="3.9999998" />
      <rect
         style="opacity:0.8;fill:#000000;fill-opacity:0.367391;stroke-width:1.99999;stroke-linecap:square;stroke-linejoin:round;stroke-dashoffset:26.4"
         id="rect2632"
         width="8"
         height="257.02997"
         x="6503"
         y="-2847.6677"
         rx="4"
         ry="4" />
    </g>
    <text
       xml:space="preserve"
       style="font-style:normal;font-variant:normal;font-weight:bold;font-stretch:normal;font-size:12px;line-height:1.25;font-family:Cantarell;-inkscape-font-specification:'Cantarell Bold';text-align:start;letter-spacing:0px;word-spacing:0px;text-anchor:start"
       x="6213"
       y="-2562.6377"
       id="text22679"><tspan
         sodipodi:role="line"
         x="6213"
         y="-2562.6377"
         id="tspan22677"
         style="font-weight:bold;font-size:12px">Spacing</tspan></text>
    <g
       id="g27625"
       clip-path="url(#clipPath17687)"
       transform="translate(120,630)">
      <rect
         style="fill:#242424;fill-opacity:1;stroke:#4e4e4e;stroke-width:1;stroke-linecap:round;stroke-linejoin:round;stroke-dashoffset:26.4;stroke-opacity:1"
         id="rect27613"
         width="178.9998"
         height="528.00018"
         x="6058.5"
         y="-3111.1377"
         rx="11"
         ry="11" />
      <g
         id="g27623"
         clip-path="none"
         transform="translate(-700,-719.9999)">
        <path
           id="path27615"
           style="display:inline;fill:#303030;fill-opacity:1;stroke:#4e4e4e;stroke-width:0.999999;stroke-linecap:square;stroke-miterlimit:4;stroke-dasharray:none;stroke-dashoffset:0;stroke-opacity:1"
           d="m 6770.5,-2391.1378 h 154.9999 a 12,12 45 0 1 12,12 l 0,35 H 6758.5 v -35 a 12,12 135 0 1 12,-12 z"
           inkscape:path-effect="#path-effect27629"
           inkscape:original-d="m 6758.5,-2391.1378 h 178.9999 v 47 H 6758.5 Z"
           sodipodi:nodetypes="ccccc" />
        <g
           style="display:inline;fill:#888a85"
           transform="translate(6844.0016,-2893.6415)"
           id="g27621">
          <g
             transform="translate(19,-242)"
             id="g27619"
             style="display:inline;fill:#888a85">
            <path
               inkscape:connector-curvature="0"
               d="m 45,764 h 1 c 0.01037,-1.2e-4 0.02079,-4.6e-4 0.03125,0 0.254951,0.0112 0.50987,0.12858 0.6875,0.3125 L 49,766.59375 51.3125,764.3125 C 51.578125,764.082 51.759172,764.007 52,764 h 1 v 1 c 0,0.28647 -0.03434,0.55065 -0.25,0.75 l -2.28125,2.28125 2.25,2.25 C 52.906938,770.46942 52.999992,770.7347 53,771 v 1 h -1 c -0.265301,-10e-6 -0.530586,-0.0931 -0.71875,-0.28125 L 49,769.4375 46.71875,771.71875 C 46.530586,771.90694 46.26529,772 46,772 h -1 v -1 c -3e-6,-0.26529 0.09306,-0.53058 0.28125,-0.71875 l 2.28125,-2.25 L 45.28125,765.75 C 45.070508,765.55537 44.97809,765.28075 45,765 Z"
               id="path27617"
               style="color:#bebebe;font-style:normal;font-variant:normal;font-weight:normal;font-stretch:normal;font-size:medium;line-height:normal;font-family:'Andale Mono';-inkscape-font-specification:'Andale Mono';text-indent:0;text-align:start;text-decoration:none;text-decoration-line:none;letter-spacing:normal;word-spacing:normal;text-transform:none;writing-mode:lr-tb;direction:ltr;text-anchor:start;display:inline;overflow:visible;visibility:visible;fill:#ffffff;fill-opacity:1;fill-rule:nonzero;stroke:none;stroke-width:1.78125;marker:none;enable-background:new" />
          </g>
        </g>
      </g>
    </g>
    <g
       id="g27667"
       clip-path="url(#clipPath5703)"
       transform="translate(-370,-89.9999)">
      <path
         id="path27657"
         style="display:inline;fill:#303030;fill-opacity:1;stroke:#4e4e4e;stroke-width:0.999999;stroke-linecap:square;stroke-miterlimit:4;stroke-dasharray:none;stroke-dashoffset:0;stroke-opacity:1"
         d="m 6770.5,-2391.1378 h 154.9999 a 12,12 45 0 1 12,12 l 0,35 H 6758.5 v -35 a 12,12 135 0 1 12,-12 z"
         inkscape:path-effect="#path-effect27671"
         inkscape:original-d="m 6758.5,-2391.1378 h 178.9999 v 47 H 6758.5 Z"
         sodipodi:nodetypes="ccccc" />
      <g
         style="display:inline;fill:#888a85"
         transform="translate(6844.0016,-2893.6415)"
         id="g27663">
        <g
           transform="translate(19,-242)"
           id="g27661"
           style="display:inline;fill:#888a85">
          <path
             inkscape:connector-curvature="0"
             d="m 45,764 h 1 c 0.01037,-1.2e-4 0.02079,-4.6e-4 0.03125,0 0.254951,0.0112 0.50987,0.12858 0.6875,0.3125 L 49,766.59375 51.3125,764.3125 C 51.578125,764.082 51.759172,764.007 52,764 h 1 v 1 c 0,0.28647 -0.03434,0.55065 -0.25,0.75 l -2.28125,2.28125 2.25,2.25 C 52.906938,770.46942 52.999992,770.7347 53,771 v 1 h -1 c -0.265301,-10e-6 -0.530586,-0.0931 -0.71875,-0.28125 L 49,769.4375 46.71875,771.71875 C 46.530586,771.90694 46.26529,772 46,772 h -1 v -1 c -3e-6,-0.26529 0.09306,-0.53058 0.28125,-0.71875 l 2.28125,-2.25 L 45.28125,765.75 C 45.070508,765.55537 44.97809,765.28075 45,765 Z"
             id="path27659"
             style="color:#bebebe;font-style:normal;font-variant:normal;font-weight:normal;font-stretch:normal;font-size:medium;line-height:normal;font-family:'Andale Mono';-inkscape-font-specification:'Andale Mono';text-indent:0;text-align:start;text-decoration:none;text-decoration-line:none;letter-spacing:normal;word-spacing:normal;text-transform:none;writing-mode:lr-tb;direction:ltr;text-anchor:start;display:inline;overflow:visible;visibility:visible;fill:#ffffff;fill-opacity:1;fill-rule:nonzero;stroke:none;stroke-width:1.78125;marker:none;enable-background:new" />
        </g>
      </g>
      <path
         id="path27665"
         style="display:inline;fill:#242424;fill-opacity:1;stroke:#4e4e4e;stroke-width:0.999998;stroke-linecap:square;stroke-miterlimit:4;stroke-dasharray:none;stroke-dashoffset:0;stroke-opacity:1"
         d="m 6758.5,-2345.1376 h 178.9999 v 470 a 12,12 135 0 1 -12,12 H 6770.5 a 12,12 45 0 1 -12,-12 z"
         inkscape:path-effect="#path-effect27675"
         inkscape:original-d="m 6758.5,-2345.1376 h 178.9999 v 482 H 6758.5 Z"
         sodipodi:nodetypes="ccccc" />
    </g>
    <text
       xml:space="preserve"
       style="font-style:normal;font-variant:normal;font-weight:bold;font-stretch:normal;font-size:14px;line-height:1.25;font-family:Cantarell;-inkscape-font-specification:'Cantarell Bold';text-align:start;letter-spacing:0px;word-spacing:0px;text-anchor:start"
       x="6120"
       y="-2497.6377"
       id="text27693"><tspan
         sodipodi:role="line"
         x="6120"
         y="-2497.6377"
         style="font-style:normal;font-variant:normal;font-weight:bold;font-stretch:normal;font-family:Cantarell;-inkscape-font-specification:'Cantarell Bold'"
         id="tspan27691">Dark</tspan></text>
    <g
       id="g27717"
       clip-path="url(#clipPath17687)"
       transform="translate(40,630)">
      <rect
         style="fill:#242424;fill-opacity:1;stroke:#4e4e4e;stroke-width:1;stroke-linecap:round;stroke-linejoin:round;stroke-dashoffset:26.4;stroke-opacity:1"
         id="rect27705"
         width="178.9998"
         height="528.00018"
         x="6058.5"
         y="-3111.1377"
         rx="11"
         ry="11" />
      <g
         id="g27715"
         clip-path="none"
         transform="translate(-700,-719.9999)">
        <path
           id="path27707"
           style="display:inline;fill:#303030;fill-opacity:1;stroke:#4e4e4e;stroke-width:0.999999;stroke-linecap:square;stroke-miterlimit:4;stroke-dasharray:none;stroke-dashoffset:0;stroke-opacity:1"
           d="m 6770.5,-2391.1378 h 154.9999 a 12,12 45 0 1 12,12 l 0,35 H 6758.5 v -35 a 12,12 135 0 1 12,-12 z"
           inkscape:path-effect="#path-effect27721"
           inkscape:original-d="m 6758.5,-2391.1378 h 178.9999 v 47 H 6758.5 Z"
           sodipodi:nodetypes="ccccc" />
        <g
           style="display:inline;fill:#888a85"
           transform="translate(6844.0016,-2893.6415)"
           id="g27713">
          <g
             transform="translate(19,-242)"
             id="g27711"
             style="display:inline;fill:#888a85">
            <path
               inkscape:connector-curvature="0"
               d="m 45,764 h 1 c 0.01037,-1.2e-4 0.02079,-4.6e-4 0.03125,0 0.254951,0.0112 0.50987,0.12858 0.6875,0.3125 L 49,766.59375 51.3125,764.3125 C 51.578125,764.082 51.759172,764.007 52,764 h 1 v 1 c 0,0.28647 -0.03434,0.55065 -0.25,0.75 l -2.28125,2.28125 2.25,2.25 C 52.906938,770.46942 52.999992,770.7347 53,771 v 1 h -1 c -0.265301,-10e-6 -0.530586,-0.0931 -0.71875,-0.28125 L 49,769.4375 46.71875,771.71875 C 46.530586,771.90694 46.26529,772 46,772 h -1 v -1 c -3e-6,-0.26529 0.09306,-0.53058 0.28125,-0.71875 l 2.28125,-2.25 L 45.28125,765.75 C 45.070508,765.55537 44.97809,765.28075 45,765 Z"
               id="path27709"
               style="color:#bebebe;font-style:normal;font-variant:normal;font-weight:normal;font-stretch:normal;font-size:medium;line-height:normal;font-family:'Andale Mono';-inkscape-font-specification:'Andale Mono';text-indent:0;text-align:start;text-decoration:none;text-decoration-line:none;letter-spacing:normal;word-spacing:normal;text-transform:none;writing-mode:lr-tb;direction:ltr;text-anchor:start;display:inline;overflow:visible;visibility:visible;fill:#ffffff;fill-opacity:1;fill-rule:nonzero;stroke:none;stroke-width:1.78125;marker:none;enable-background:new" />
          </g>
        </g>
      </g>
    </g>
    <rect
       style="opacity:0.6;fill:#ffffff;fill-opacity:0.498735;stroke-width:1.99999;stroke-linecap:square;stroke-linejoin:round;stroke-dashoffset:26.4"
       id="rect5765-6"
       width="3"
       height="256.99988"
       x="6351"
       y="-2217.6379"
       rx="1.5"
       ry="1.5" />
    <rect
       style="fill:#ffffff;fill-opacity:0.201391;stroke-width:1.99999;stroke-linecap:square;stroke-linejoin:round;stroke-dashoffset:26.4"
       id="rect9938-3"
       width="8"
       height="466"
       x="6553"
       y="-2426.6377"
       rx="4"
       ry="4" />
    <rect
       style="fill:#ffffff;fill-opacity:0.667289;stroke-width:1.99999;stroke-linecap:square;stroke-linejoin:round;stroke-dashoffset:26.4"
       id="rect9940-5"
       width="8"
       height="258"
       x="6553"
       y="-2218.6377"
       rx="4"
       ry="4" />
    <g
       id="g2634-6"
       transform="translate(-240,630.00003)"
       style="fill:#ffffff">
      <rect
         style="opacity:1;fill:#ffffff;fill-opacity:0.201391;stroke-width:1.99999;stroke-linecap:square;stroke-linejoin:round;stroke-dashoffset:26.4"
         id="rect2630-2"
         width="8"
         height="466.00018"
         x="6503"
         y="-3056.6379"
         rx="4"
         ry="3.9999998" />
      <rect
         style="opacity:0.8;fill:#ffffff;fill-opacity:0.5;stroke-width:1.99999;stroke-linecap:square;stroke-linejoin:round;stroke-dashoffset:26.4"
         id="rect2632-9"
         width="8"
         height="257.02997"
         x="6503"
         y="-2847.6677"
         rx="4"
         ry="4" />
    </g>
    <g
       id="g45546"
       transform="matrix(1.7584538,0,0,1.7584538,6685.2455,-5513.44)">
      <g
         id="g45544">
        <path
           style="color:#000000;display:block;overflow:visible;visibility:visible;opacity:0.6;fill:#000000;fill-opacity:1;fill-rule:nonzero;stroke:#000000;stroke-width:1;stroke-linecap:butt;stroke-linejoin:miter;stroke-miterlimit:10;stroke-dasharray:none;stroke-dashoffset:0;stroke-opacity:1;marker:none;filter:url(#filter5601-0);enable-background:accumulate"
           d="m -236.7972,1475.3964 v 16.4402 l 3.7123,-3.6239 2.1214,4.331 c 0.5196,1.1714 3.2208,0.2295 2.4527,-1.3369 l -2.0992,-4.4967 h 4.6846 z"
           id="path45538"
           sodipodi:nodetypes="cccccccc"
           inkscape:connector-curvature="0" />
        <g
           id="g45542"
           inkscape:label="#g5607"
           transform="translate(-263.9324,1472.5476)"
           style="display:inline">
          <path
             sodipodi:nodetypes="cccccccc"
             id="path45540"
             d="M 26.604893,2.3179921 V 18.758225 l 3.712311,-3.623922 2.12132,4.331029 c 0.519598,1.171377 3.220861,0.229524 2.452777,-1.336875 l -2.099224,-4.496756 4.684582,-4.4e-5 z"
             style="color:#000000;display:block;overflow:visible;visibility:visible;fill:url(#linearGradient45548);fill-opacity:1;fill-rule:nonzero;stroke:#ffffff;stroke-width:1;stroke-linecap:butt;stroke-linejoin:miter;stroke-miterlimit:10;stroke-dasharray:none;stroke-dashoffset:0;stroke-opacity:1;marker:none;enable-background:accumulate"
             inkscape:connector-curvature="0" />
        </g>
      </g>
    </g>
    <g
       id="g45558"
       transform="matrix(1.7584538,0,0,1.7584538,6685.2455,-4883.44)">
      <g
         id="g45556">
        <path
           style="color:#000000;display:block;overflow:visible;visibility:visible;opacity:0.6;fill:#000000;fill-opacity:1;fill-rule:nonzero;stroke:#000000;stroke-width:1;stroke-linecap:butt;stroke-linejoin:miter;stroke-miterlimit:10;stroke-dasharray:none;stroke-dashoffset:0;stroke-opacity:1;marker:none;filter:url(#filter5601-0);enable-background:accumulate"
           d="m -236.7972,1475.3964 v 16.4402 l 3.7123,-3.6239 2.1214,4.331 c 0.5196,1.1714 3.2208,0.2295 2.4527,-1.3369 l -2.0992,-4.4967 h 4.6846 z"
           id="path45550"
           sodipodi:nodetypes="cccccccc"
           inkscape:connector-curvature="0" />
        <g
           id="g45554"
           inkscape:label="#g5607"
           transform="translate(-263.9324,1472.5476)"
           style="display:inline">
          <path
             sodipodi:nodetypes="cccccccc"
             id="path45552"
             d="M 26.604893,2.3179921 V 18.758225 l 3.712311,-3.623922 2.12132,4.331029 c 0.519598,1.171377 3.220861,0.229524 2.452777,-1.336875 l -2.099224,-4.496756 4.684582,-4.4e-5 z"
             style="color:#000000;display:block;overflow:visible;visibility:visible;fill:url(#linearGradient45560);fill-opacity:1;fill-rule:nonzero;stroke:#ffffff;stroke-width:1;stroke-linecap:butt;stroke-linejoin:miter;stroke-miterlimit:10;stroke-dasharray:none;stroke-dashoffset:0;stroke-opacity:1;marker:none;enable-background:accumulate"
             inkscape:connector-curvature="0" />
        </g>
      </g>
    </g>
    <g
       id="g27689"
       transform="matrix(1.7584538,0,0,1.7584538,6975.2455,-4753.44)">
      <g
         id="g27687">
        <path
           style="color:#000000;display:block;overflow:visible;visibility:visible;opacity:0.6;fill:#000000;fill-opacity:1;fill-rule:nonzero;stroke:#000000;stroke-width:1;stroke-linecap:butt;stroke-linejoin:miter;stroke-miterlimit:10;stroke-dasharray:none;stroke-dashoffset:0;stroke-opacity:1;marker:none;filter:url(#filter5601-0);enable-background:accumulate"
           d="m -236.7972,1475.3964 v 16.4402 l 3.7123,-3.6239 2.1214,4.331 c 0.5196,1.1714 3.2208,0.2295 2.4527,-1.3369 l -2.0992,-4.4967 h 4.6846 z"
           id="path27681"
           sodipodi:nodetypes="cccccccc"
           inkscape:connector-curvature="0" />
        <g
           id="g27685"
           inkscape:label="#g5607"
           transform="translate(-263.9324,1472.5476)"
           style="display:inline">
          <path
             sodipodi:nodetypes="cccccccc"
             id="path27683"
             d="M 26.604893,2.3179921 V 18.758225 l 3.712311,-3.623922 2.12132,4.331029 c 0.519598,1.171377 3.220861,0.229524 2.452777,-1.336875 l -2.099224,-4.496756 4.684582,-4.4e-5 z"
             style="color:#000000;display:block;overflow:visible;visibility:visible;fill:url(#linearGradient27731);fill-opacity:1;fill-rule:nonzero;stroke:#ffffff;stroke-width:1;stroke-linecap:butt;stroke-linejoin:miter;stroke-miterlimit:10;stroke-dasharray:none;stroke-dashoffset:0;stroke-opacity:1;marker:none;enable-background:accumulate"
             inkscape:connector-curvature="0" />
        </g>
      </g>
    </g>
    <g
       id="g46981"
       clip-path="url(#clipPath17687)"
       transform="translate(730)">
      <rect
         style="fill:#fafafa;fill-opacity:1;stroke:#d1cbc8;stroke-width:1;stroke-linecap:round;stroke-linejoin:round;stroke-dashoffset:26.4;stroke-opacity:1"
         id="rect46969"
         width="178.9998"
         height="528.00018"
         x="6058.5"
         y="-3111.1377"
         rx="11"
         ry="11" />
      <g
         id="g46979"
         clip-path="none"
         transform="translate(-700,-719.9999)">
        <path
           id="path46971"
           style="display:inline;fill:#ebebeb;fill-opacity:1;stroke:#d1cbc8;stroke-width:0.999999;stroke-linecap:square;stroke-miterlimit:4;stroke-dasharray:none;stroke-dashoffset:0;stroke-opacity:1"
           d="m 6770.5,-2391.1378 h 154.9999 a 12,12 45 0 1 12,12 l 0,35 H 6758.5 v -35 a 12,12 135 0 1 12,-12 z"
           inkscape:path-effect="#path-effect46985"
           inkscape:original-d="m 6758.5,-2391.1378 h 178.9999 v 47 H 6758.5 Z"
           sodipodi:nodetypes="ccccc" />
        <g
           style="display:inline;fill:#888a85"
           transform="translate(6844.0016,-2893.6415)"
           id="g46977">
          <g
             transform="translate(19,-242)"
             id="g46975"
             style="display:inline;fill:#888a85">
            <path
               inkscape:connector-curvature="0"
               d="m 45,764 h 1 c 0.01037,-1.2e-4 0.02079,-4.6e-4 0.03125,0 0.254951,0.0112 0.50987,0.12858 0.6875,0.3125 L 49,766.59375 51.3125,764.3125 C 51.578125,764.082 51.759172,764.007 52,764 h 1 v 1 c 0,0.28647 -0.03434,0.55065 -0.25,0.75 l -2.28125,2.28125 2.25,2.25 C 52.906938,770.46942 52.999992,770.7347 53,771 v 1 h -1 c -0.265301,-10e-6 -0.530586,-0.0931 -0.71875,-0.28125 L 49,769.4375 46.71875,771.71875 C 46.530586,771.90694 46.26529,772 46,772 h -1 v -1 c -3e-6,-0.26529 0.09306,-0.53058 0.28125,-0.71875 l 2.28125,-2.25 L 45.28125,765.75 C 45.070508,765.55537 44.97809,765.28075 45,765 Z"
               id="path46973"
               style="color:#bebebe;font-style:normal;font-variant:normal;font-weight:normal;font-stretch:normal;font-size:medium;line-height:normal;font-family:'Andale Mono';-inkscape-font-specification:'Andale Mono';text-indent:0;text-align:start;text-decoration:none;text-decoration-line:none;letter-spacing:normal;word-spacing:normal;text-transform:none;writing-mode:lr-tb;direction:ltr;text-anchor:start;display:inline;overflow:visible;visibility:visible;fill:#2e3436;fill-opacity:1;fill-rule:nonzero;stroke:none;stroke-width:1.78125;marker:none;enable-background:new" />
          </g>
        </g>
      </g>
    </g>
    <g
       id="g47011"
       clip-path="url(#clipPath5703)"
       transform="translate(240,-719.9999)">
      <path
         id="path47001"
         style="display:inline;fill:#ebebeb;fill-opacity:1;stroke:#d1cbc8;stroke-width:0.999999;stroke-linecap:square;stroke-miterlimit:4;stroke-dasharray:none;stroke-dashoffset:0;stroke-opacity:1"
         d="m 6770.5,-2391.1378 h 154.9999 a 12,12 45 0 1 12,12 l 0,35 H 6758.5 v -35 a 12,12 135 0 1 12,-12 z"
         inkscape:path-effect="#path-effect47015"
         inkscape:original-d="m 6758.5,-2391.1378 h 178.9999 v 47 H 6758.5 Z"
         sodipodi:nodetypes="ccccc" />
      <g
         style="display:inline;fill:#888a85"
         transform="translate(6844.0016,-2893.6415)"
         id="g47007">
        <g
           transform="translate(19,-242)"
           id="g47005"
           style="display:inline;fill:#888a85">
          <path
             inkscape:connector-curvature="0"
             d="m 45,764 h 1 c 0.01037,-1.2e-4 0.02079,-4.6e-4 0.03125,0 0.254951,0.0112 0.50987,0.12858 0.6875,0.3125 L 49,766.59375 51.3125,764.3125 C 51.578125,764.082 51.759172,764.007 52,764 h 1 v 1 c 0,0.28647 -0.03434,0.55065 -0.25,0.75 l -2.28125,2.28125 2.25,2.25 C 52.906938,770.46942 52.999992,770.7347 53,771 v 1 h -1 c -0.265301,-10e-6 -0.530586,-0.0931 -0.71875,-0.28125 L 49,769.4375 46.71875,771.71875 C 46.530586,771.90694 46.26529,772 46,772 h -1 v -1 c -3e-6,-0.26529 0.09306,-0.53058 0.28125,-0.71875 l 2.28125,-2.25 L 45.28125,765.75 C 45.070508,765.55537 44.97809,765.28075 45,765 Z"
             id="path47003"
             style="color:#bebebe;font-style:normal;font-variant:normal;font-weight:normal;font-stretch:normal;font-size:medium;line-height:normal;font-family:'Andale Mono';-inkscape-font-specification:'Andale Mono';text-indent:0;text-align:start;text-decoration:none;text-decoration-line:none;letter-spacing:normal;word-spacing:normal;text-transform:none;writing-mode:lr-tb;direction:ltr;text-anchor:start;display:inline;overflow:visible;visibility:visible;fill:#2e3436;fill-opacity:1;fill-rule:nonzero;stroke:none;stroke-width:1.78125;marker:none;enable-background:new" />
        </g>
      </g>
      <path
         id="path47009"
         style="display:inline;fill:#fafafa;fill-opacity:1;stroke:#d1cbc8;stroke-width:0.999998;stroke-linecap:square;stroke-miterlimit:4;stroke-dasharray:none;stroke-dashoffset:0;stroke-opacity:1"
         d="m 6758.5,-2345.1376 h 178.9999 v 470 a 12,12 135 0 1 -12,12 H 6770.5 a 12,12 45 0 1 -12,-12 z"
         inkscape:path-effect="#path-effect47019"
         inkscape:original-d="m 6758.5,-2345.1376 h 178.9999 v 482 H 6758.5 Z"
         sodipodi:nodetypes="ccccc" />
    </g>
    <rect
       style="fill:#1a5fb4;fill-opacity:1;stroke:none;stroke-width:0.999996;stroke-linecap:round;stroke-linejoin:round;stroke-dashoffset:26.4;stroke-opacity:1"
       id="rect48276"
       width="156.99979"
       height="359.99985"
       x="7020"
       y="-3007.6377" />
    <rect
       style="opacity:1;fill:#000000;fill-opacity:0.107866;stroke-width:1.99999;stroke-linecap:square;stroke-linejoin:round;stroke-dashoffset:26.4"
       id="rect47021"
       width="8"
       height="466"
       x="7163"
       y="-3056.6377"
       rx="4"
       ry="4" />
    <rect
       style="opacity:1;fill:#000000;fill-opacity:0.534381;stroke-width:1.99999;stroke-linecap:square;stroke-linejoin:round;stroke-dashoffset:26.4"
       id="rect47023"
       width="8"
       height="258"
       x="7163"
       y="-2848.6377"
       rx="4"
       ry="4" />
    <text
       xml:space="preserve"
       style="font-style:normal;font-variant:normal;font-weight:bold;font-stretch:normal;font-size:14px;line-height:1.25;font-family:Cantarell;-inkscape-font-specification:'Cantarell Bold';text-align:start;letter-spacing:0px;word-spacing:0px;text-anchor:start"
       x="6730"
       y="-3127.6377"
       id="text47037"><tspan
         sodipodi:role="line"
         x="6730"
         y="-3127.6377"
         style="font-style:normal;font-variant:normal;font-weight:bold;font-stretch:normal;font-family:Cantarell;-inkscape-font-specification:'Cantarell Bold'"
         id="tspan47035">Mixed Light</tspan></text>
    <g
       id="g47061"
       clip-path="url(#clipPath17687)"
       transform="translate(650)">
      <rect
         style="fill:#fafafa;fill-opacity:1;stroke:#d1cbc8;stroke-width:1;stroke-linecap:round;stroke-linejoin:round;stroke-dashoffset:26.4;stroke-opacity:1"
         id="rect47049"
         width="178.9998"
         height="528.00018"
         x="6058.5"
         y="-3111.1377"
         rx="11"
         ry="11" />
      <g
         id="g47059"
         clip-path="none"
         transform="translate(-700,-719.9999)">
        <path
           id="path47051"
           style="display:inline;fill:#ebebeb;fill-opacity:1;stroke:#d1cbc8;stroke-width:0.999999;stroke-linecap:square;stroke-miterlimit:4;stroke-dasharray:none;stroke-dashoffset:0;stroke-opacity:1"
           d="m 6770.5,-2391.1378 h 154.9999 a 12,12 45 0 1 12,12 l 0,35 H 6758.5 v -35 a 12,12 135 0 1 12,-12 z"
           inkscape:path-effect="#path-effect47065"
           inkscape:original-d="m 6758.5,-2391.1378 h 178.9999 v 47 H 6758.5 Z"
           sodipodi:nodetypes="ccccc" />
        <g
           style="display:inline;fill:#888a85"
           transform="translate(6844.0016,-2893.6415)"
           id="g47057">
          <g
             transform="translate(19,-242)"
             id="g47055"
             style="display:inline;fill:#888a85">
            <path
               inkscape:connector-curvature="0"
               d="m 45,764 h 1 c 0.01037,-1.2e-4 0.02079,-4.6e-4 0.03125,0 0.254951,0.0112 0.50987,0.12858 0.6875,0.3125 L 49,766.59375 51.3125,764.3125 C 51.578125,764.082 51.759172,764.007 52,764 h 1 v 1 c 0,0.28647 -0.03434,0.55065 -0.25,0.75 l -2.28125,2.28125 2.25,2.25 C 52.906938,770.46942 52.999992,770.7347 53,771 v 1 h -1 c -0.265301,-10e-6 -0.530586,-0.0931 -0.71875,-0.28125 L 49,769.4375 46.71875,771.71875 C 46.530586,771.90694 46.26529,772 46,772 h -1 v -1 c -3e-6,-0.26529 0.09306,-0.53058 0.28125,-0.71875 l 2.28125,-2.25 L 45.28125,765.75 C 45.070508,765.55537 44.97809,765.28075 45,765 Z"
               id="path47053"
               style="color:#bebebe;font-style:normal;font-variant:normal;font-weight:normal;font-stretch:normal;font-size:medium;line-height:normal;font-family:'Andale Mono';-inkscape-font-specification:'Andale Mono';text-indent:0;text-align:start;text-decoration:none;text-decoration-line:none;letter-spacing:normal;word-spacing:normal;text-transform:none;writing-mode:lr-tb;direction:ltr;text-anchor:start;display:inline;overflow:visible;visibility:visible;fill:#2e3436;fill-opacity:1;fill-rule:nonzero;stroke:none;stroke-width:1.78125;marker:none;enable-background:new" />
          </g>
        </g>
      </g>
    </g>
    <rect
       style="fill:#1a5fb4;fill-opacity:1;stroke:none;stroke-width:0.999996;stroke-linecap:round;stroke-linejoin:round;stroke-dashoffset:26.4;stroke-opacity:1"
       id="rect47209"
       width="156.99979"
       height="359.99985"
       x="6730.0005"
       y="-3007.6377" />
    <g
       id="g47071"
       transform="translate(370)">
      <rect
         style="opacity:1;fill:#000000;fill-opacity:0.107866;stroke-width:1.99999;stroke-linecap:square;stroke-linejoin:round;stroke-dashoffset:26.4"
         id="rect47067"
         width="8"
         height="466.00018"
         x="6503"
         y="-3056.6379"
         rx="4"
         ry="3.9999998" />
      <rect
         style="opacity:0.8;fill:#000000;fill-opacity:0.367391;stroke-width:1.99999;stroke-linecap:square;stroke-linejoin:round;stroke-dashoffset:26.4"
         id="rect47069"
         width="8"
         height="257.02997"
         x="6503"
         y="-2847.6677"
         rx="4"
         ry="4" />
    </g>
    <g
       id="g47089"
       clip-path="url(#clipPath17687)"
       transform="translate(730,630)">
      <rect
         style="fill:#242424;fill-opacity:1;stroke:#4e4e4e;stroke-width:1;stroke-linecap:round;stroke-linejoin:round;stroke-dashoffset:26.4;stroke-opacity:1"
         id="rect47077"
         width="178.9998"
         height="528.00018"
         x="6058.5"
         y="-3111.1377"
         rx="11"
         ry="11" />
      <g
         id="g47087"
         clip-path="none"
         transform="translate(-700,-719.9999)">
        <path
           id="path47079"
           style="display:inline;fill:#303030;fill-opacity:1;stroke:#4e4e4e;stroke-width:0.999999;stroke-linecap:square;stroke-miterlimit:4;stroke-dasharray:none;stroke-dashoffset:0;stroke-opacity:1"
           d="m 6770.5,-2391.1378 h 154.9999 a 12,12 45 0 1 12,12 l 0,35 H 6758.5 v -35 a 12,12 135 0 1 12,-12 z"
           inkscape:path-effect="#path-effect47093"
           inkscape:original-d="m 6758.5,-2391.1378 h 178.9999 v 47 H 6758.5 Z"
           sodipodi:nodetypes="ccccc" />
        <g
           style="display:inline;fill:#888a85"
           transform="translate(6844.0016,-2893.6415)"
           id="g47085">
          <g
             transform="translate(19,-242)"
             id="g47083"
             style="display:inline;fill:#888a85">
            <path
               inkscape:connector-curvature="0"
               d="m 45,764 h 1 c 0.01037,-1.2e-4 0.02079,-4.6e-4 0.03125,0 0.254951,0.0112 0.50987,0.12858 0.6875,0.3125 L 49,766.59375 51.3125,764.3125 C 51.578125,764.082 51.759172,764.007 52,764 h 1 v 1 c 0,0.28647 -0.03434,0.55065 -0.25,0.75 l -2.28125,2.28125 2.25,2.25 C 52.906938,770.46942 52.999992,770.7347 53,771 v 1 h -1 c -0.265301,-10e-6 -0.530586,-0.0931 -0.71875,-0.28125 L 49,769.4375 46.71875,771.71875 C 46.530586,771.90694 46.26529,772 46,772 h -1 v -1 c -3e-6,-0.26529 0.09306,-0.53058 0.28125,-0.71875 l 2.28125,-2.25 L 45.28125,765.75 C 45.070508,765.55537 44.97809,765.28075 45,765 Z"
               id="path47081"
               style="color:#bebebe;font-style:normal;font-variant:normal;font-weight:normal;font-stretch:normal;font-size:medium;line-height:normal;font-family:'Andale Mono';-inkscape-font-specification:'Andale Mono';text-indent:0;text-align:start;text-decoration:none;text-decoration-line:none;letter-spacing:normal;word-spacing:normal;text-transform:none;writing-mode:lr-tb;direction:ltr;text-anchor:start;display:inline;overflow:visible;visibility:visible;fill:#ffffff;fill-opacity:1;fill-rule:nonzero;stroke:none;stroke-width:1.78125;marker:none;enable-background:new" />
          </g>
        </g>
      </g>
    </g>
    <g
       id="g47105"
       clip-path="url(#clipPath5703)"
       transform="translate(240,-89.9999)">
      <path
         id="path47095"
         style="display:inline;fill:#303030;fill-opacity:1;stroke:#4e4e4e;stroke-width:0.999999;stroke-linecap:square;stroke-miterlimit:4;stroke-dasharray:none;stroke-dashoffset:0;stroke-opacity:1"
         d="m 6770.5,-2391.1378 h 154.9999 a 12,12 45 0 1 12,12 l 0,35 H 6758.5 v -35 a 12,12 135 0 1 12,-12 z"
         inkscape:path-effect="#path-effect47109"
         inkscape:original-d="m 6758.5,-2391.1378 h 178.9999 v 47 H 6758.5 Z"
         sodipodi:nodetypes="ccccc" />
      <g
         style="display:inline;fill:#888a85"
         transform="translate(6844.0016,-2893.6415)"
         id="g47101">
        <g
           transform="translate(19,-242)"
           id="g47099"
           style="display:inline;fill:#888a85">
          <path
             inkscape:connector-curvature="0"
             d="m 45,764 h 1 c 0.01037,-1.2e-4 0.02079,-4.6e-4 0.03125,0 0.254951,0.0112 0.50987,0.12858 0.6875,0.3125 L 49,766.59375 51.3125,764.3125 C 51.578125,764.082 51.759172,764.007 52,764 h 1 v 1 c 0,0.28647 -0.03434,0.55065 -0.25,0.75 l -2.28125,2.28125 2.25,2.25 C 52.906938,770.46942 52.999992,770.7347 53,771 v 1 h -1 c -0.265301,-10e-6 -0.530586,-0.0931 -0.71875,-0.28125 L 49,769.4375 46.71875,771.71875 C 46.530586,771.90694 46.26529,772 46,772 h -1 v -1 c -3e-6,-0.26529 0.09306,-0.53058 0.28125,-0.71875 l 2.28125,-2.25 L 45.28125,765.75 C 45.070508,765.55537 44.97809,765.28075 45,765 Z"
             id="path47097"
             style="color:#bebebe;font-style:normal;font-variant:normal;font-weight:normal;font-stretch:normal;font-size:medium;line-height:normal;font-family:'Andale Mono';-inkscape-font-specification:'Andale Mono';text-indent:0;text-align:start;text-decoration:none;text-decoration-line:none;letter-spacing:normal;word-spacing:normal;text-transform:none;writing-mode:lr-tb;direction:ltr;text-anchor:start;display:inline;overflow:visible;visibility:visible;fill:#ffffff;fill-opacity:1;fill-rule:nonzero;stroke:none;stroke-width:1.78125;marker:none;enable-background:new" />
        </g>
      </g>
      <path
         id="path47103"
         style="display:inline;fill:#242424;fill-opacity:1;stroke:#4e4e4e;stroke-width:0.999998;stroke-linecap:square;stroke-miterlimit:4;stroke-dasharray:none;stroke-dashoffset:0;stroke-opacity:1"
         d="m 6758.5,-2345.1376 h 178.9999 v 470 a 12,12 135 0 1 -12,12 H 6770.5 a 12,12 45 0 1 -12,-12 z"
         inkscape:path-effect="#path-effect47113"
         inkscape:original-d="m 6758.5,-2345.1376 h 178.9999 v 482 H 6758.5 Z"
         sodipodi:nodetypes="ccccc" />
    </g>
    <rect
       style="fill:#99c1f1;fill-opacity:1;stroke:none;stroke-width:0.999996;stroke-linecap:round;stroke-linejoin:round;stroke-dashoffset:26.4;stroke-opacity:1"
       id="rect52572"
       width="156.99979"
       height="359.99985"
       x="7020"
       y="-2377.6377" />
    <text
       xml:space="preserve"
       style="font-style:normal;font-variant:normal;font-weight:bold;font-stretch:normal;font-size:14px;line-height:1.25;font-family:Cantarell;-inkscape-font-specification:'Cantarell Bold';text-align:start;letter-spacing:0px;word-spacing:0px;text-anchor:start"
       x="6730"
       y="-2497.6377"
       id="text47117"><tspan
         sodipodi:role="line"
         x="6730"
         y="-2497.6377"
         style="font-style:normal;font-variant:normal;font-weight:bold;font-stretch:normal;font-family:Cantarell;-inkscape-font-specification:'Cantarell Bold'"
         id="tspan47115">Mixed Dark</tspan></text>
    <g
       id="g47131"
       clip-path="url(#clipPath17687)"
       transform="translate(650,630)">
      <rect
         style="fill:#242424;fill-opacity:1;stroke:#4e4e4e;stroke-width:1;stroke-linecap:round;stroke-linejoin:round;stroke-dashoffset:26.4;stroke-opacity:1"
         id="rect47119"
         width="178.9998"
         height="528.00018"
         x="6058.5"
         y="-3111.1377"
         rx="11"
         ry="11" />
      <g
         id="g47129"
         clip-path="none"
         transform="translate(-700,-719.9999)">
        <path
           id="path47121"
           style="display:inline;fill:#303030;fill-opacity:1;stroke:#4e4e4e;stroke-width:0.999999;stroke-linecap:square;stroke-miterlimit:4;stroke-dasharray:none;stroke-dashoffset:0;stroke-opacity:1"
           d="m 6770.5,-2391.1378 h 154.9999 a 12,12 45 0 1 12,12 l 0,35 H 6758.5 v -35 a 12,12 135 0 1 12,-12 z"
           inkscape:path-effect="#path-effect47135"
           inkscape:original-d="m 6758.5,-2391.1378 h 178.9999 v 47 H 6758.5 Z"
           sodipodi:nodetypes="ccccc" />
        <g
           style="display:inline;fill:#888a85"
           transform="translate(6844.0016,-2893.6415)"
           id="g47127">
          <g
             transform="translate(19,-242)"
             id="g47125"
             style="display:inline;fill:#888a85">
            <path
               inkscape:connector-curvature="0"
               d="m 45,764 h 1 c 0.01037,-1.2e-4 0.02079,-4.6e-4 0.03125,0 0.254951,0.0112 0.50987,0.12858 0.6875,0.3125 L 49,766.59375 51.3125,764.3125 C 51.578125,764.082 51.759172,764.007 52,764 h 1 v 1 c 0,0.28647 -0.03434,0.55065 -0.25,0.75 l -2.28125,2.28125 2.25,2.25 C 52.906938,770.46942 52.999992,770.7347 53,771 v 1 h -1 c -0.265301,-10e-6 -0.530586,-0.0931 -0.71875,-0.28125 L 49,769.4375 46.71875,771.71875 C 46.530586,771.90694 46.26529,772 46,772 h -1 v -1 c -3e-6,-0.26529 0.09306,-0.53058 0.28125,-0.71875 l 2.28125,-2.25 L 45.28125,765.75 C 45.070508,765.55537 44.97809,765.28075 45,765 Z"
               id="path47123"
               style="color:#bebebe;font-style:normal;font-variant:normal;font-weight:normal;font-stretch:normal;font-size:medium;line-height:normal;font-family:'Andale Mono';-inkscape-font-specification:'Andale Mono';text-indent:0;text-align:start;text-decoration:none;text-decoration-line:none;letter-spacing:normal;word-spacing:normal;text-transform:none;writing-mode:lr-tb;direction:ltr;text-anchor:start;display:inline;overflow:visible;visibility:visible;fill:#ffffff;fill-opacity:1;fill-rule:nonzero;stroke:none;stroke-width:1.78125;marker:none;enable-background:new" />
          </g>
        </g>
      </g>
    </g>
    <rect
       style="fill:#99c1f1;fill-opacity:1;stroke:none;stroke-width:0.999996;stroke-linecap:round;stroke-linejoin:round;stroke-dashoffset:26.4;stroke-opacity:1"
       id="rect52574"
       width="156.99979"
       height="359.99985"
       x="6730.0005"
       y="-2377.6377" />
    <rect
       style="fill:#99c1f1;fill-opacity:1;stroke:none;stroke-width:0.999996;stroke-linecap:round;stroke-linejoin:round;stroke-dashoffset:26.4;stroke-opacity:1"
       id="rect52576"
       width="78.999985"
       height="359.99985"
       x="6888"
       y="-2377.6377" />
    <rect
       style="opacity:0.6;fill:#ffffff;fill-opacity:0.498735;stroke-width:1.99999;stroke-linecap:square;stroke-linejoin:round;stroke-dashoffset:26.4"
       id="rect47137"
       width="3"
       height="256.99988"
       x="6961"
       y="-2217.6379"
       rx="1.5"
       ry="1.5" />
    <rect
       style="fill:#ffffff;fill-opacity:0.201391;stroke-width:1.99999;stroke-linecap:square;stroke-linejoin:round;stroke-dashoffset:26.4"
       id="rect47139"
       width="8"
       height="466"
       x="7163"
       y="-2426.6377"
       rx="4"
       ry="4" />
    <rect
       style="fill:#ffffff;fill-opacity:0.667289;stroke-width:1.99999;stroke-linecap:square;stroke-linejoin:round;stroke-dashoffset:26.4"
       id="rect47141"
       width="8"
       height="258"
       x="7163"
       y="-2218.6377"
       rx="4"
       ry="4" />
    <g
       id="g47147"
       transform="translate(370,630.00003)"
       style="fill:#ffffff">
      <rect
         style="opacity:1;fill:#ffffff;fill-opacity:0.201391;stroke-width:1.99999;stroke-linecap:square;stroke-linejoin:round;stroke-dashoffset:26.4"
         id="rect47143"
         width="8"
         height="466.00018"
         x="6503"
         y="-3056.6379"
         rx="4"
         ry="3.9999998" />
      <rect
         style="opacity:0.8;fill:#ffffff;fill-opacity:0.5;stroke-width:1.99999;stroke-linecap:square;stroke-linejoin:round;stroke-dashoffset:26.4"
         id="rect47145"
         width="8"
         height="257.02997"
         x="6503"
         y="-2847.6677"
         rx="4"
         ry="4" />
    </g>
    <rect
       style="fill:#1a5fb4;fill-opacity:1;stroke:none;stroke-width:0.999996;stroke-linecap:round;stroke-linejoin:round;stroke-dashoffset:26.4;stroke-opacity:1"
       id="rect47487"
       width="78.999985"
       height="359.99985"
       x="6888"
       y="-3007.6377" />
    <g
       id="g47167"
       transform="matrix(1.7584538,0,0,1.7584538,7295.2455,-4883.44)">
      <g
         id="g47165">
        <path
           style="color:#000000;display:block;overflow:visible;visibility:visible;opacity:0.6;fill:#000000;fill-opacity:1;fill-rule:nonzero;stroke:#000000;stroke-width:1;stroke-linecap:butt;stroke-linejoin:miter;stroke-miterlimit:10;stroke-dasharray:none;stroke-dashoffset:0;stroke-opacity:1;marker:none;filter:url(#filter5601-0);enable-background:accumulate"
           d="m -236.7972,1475.3964 v 16.4402 l 3.7123,-3.6239 2.1214,4.331 c 0.5196,1.1714 3.2208,0.2295 2.4527,-1.3369 l -2.0992,-4.4967 h 4.6846 z"
           id="path47159"
           sodipodi:nodetypes="cccccccc"
           inkscape:connector-curvature="0" />
        <g
           id="g47163"
           inkscape:label="#g5607"
           transform="translate(-263.9324,1472.5476)"
           style="display:inline">
          <path
             sodipodi:nodetypes="cccccccc"
             id="path47161"
             d="M 26.604893,2.3179921 V 18.758225 l 3.712311,-3.623922 2.12132,4.331029 c 0.519598,1.171377 3.220861,0.229524 2.452777,-1.336875 l -2.099224,-4.496756 4.684582,-4.4e-5 z"
             style="color:#000000;display:block;overflow:visible;visibility:visible;fill:url(#linearGradient47181);fill-opacity:1;fill-rule:nonzero;stroke:#ffffff;stroke-width:1;stroke-linecap:butt;stroke-linejoin:miter;stroke-miterlimit:10;stroke-dasharray:none;stroke-dashoffset:0;stroke-opacity:1;marker:none;enable-background:accumulate"
             inkscape:connector-curvature="0" />
        </g>
      </g>
    </g>
    <g
       id="g47177"
       transform="matrix(1.7584538,0,0,1.7584538,7585.2455,-4753.44)">
      <g
         id="g47175">
        <path
           style="color:#000000;display:block;overflow:visible;visibility:visible;opacity:0.6;fill:#000000;fill-opacity:1;fill-rule:nonzero;stroke:#000000;stroke-width:1;stroke-linecap:butt;stroke-linejoin:miter;stroke-miterlimit:10;stroke-dasharray:none;stroke-dashoffset:0;stroke-opacity:1;marker:none;filter:url(#filter5601-0);enable-background:accumulate"
           d="m -236.7972,1475.3964 v 16.4402 l 3.7123,-3.6239 2.1214,4.331 c 0.5196,1.1714 3.2208,0.2295 2.4527,-1.3369 l -2.0992,-4.4967 h 4.6846 z"
           id="path47169"
           sodipodi:nodetypes="cccccccc"
           inkscape:connector-curvature="0" />
        <g
           id="g47173"
           inkscape:label="#g5607"
           transform="translate(-263.9324,1472.5476)"
           style="display:inline">
          <path
             sodipodi:nodetypes="cccccccc"
             id="path47171"
             d="M 26.604893,2.3179921 V 18.758225 l 3.712311,-3.623922 2.12132,4.331029 c 0.519598,1.171377 3.220861,0.229524 2.452777,-1.336875 l -2.099224,-4.496756 4.684582,-4.4e-5 z"
             style="color:#000000;display:block;overflow:visible;visibility:visible;fill:url(#linearGradient47179);fill-opacity:1;fill-rule:nonzero;stroke:#ffffff;stroke-width:1;stroke-linecap:butt;stroke-linejoin:miter;stroke-miterlimit:10;stroke-dasharray:none;stroke-dashoffset:0;stroke-opacity:1;marker:none;enable-background:accumulate"
             inkscape:connector-curvature="0" />
        </g>
      </g>
    </g>
    <rect
       style="opacity:0.6;fill:#000000;fill-opacity:0.367646;stroke-width:1.99999;stroke-linecap:square;stroke-linejoin:round;stroke-dashoffset:26.4"
       id="rect46999"
       width="3"
       height="256.99988"
       x="6961"
       y="-2847.6379"
       rx="1.5"
       ry="1.5" />
    <rect
       style="opacity:1;fill:none;fill-opacity:0.367646;stroke:#f6f5f4;stroke-width:0.999999;stroke-linecap:square;stroke-linejoin:round;stroke-dashoffset:26.4;stroke-opacity:0.184548"
       id="rect47489"
       width="4"
       height="257.99988"
       x="6960.4995"
       y="-2848.1377"
       rx="2"
       ry="2" />
    <rect
       style="opacity:1;fill:none;fill-opacity:0.107866;stroke:#ffffff;stroke-width:1;stroke-linecap:square;stroke-linejoin:round;stroke-dashoffset:26.4;stroke-opacity:0.18"
       id="rect51638"
       width="9"
       height="466.99991"
       x="7162.5"
       y="-3057.1377"
       rx="4.4998851"
       ry="4.4998851" />
    <rect
       style="opacity:1;fill:none;fill-opacity:0.107866;stroke:#ffffff;stroke-width:1;stroke-linecap:square;stroke-linejoin:round;stroke-dashoffset:26.4;stroke-opacity:0.18"
       id="rect52030"
       width="9"
       height="466.99991"
       x="6872.5"
       y="-3057.1377"
       rx="4.4998851"
       ry="4.4998851" />
    <g
       id="g47033"
       transform="matrix(1.7584538,0,0,1.7584538,7585.2455,-5383.44)">
      <g
         id="g47031">
        <path
           style="color:#000000;display:block;overflow:visible;visibility:visible;opacity:0.6;fill:#000000;fill-opacity:1;fill-rule:nonzero;stroke:#000000;stroke-width:1;stroke-linecap:butt;stroke-linejoin:miter;stroke-miterlimit:10;stroke-dasharray:none;stroke-dashoffset:0;stroke-opacity:1;marker:none;filter:url(#filter5601-0);enable-background:accumulate"
           d="m -236.7972,1475.3964 v 16.4402 l 3.7123,-3.6239 2.1214,4.331 c 0.5196,1.1714 3.2208,0.2295 2.4527,-1.3369 l -2.0992,-4.4967 h 4.6846 z"
           id="path47025"
           sodipodi:nodetypes="cccccccc"
           inkscape:connector-curvature="0" />
        <g
           id="g47029"
           inkscape:label="#g5607"
           transform="translate(-263.9324,1472.5476)"
           style="display:inline">
          <path
             sodipodi:nodetypes="cccccccc"
             id="path47027"
             d="M 26.604893,2.3179921 V 18.758225 l 3.712311,-3.623922 2.12132,4.331029 c 0.519598,1.171377 3.220861,0.229524 2.452777,-1.336875 l -2.099224,-4.496756 4.684582,-4.4e-5 z"
             style="color:#000000;display:block;overflow:visible;visibility:visible;fill:url(#linearGradient47185);fill-opacity:1;fill-rule:nonzero;stroke:#ffffff;stroke-width:1;stroke-linecap:butt;stroke-linejoin:miter;stroke-miterlimit:10;stroke-dasharray:none;stroke-dashoffset:0;stroke-opacity:1;marker:none;enable-background:accumulate"
             inkscape:connector-curvature="0" />
        </g>
      </g>
    </g>
    <g
       id="g47157"
       transform="matrix(1.7584538,0,0,1.7584538,7295.2455,-5513.44)">
      <g
         id="g47155">
        <path
           style="color:#000000;display:block;overflow:visible;visibility:visible;opacity:0.6;fill:#000000;fill-opacity:1;fill-rule:nonzero;stroke:#000000;stroke-width:1;stroke-linecap:butt;stroke-linejoin:miter;stroke-miterlimit:10;stroke-dasharray:none;stroke-dashoffset:0;stroke-opacity:1;marker:none;filter:url(#filter5601-0);enable-background:accumulate"
           d="m -236.7972,1475.3964 v 16.4402 l 3.7123,-3.6239 2.1214,4.331 c 0.5196,1.1714 3.2208,0.2295 2.4527,-1.3369 l -2.0992,-4.4967 h 4.6846 z"
           id="path47149"
           sodipodi:nodetypes="cccccccc"
           inkscape:connector-curvature="0" />
        <g
           id="g47153"
           inkscape:label="#g5607"
           transform="translate(-263.9324,1472.5476)"
           style="display:inline">
          <path
             sodipodi:nodetypes="cccccccc"
             id="path47151"
             d="M 26.604893,2.3179921 V 18.758225 l 3.712311,-3.623922 2.12132,4.331029 c 0.519598,1.171377 3.220861,0.229524 2.452777,-1.336875 l -2.099224,-4.496756 4.684582,-4.4e-5 z"
             style="color:#000000;display:block;overflow:visible;visibility:visible;fill:url(#linearGradient47183);fill-opacity:1;fill-rule:nonzero;stroke:#ffffff;stroke-width:1;stroke-linecap:butt;stroke-linejoin:miter;stroke-miterlimit:10;stroke-dasharray:none;stroke-dashoffset:0;stroke-opacity:1;marker:none;enable-background:accumulate"
             inkscape:connector-curvature="0" />
        </g>
      </g>
    </g>
    <g
       id="g53673"
       transform="translate(0,630.00006)"
       style="stroke:#000000">
      <rect
         style="opacity:1;fill:none;fill-opacity:0.367646;stroke:#000000;stroke-width:0.999999;stroke-linecap:square;stroke-linejoin:round;stroke-dashoffset:26.4;stroke-opacity:0.24"
         id="rect53664"
         width="4"
         height="257.99988"
         x="6960.4995"
         y="-2848.1377"
         rx="2"
         ry="2" />
      <rect
         style="opacity:1;fill:none;fill-opacity:0.107866;stroke:#000000;stroke-width:1;stroke-linecap:square;stroke-linejoin:round;stroke-dashoffset:26.4;stroke-opacity:0.24"
         id="rect53666"
         width="9"
         height="466.99991"
         x="7162.5"
         y="-3057.1377"
         rx="4.4998851"
         ry="4.4998851" />
      <rect
         style="opacity:1;fill:none;fill-opacity:0.107866;stroke:#000000;stroke-width:1;stroke-linecap:square;stroke-linejoin:round;stroke-dashoffset:26.4;stroke-opacity:0.24"
         id="rect53668"
         width="9"
         height="466.99991"
         x="6872.5"
         y="-3057.1377"
         rx="4.4998851"
         ry="4.4998851" />
    </g>
  </g>
</svg>
