<?xml version="1.0" encoding="UTF-8" standalone="no"?>
<!-- Created with Inkscape (http://www.inkscape.org/) -->

<svg
   width="1000"
   height="1080.0001"
   viewBox="0 0 264.58332 285.75002"
   version="1.1"
   id="svg1"
   inkscape:version="1.3 (0e150ed6c4, 2023-07-21)"
   sodipodi:docname="system-status-indicators.svg"
   inkscape:export-filename="../system-status-indicators.png"
   inkscape:export-xdpi="96"
   inkscape:export-ydpi="96"
   xmlns:inkscape="http://www.inkscape.org/namespaces/inkscape"
   xmlns:sodipodi="http://sodipodi.sourceforge.net/DTD/sodipodi-0.dtd"
   xmlns:xlink="http://www.w3.org/1999/xlink"
   xmlns="http://www.w3.org/2000/svg"
   xmlns:svg="http://www.w3.org/2000/svg">
  <sodipodi:namedview
     id="namedview1"
     pagecolor="#ffffff"
     bordercolor="#000000"
     borderopacity="0.25"
     inkscape:showpageshadow="2"
     inkscape:pageopacity="0.0"
     inkscape:pagecheckerboard="0"
     inkscape:deskcolor="#d1d1d1"
     inkscape:document-units="px"
     showgrid="false"
     inkscape:zoom="1"
     inkscape:cx="517.5"
     inkscape:cy="422.5"
     inkscape:window-width="1728"
     inkscape:window-height="1011"
     inkscape:window-x="0"
     inkscape:window-y="0"
     inkscape:window-maximized="1"
     inkscape:current-layer="layer1"
     inkscape:export-bgcolor="#ffffffff">
    <inkscape:grid
       id="grid1"
       units="px"
       originx="0"
       originy="0"
       spacingx="0.26458333"
       spacingy="0.26458334"
       empcolor="#0099e5"
       empopacity="0.30196078"
       color="#0099e5"
       opacity="0.14901961"
       empspacing="5"
       dotted="false"
       gridanglex="30"
       gridanglez="30"
       visible="false" />
  </sodipodi:namedview>
  <defs
     id="defs1">
    <linearGradient
       id="linearGradient51"
       inkscape:collect="always">
      <stop
         style="stop-color:#000000;stop-opacity:0;"
         offset="0"
         id="stop51" />
      <stop
         style="stop-color:#000000;stop-opacity:1;"
         offset="1"
         id="stop52" />
    </linearGradient>
    <rect
       x="310.70963"
       y="220.00037"
       width="178.2123"
       height="124.74255"
       id="rect1" />
    <linearGradient
       inkscape:collect="always"
       xlink:href="#linearGradient51"
       id="linearGradient52"
       x1="5.3727999"
       y1="98.853928"
       x2="21.939667"
       y2="98.514458"
       gradientUnits="userSpaceOnUse"
       gradientTransform="translate(43.225271,-0.25011392)" />
    <linearGradient
       inkscape:collect="always"
       xlink:href="#linearGradient51"
       id="linearGradient85"
       gradientUnits="userSpaceOnUse"
       gradientTransform="translate(43.225271,193.95409)"
       x1="5.3727999"
       y1="98.853928"
       x2="21.939667"
       y2="98.514458" />
  </defs>
  <g
     inkscape:label="Layer 1"
     inkscape:groupmode="layer"
     id="layer1"
     transform="translate(-26.539465,-34.560081)">
    <text
       xml:space="preserve"
       style="font-style:normal;font-weight:normal;font-size:11.2889px;line-height:4.40971px;font-family:sans-serif;letter-spacing:0px;word-spacing:0px;display:inline;fill:#2e3436;fill-opacity:1;stroke:none;stroke-width:0.264583px;stroke-linecap:butt;stroke-linejoin:miter;stroke-opacity:1"
       x="47.570671"
       y="63.943787"
       id="text102307"><tspan
         sodipodi:role="line"
         x="47.570671"
         y="63.943787"
         style="font-style:normal;font-variant:normal;font-weight:800;font-stretch:normal;font-size:11.2889px;line-height:4.40971px;font-family:Cantarell;-inkscape-font-specification:'Cantarell Ultra-Bold';fill:#2e3436;fill-opacity:1;stroke-width:0.264583px"
         id="tspan102305">System status indicators</tspan></text>
    <text
       xml:space="preserve"
       style="font-style:normal;font-weight:normal;font-size:14.6667px;line-height:145%;font-family:sans-serif;letter-spacing:0px;word-spacing:0px;white-space:pre;inline-size:592.434;display:inline;fill:#2e3436;fill-opacity:1;stroke:none;stroke-width:1px;stroke-linecap:butt;stroke-linejoin:miter;stroke-opacity:1"
       x="-1780.512"
       y="3175.5757"
       id="text117790"
       transform="matrix(0.26458333,0,0,0.26458333,518.66446,-593.16881)"><tspan
         x="-1780.512"
         y="3175.5757"
         id="tspan46"><tspan
           style="font-family:Cantarell;-inkscape-font-specification:Cantarell"
           id="tspan2">Screen recording and screen sharing have a button to stop the service in the top bar. (These </tspan></tspan><tspan
         x="-1780.512"
         y="3197.0367"
         id="tspan48"><tspan
           style="font-family:Cantarell;-inkscape-font-specification:Cantarell"
           id="tspan47">are special in that you do need an immediate way to stop.) Other privacy-related alerts </tspan></tspan><tspan
         x="-1780.512"
         y="3218.4977"
         id="tspan50"><tspan
           style="font-family:Cantarell;-inkscape-font-specification:Cantarell"
           id="tspan49">(camera, microphone, location) are indicators only.</tspan></tspan></text>
    <rect
       style="fill:url(#linearGradient52);stroke:none;stroke-width:1.05833;stroke-linecap:square;stroke-linejoin:round;stroke-dasharray:2.11667, 2.11667"
       id="rect27979"
       width="220.90642"
       height="10.054167"
       x="48.598072"
       y="93.576729"
       inkscape:export-filename="/home/aday/Documents/quick-settings-test.png"
       inkscape:export-xdpi="96"
       inkscape:export-ydpi="96" />
    <g
       id="g27987"
       inkscape:label="wifi network connection signal excellent strong"
       transform="matrix(0.26458333,0,0,0.26458333,58.024884,29.003952)">
      <title
         id="title27981">network-wireless-signal-excellent</title>
      <rect
         id="rect27983"
         width="16"
         height="16"
         x="600"
         y="256"
         style="fill:none" />
      <path
         id="path27985"
         style="fill:#ffffff"
         d="m 608,257.99219 c -2.61818,0 -5.23713,0.93501 -7.19336,2.80664 l -0.49803,0.48049 a 1,1 0 0 0 -0.0312,1.41211 1,1 0 0 0 1.41407,0.0293 l 0.50002,-0.47654 c 3.08749,-2.95399 8.52967,-2.954 11.61717,-1e-5 l 0.50002,0.47654 a 1,1 0 0 0 1.41407,-0.0293 1,1 0 0 0 -0.0312,-1.41211 l -0.49803,-0.48049 c -1.95636,-1.87164 -4.57528,-2.80665 -7.19346,-2.80664 z M 607.9668,262 c -1.56859,0.0119 -3.12544,0.62895 -4.20508,1.81445 l -0.50193,0.5469 a 1,1 0 0 0 0.0664,1.41601 1,1 0 0 0 1.41406,-0.0684 l 0.49806,-0.54686 c 1.27752,-1.40281 4.15977,-1.49736 5.52345,10e-6 l 0.49806,0.54685 a 1,1 0 0 0 1.41405,0.0684 1,1 0 0 0 0.0645,-1.41406 l -0.50003,-0.54881 c -1.12305,-1.23308 -2.70294,-1.82634 -4.27152,-1.81444 z M 608,266 c -0.51184,-10e-6 -1.02355,0.19541 -1.41406,0.58594 -0.78105,0.78105 -0.78105,2.04706 0,2.82811 0.78106,0.78106 2.04707,0.78106 2.82812,1e-5 0.78105,-0.78105 0.78105,-2.04707 0,-2.82812 C 609.02354,266.19541 608.51184,266 608,266 Z" />
    </g>
    <path
       id="path27989"
       style="fill:#ffffff;fill-opacity:1;stroke-width:0.264583"
       d="m 248.78949,97.002957 c -0.0782,0 -0.15253,0.0339 -0.20309,0.0935 l -0.85524,0.96324 h -0.26459 c -0.28963,0 -0.52916,0.22339 -0.52916,0.52916 v 0.52917 c 0,0.28858 0.24058,0.52917 0.52916,0.52917 h 0.26459 l 0.85524,0.963243 c 0.0557,0.0667 0.13009,0.0957 0.20309,0.0951 z m 1.70945,0.25423 c -0.051,-2e-5 -0.10237,0.0148 -0.1478,0.0455 -0.12118,0.0817 -0.15311,0.24627 -0.0713,0.3674 0.48294,0.71598 0.48294,1.65081 0,2.366803 -0.0818,0.12113 -0.0499,0.28567 0.0713,0.3674 0.12115,0.0818 0.2857,0.0499 0.36743,-0.0713 0.30133,-0.446743 0.45217,-0.963113 0.45217,-1.479493 0,-0.51639 -0.15084,-1.03275 -0.45217,-1.4795 -0.0511,-0.0757 -0.13465,-0.11676 -0.21963,-0.11679 z m -0.90535,0.53536 c -0.0592,-0.003 -0.11949,0.0148 -0.17055,0.0532 -0.0694,0.0523 -0.10473,0.13226 -0.10438,0.21291 v 0.0161 c 0.003,0.0497 0.0201,0.0988 0.0522,0.14157 0.28485,0.37804 0.28485,0.89633 0,1.27434 -0.0322,0.0428 -0.049,0.0919 -0.0522,0.14161 v 0.0161 c 0,0.0806 0.035,0.16065 0.10438,0.21291 0.11673,0.0879 0.28262,0.0645 0.37052,-0.0522 0.21275,-0.28231 0.31938,-0.61897 0.31938,-0.95549 0,-0.33653 -0.10663,-0.67318 -0.31938,-0.95549 -0.0495,-0.0657 -0.12383,-0.10205 -0.19997,-0.10544 z" />
    <g
       id="g28003"
       transform="matrix(0.26458333,0,0,0.26458333,94.668511,62.701099)">
      <g
         id="g27999"
         transform="rotate(90,373.4311,482.07332)"
         inkscape:label="battery charge power level">
        <title
           id="title27991">battery-level-90-charging</title>
        <path
           id="path27993"
           style="fill:#33d17a;fill-opacity:1"
           d="m 25.9992,247 h 7 v -3 h -1 c -0.52989,-1.8e-4 -1.0395,-0.21131 -1.41406,-0.58594 L 28.17108,241 H 25.9992 Z"
           class="success" />
        <rect
           y="236"
           x="20"
           height="16"
           width="16"
           id="rect27995"
           style="fill:none" />
        <path
           id="path27997"
           style="fill:#ffffff;fill-opacity:1"
           d="m 19.9992,245 c 0,1 1,1 1,1 h 1 v 1 c 0,0 -0.0137,0.7086 0.35547,1.44727 C 22.72385,249.18593 23.6656,250 24.9992,250 h 8 c 0,0 0.70891,0.0138 1.44727,-0.35547 C 35.18482,249.27521 35.9992,248.3332 35.9992,247 v -5 h -2 v 5 c 0,0.554 -0.446,1 -1,1 h -8 c -0.554,0 -1,-0.446 -1,-1 v -4 -2 c 0,-0.554 0.446,-1 1,-1 h 2 v -2 h -2 c -1.3336,0 -2.27535,0.81407 -2.64453,1.55273 C 21.98548,240.2914 21.9992,241 21.9992,241 v 1 h -1 c -1,0 -1,1 -1,1 z m 8,-6 h 0.0059 a 1.0001,1.0001 0 0 0 0.28711,0.70703 l 3,3 A 1.0001,1.0001 0 0 0 31.9992,243 h 1 v -1 -1 -1.13086 l 1.44531,0.96289 a 1.0001,1.0001 0 0 0 0.55469,0.16211 V 241 h 1 v -1 h -0.0039 a 1.0001,1.0001 0 0 0 -0.28906,-0.70703 l -3,-3 A 1.0001,1.0001 0 0 0 31.9992,236.00391 V 236 h -1 v 1 1 1.13086 l -1.44531,-0.96289 A 1.0001,1.0001 0 0 0 28.9992,238.00195 V 238 h -1 z" />
      </g>
      <rect
         style="fill:#3584e4;fill-opacity:0"
         id="rect28001"
         width="16"
         height="16"
         x="603.50439"
         y="128.64182" />
    </g>
    <path
       d="m 196.66659,96.737257 c -0.14573,0 -0.26458,0.11885 -0.26458,0.26458 0,0.14574 0.11885,0.26459 0.26458,0.26459 0.14573,0 0.26458,-0.11885 0.26458,-0.26459 0,-0.14573 -0.11885,-0.26458 -0.26458,-0.26458 z m -1.30948,0.54261 c -0.0682,0 -0.13538,0.0259 -0.18708,0.0775 -0.10335,0.10335 -0.10335,0.27078 0,0.37412 0.10337,0.10337 0.2708,0.10337 0.37414,0 0.10335,-0.10334 0.10335,-0.27077 0,-0.37412 -0.0517,-0.0517 -0.11885,-0.0775 -0.18706,-0.0775 z m 2.61896,0 c -0.0682,0 -0.13539,0.0259 -0.18706,0.0775 -0.10335,0.10335 -0.10335,0.27078 0,0.37412 0.10334,0.10337 0.27077,0.10337 0.37412,0 0.10337,-0.10334 0.10337,-0.27077 0,-0.37412 -0.0517,-0.0517 -0.11885,-0.0775 -0.18706,-0.0775 z m -1.30948,0.25114 c -0.7307,0 -1.32292,0.59222 -1.32292,1.32292 0,0.7307 0.59222,1.322913 1.32292,1.322913 0.7307,0 1.32292,-0.592213 1.32292,-1.322913 0,-0.7307 -0.59222,-1.32292 -1.32292,-1.32292 z m 0,0.52917 c 0.0486,0 0.0972,0.005 0.14573,0.0135 -0.24082,0.0558 -0.41031,0.26977 -0.41031,0.51573 0,0.29249 0.23667,0.52916 0.52916,0.52916 0.24599,0 0.45993,-0.17052 0.51573,-0.41029 0.008,0.0476 0.0135,0.0972 0.0135,0.14571 0,0.43823 -0.35555,0.79375 -0.79375,0.79375 -0.43823,0 -0.79375,-0.35552 -0.79375,-0.79375 0,-0.4382 0.35552,-0.79375 0.79375,-0.79375 z m -1.85208,0.52916 c -0.14574,0 -0.26459,0.11885 -0.26459,0.26459 0,0.14573 0.11885,0.26458 0.26459,0.26458 0.14573,0 0.26458,-0.11885 0.26458,-0.26458 0,-0.14574 -0.11885,-0.26459 -0.26458,-0.26459 z m 3.70416,0 c -0.14573,0 -0.26458,0.11885 -0.26458,0.26459 0,0.14573 0.11885,0.26458 0.26458,0.26458 0.14574,0 0.26459,-0.11885 0.26459,-0.26458 0,-0.14574 -0.11885,-0.26459 -0.26459,-0.26459 z m -3.16156,1.30948 c -0.0682,0 -0.13538,0.0259 -0.18708,0.0775 -0.10335,0.103353 -0.10335,0.270783 0,0.374153 0.10337,0.10335 0.2708,0.10335 0.37414,0 0.10335,-0.10337 0.10335,-0.2708 0,-0.374153 -0.0517,-0.0517 -0.11885,-0.0775 -0.18706,-0.0775 z m 2.61896,0 c -0.0682,0 -0.13539,0.0259 -0.18706,0.0775 -0.10335,0.103353 -0.10335,0.270783 0,0.374153 0.10334,0.10335 0.27077,0.10335 0.37412,0 0.10337,-0.10337 0.10337,-0.2708 0,-0.374153 -0.0517,-0.0517 -0.11885,-0.0775 -0.18706,-0.0775 z m -1.30948,0.542613 c -0.14573,0 -0.26458,0.11885 -0.26458,0.26458 0,0.14573 0.11885,0.26458 0.26458,0.26458 0.14573,0 0.26458,-0.11885 0.26458,-0.26458 0,-0.14573 -0.11885,-0.26458 -0.26458,-0.26458 z m 0,0"
       fill="#2e3436"
       id="path28005"
       style="fill:#ffffff;stroke-width:0.264583" />
    <g
       id="g28017"
       transform="matrix(0.26458333,0,0,0.26458333,573.68233,-501.09362)">
      <g
         color="#bebebe"
         fill="#474747"
         id="g28013"
         transform="translate(-1320.9414,2259.5196)"
         style="fill:#131313;fill-opacity:1">
        <path
           d="m 7,10 v 3 h 2 v -3 z m -5,3 v 2 h 12 v -2 z"
           style="line-height:normal;font-variant-ligatures:normal;font-variant-position:normal;font-variant-caps:normal;font-variant-numeric:normal;font-variant-alternates:normal;font-feature-settings:normal;text-indent:0;text-align:start;text-decoration-line:none;text-decoration-style:solid;text-decoration-color:#000000;text-transform:none;text-orientation:mixed;shape-padding:0;isolation:auto;mix-blend-mode:normal;fill:#ffffff;fill-opacity:1;marker:none"
           font-weight="400"
           font-family="sans-serif"
           overflow="visible"
           id="path28007" />
        <path
           d="m 4,5 h 8 v 6 H 4 Z"
           style="fill:#ffffff;fill-opacity:1;marker:none"
           overflow="visible"
           id="path28009" />
        <path
           d="M 8,1 C 8,1 7.291,0.986 6.553,1.355 5.814,1.725 5,2.667 5,4 V 7 H 7 V 4 C 7,3.333 7.186,3.275 7.447,3.145 7.71,3.014 8,3 8,3 8,3 8.291,3.014 8.553,3.145 8.814,3.275 9,3.333 9,4 v 3 h 2 V 4 C 11,2.667 10.186,1.725 9.447,1.355 8.71,0.986 8,1 8,1 Z"
           style="line-height:normal;font-variant-ligatures:normal;font-variant-position:normal;font-variant-caps:normal;font-variant-numeric:normal;font-variant-alternates:normal;font-feature-settings:normal;text-indent:0;text-align:start;text-decoration-line:none;text-decoration-style:solid;text-decoration-color:#000000;text-transform:none;text-orientation:mixed;shape-padding:0;isolation:auto;mix-blend-mode:normal;fill:#ffffff;fill-opacity:1;marker:none"
           font-weight="400"
           font-family="sans-serif"
           overflow="visible"
           id="path28011" />
      </g>
      <rect
         style="opacity:0.315591;fill:#ffffff;fill-opacity:0;stroke:#ffffff;stroke-width:0;stroke-linecap:round;stroke-dasharray:none;stroke-opacity:1"
         id="rect28015"
         width="15.999996"
         height="15.999999"
         x="-1320.9414"
         y="2259.5195"
         rx="0"
         ry="0" />
    </g>
    <g
       id="g28049"
       inkscape:label="system shutdown power off"
       transform="matrix(0.26458333,0,0,0.26458333,256.22428,-85.295756)">
      <title
         id="title28041">system-shutdown</title>
      <g
         id="g28047"
         transform="translate(-19.1)">
        <rect
           width="16"
           height="16"
           rx="0.14408804"
           ry="0.15129246"
           x="40"
           y="688"
           id="rect28043"
           style="fill:none" />
        <path
           id="path28045"
           d="m 48,688.00001 a 1,1 0 0 0 -1,1 v 5 a 1,1 0 0 0 1,1 1,1 0 0 0 1,-1 v -5 a 1,1 0 0 0 -1,-1 z m -3.134766,1.81641 a 0.99988507,1.0001185 0 0 0 -0.36914,0.125 c -2.73484,1.58272 -4.072807,4.81624 -3.25586,7.86914 0.816948,3.05288 3.590385,5.1848 6.75,5.18945 3.159617,0.004 5.939713,-2.11945 6.765625,-5.16992 0.825914,-3.05048 -0.502244,-6.28815 -3.232421,-7.87891 a 0.99988507,1.0001185 0 0 0 -1.367188,0.35938 0.99988507,1.0001185 0 0 0 0.359375,1.36914 c 1.957172,1.14036 2.902616,3.44017 2.310547,5.62695 -0.592069,2.18679 -2.567009,3.69669 -4.832031,3.69336 -2.265022,-0.003 -4.236624,-1.51851 -4.822266,-3.70703 -0.585642,-2.18851 0.363705,-4.4865 2.324219,-5.62109 a 0.99988507,1.0001185 0 0 0 0.365234,-1.36524 0.99988507,1.0001185 0 0 0 -0.607422,-0.46484 0.99988507,1.0001185 0 0 0 -0.388672,-0.0254 z"
           style="fill:#ffffff;fill-opacity:1" />
      </g>
    </g>
    <text
       xml:space="preserve"
       style="font-style:normal;font-variant:normal;font-weight:normal;font-stretch:normal;font-size:3.88056px;line-height:0%;font-family:Cantarell;-inkscape-font-specification:'Cantarell, Normal';font-variant-ligatures:normal;font-variant-caps:normal;font-variant-numeric:normal;font-feature-settings:normal;text-align:start;letter-spacing:0px;word-spacing:0px;writing-mode:lr-tb;text-anchor:start;display:inline;fill:#ffffff;fill-opacity:1;stroke:none;stroke-width:0.264583"
       x="146.64508"
       y="100.19855"
       id="text28053"><tspan
         style="font-style:normal;font-variant:normal;font-weight:bold;font-stretch:normal;font-size:3.88056px;line-height:1.25;font-family:Cantarell;-inkscape-font-specification:'Cantarell, Normal';font-variant-ligatures:normal;font-variant-caps:normal;font-variant-numeric:normal;font-feature-settings:normal;text-align:start;writing-mode:lr-tb;text-anchor:start;fill:#ffffff;fill-opacity:1;stroke-width:0.264583"
         sodipodi:role="line"
         id="tspan28051"
         x="146.64508"
         y="100.19855">en</tspan></text>
    <g
       fill="#222222"
       id="g28059"
       transform="matrix(0.26458333,0,0,0.26458333,136.26473,96.737597)"
       style="fill:#ffffff;fill-opacity:1">
      <path
         d="m 8.015625,0 c 1.105469,0 2,0.894531 2,2 0,1.105469 -0.894531,2 -2,2 -1.101563,0 -2,-0.894531 -2,-2 0,-1.105469 0.898437,-2 2,-2 z m 0,0"
         id="path28055"
         style="fill:#ffffff;fill-opacity:1" />
      <path
         d="m 2,7 h 3 v 9 h 2 v -4 c 0,-0.550781 0.449219,-1 1,-1 0.550781,0 1,0.449219 1,1 v 4 h 2 V 7 h 3 V 5 H 2 Z m 0,0"
         id="path28057"
         style="fill:#ffffff;fill-opacity:1" />
    </g>
    <g
       id="g28071"
       transform="matrix(0.26458333,0,0,0.26458333,379.22782,-259.00024)">
      <g
         id="g28069"
         inkscape:label="cellular network mobile connection signal good"
         transform="translate(-1261.9952,1068.5197)">
        <title
           id="title28061">network-cellular-signal-good</title>
        <path
           id="path28063"
           style="opacity:1;fill:#ffffff;fill-opacity:1"
           d="m 629,280 c -0.554,0 -1,0.446 -1,1 v 9 c 0,0.554 0.446,1 1,1 h 1 c 0.554,0 1,-0.446 1,-1 v -9 c 0,-0.554 -0.446,-1 -1,-1 z m -4,3 c -0.554,0 -1,0.446 -1,1 v 6 c 0,0.554 0.446,1 1,1 h 1 c 0.554,0 1,-0.446 1,-1 v -6 c 0,-0.554 -0.446,-1 -1,-1 z m -4,3 c -0.554,0 -1,0.446 -1,1 v 3 c 0,0.554 0.446,1 1,1 h 1 c 0.554,0 1,-0.446 1,-1 v -3 c 0,-0.554 -0.446,-1 -1,-1 z" />
        <rect
           y="276"
           x="620"
           height="16"
           width="16"
           id="rect28065"
           style="fill:none" />
        <path
           id="path28067"
           style="opacity:1;fill:#ffffff;fill-opacity:0.524411"
           d="m 633,277 c -0.554,0 -1,0.446 -1,1 v 12 c 0,0.554 0.446,1 1,1 h 1 c 0.554,0 1,-0.446 1,-1 v -12 c 0,-0.554 -0.446,-1 -1,-1 z" />
      </g>
    </g>
    <g
       id="g28079"
       inkscape:label="drive storage data disk usb"
       transform="matrix(0.26458333,0,0,0.26458333,267.57492,9.9539254)"
       style="enable-background:new">
      <title
         id="title28073">drive-harddisk-usb</title>
      <rect
         style="color:#bebebe;display:inline;overflow:visible;visibility:visible;opacity:0.514644;fill:none;fill-opacity:1;stroke:none;stroke-width:3;marker:none;enable-background:accumulate"
         id="rect28075"
         width="16"
         height="16"
         x="-248"
         y="328" />
      <path
         id="path28077"
         d="m -239.5,328 h -1 l -2,4 h 1.5 v 5 h -3 v -1.27148 c 0.61771,-0.35663 0.99874,-1.01525 1,-1.72852 0,-1.10457 -0.89543,-2 -2,-2 -1.10457,0 -2,0.89543 -2,2 5.6e-4,0.71397 0.38169,1.37349 1,1.73047 V 337 c 0,2 2,2 2,2 h 3 v 1.27148 c -0.61771,0.35663 -0.99874,1.01525 -1,1.72852 0,1.10457 0.89543,2 2,2 1.10457,0 2,-0.89543 2,-2 -5.6e-4,-0.71397 -0.38169,-1.37349 -1,-1.73047 V 339 h 3 c 0,0 2,0 2,-2 v -1 c 0,0 1.125,-0.1875 1,-1 v -2 c 0.125,-1.125 -1,-1 -1,-1 h -2 c -1.0625,0 -1,1 -1,1 v 2 c 0,1 1,1 1,1 v 1 h -3 v -5 h 1.5 z"
         style="fill:#ffffff;fill-opacity:1" />
    </g>
    <g
       id="g28085"
       transform="matrix(0.26458333,0,0,0.26458333,601.21449,-711.1731)">
      <rect
         style="opacity:1;fill:#ffffff;fill-opacity:0;stroke:#ffffff;stroke-width:0;stroke-linecap:round;stroke-dasharray:none;stroke-opacity:1"
         id="rect28081"
         width="15.999999"
         height="15.999999"
         x="-1367"
         y="3053.5195" />
      <path
         d="m -1359.415,3053.6098 c -0.3554,0.1641 -0.5859,0.5195 -0.5859,0.9102 v 5.2968 l -2.3438,-2.0468 c -0.414,-0.3633 -1.0429,-0.3242 -1.4062,0.09 -0.3633,0.4179 -0.3242,1.0469 0.094,1.4101 l 2.5665,2.25 -2.5665,2.25 c -0.4179,0.3633 -0.457,0.9922 -0.094,1.4063 0.3633,0.418 0.9922,0.457 1.4062,0.094 l 2.3438,-2.0469 v 5.2969 c 0,0.3906 0.2305,0.7461 0.5859,0.9101 0.3594,0.1602 0.7774,0.1016 1.0703,-0.1601 l 4,-3.5 c 0.2188,-0.1875 0.3438,-0.461 0.3438,-0.75 0,-0.2891 -0.125,-0.5625 -0.3438,-0.75 l -3.1406,-2.75 3.1406,-2.75 c 0.2188,-0.1875 0.3438,-0.461 0.3438,-0.75 0,-0.2891 -0.125,-0.5625 -0.3438,-0.75 l -4,-3.5 c -0.2929,-0.2617 -0.7109,-0.3242 -1.0703,-0.1602 z m 1.4141,3.1133 1.4844,1.2969 -1.4844,1.2968 z m 0,7 1.4844,1.2969 -1.4844,1.2969 z m 0,0"
         fill="#2e3436"
         id="path28083"
         style="fill:#ffffff;fill-opacity:1" />
    </g>
    <rect
       style="fill:#e01b24;fill-opacity:1;stroke:none;stroke-width:0;stroke-linecap:butt;stroke-linejoin:round;stroke-miterlimit:4;stroke-dasharray:none;stroke-dashoffset:0;stroke-opacity:1"
       id="rect28087"
       width="21.166666"
       height="7.4082332"
       x="86.070702"
       y="95.149765"
       ry="3.7041667"
       rx="3.7041664" />
    <g
       inkscape:label="media playback stop"
       id="g28095"
       transform="matrix(0.26458333,0,0,0.26458333,85.600339,-58.83774)">
      <title
         id="title28089">media-playback-stop</title>
      <rect
         style="fill:none;fill-opacity:1"
         id="rect28091"
         y="588"
         x="52"
         height="16"
         width="16" />
      <rect
         y="590"
         x="54"
         height="12"
         width="12"
         id="rect28093"
         style="fill:#ffffff;fill-opacity:1;fill-rule:nonzero;stroke-width:2.00001"
         ry="1.5"
         rx="1.5" />
    </g>
    <text
       xml:space="preserve"
       style="font-style:normal;font-variant:normal;font-weight:normal;font-stretch:normal;font-size:3.88056px;line-height:0%;font-family:Cantarell;-inkscape-font-specification:'Cantarell, Normal';font-variant-ligatures:normal;font-variant-caps:normal;font-variant-numeric:normal;font-feature-settings:normal;text-align:start;letter-spacing:0px;word-spacing:0px;writing-mode:lr-tb;text-anchor:start;display:inline;fill:#ffffff;fill-opacity:1;stroke:none;stroke-width:0.264583"
       x="89.495041"
       y="100.19855"
       id="text28111"><tspan
         style="font-style:normal;font-variant:normal;font-weight:bold;font-stretch:normal;font-size:3.88056px;line-height:1.25;font-family:Cantarell;-inkscape-font-specification:'Cantarell, Normal';font-variant-ligatures:normal;font-variant-caps:normal;font-variant-numeric:normal;font-feature-settings:normal;text-align:start;writing-mode:lr-tb;text-anchor:start;fill:#ffffff;fill-opacity:1;stroke-width:0.264583"
         sodipodi:role="line"
         id="tspan28109"
         x="89.495041"
         y="100.19855">0:32</tspan></text>
    <rect
       y="-161.74156"
       x="96.737267"
       height="4.2333331"
       width="4.2333331"
       id="rect28123"
       style="fill:none;fill-opacity:1;stroke-width:0.264583"
       transform="rotate(90)" />
    <path
       id="path28125"
       style="fill:#ff7800;fill-opacity:1;stroke-width:0.264583"
       d="m 158.30199,96.737287 c -0.43974,0 -0.79375,0.35401 -0.79375,0.79375 v 1.85208 c 0,0.43974 0.35401,0.793753 0.79375,0.793753 h 2.64583 c 0.43974,0 0.79375,-0.354013 0.79375,-0.793753 v -0.26458 a 0.26458282,0.2646639 0 0 0 -0.26458,-0.26459 0.26458282,0.2646639 0 0 0 -0.26459,0.26459 v 0.26458 c 0,0.14658 -0.118,0.26458 -0.26458,0.26458 h -2.64583 c -0.14658,0 -0.26459,-0.118 -0.26459,-0.26458 v -1.85208 c 0,-0.14658 0.11801,-0.26459 0.26459,-0.26459 h 1.05833 c 0.14613,0 0.26458,-0.11845 0.26458,-0.26458 0,-0.14613 -0.11845,-0.26458 -0.26458,-0.26458 z m 1.85208,0 a 0.26458333,0.26458333 0 0 0 -0.26458,0.26458 0.26458333,0.26458333 0 0 0 0.26458,0.26458 h 0.68368 l -1.39991,1.39991 a 0.26458333,0.26458333 0 0 0 0,0.37465 0.26458333,0.26458333 0 0 0 0.37415,0 l 1.40041,-1.40041 v 0.68419 a 0.26458333,0.26458333 0 0 0 0.26459,0.26458 0.26458333,0.26458333 0 0 0 0.26458,-0.26458 v -1.32292 a 0.26458333,0.26458333 0 0 0 -0.009,-0.0682 0.26458333,0.26458333 0 0 0 -0.0265,-0.0641 0.26458333,0.26458333 0 0 0 -0.0419,-0.0548 0.26458333,0.26458333 0 0 0 -0.0124,-0.009 0.26460979,0.26460979 0 0 0 -0.048,-0.0341 0.26458333,0.26458333 0 0 0 -0.0305,-0.013 0.26460979,0.26460979 0 0 0 -0.0413,-0.013 0.26458333,0.26458333 0 0 0 -0.032,-0.005 0.26460979,0.26460979 0 0 0 -0.0228,-0.003 z m -1.32292,3.704163 c -0.29223,0 -0.52916,0.23691 -0.52916,0.52917 h 0.52916 1.5875 0.52917 c 0,-0.29226 -0.23691,-0.52917 -0.52917,-0.52917 z" />
    <path
       id="path28127"
       d="m 158.30196,97.531037 v 1.85208 h 2.64583 v -1.05833 -0.0455 l -0.94877,0.94879 c -0.20444,0.20437 -0.54385,0.20437 -0.74826,0 -0.20506,-0.20455 -0.20506,-0.54427 0,-0.7488 l 0.94824,-0.94826 h -0.045 z"
       style="fill:#ff7800;fill-opacity:0.460122;stroke-width:0.264583" />
    <g
       id="g28502"
       transform="matrix(0.26458333,0,0,0.26458333,569.9574,-787.37304)">
      <rect
         style="fill:#e66100;fill-opacity:1;stroke:none;stroke-width:0;stroke-linecap:butt;stroke-linejoin:round;stroke-miterlimit:4;stroke-dasharray:none;stroke-dashoffset:0;stroke-opacity:1"
         id="rect28196"
         width="80"
         height="27.999689"
         x="-1740.9999"
         y="3335.5195"
         ry="14"
         rx="13.999999" />
      <g
         id="g28206"
         transform="translate(-87.892456,287.99969)">
        <g
           id="g28204">
          <rect
             y="1617.1075"
             x="3053.5195"
             height="16"
             width="16"
             id="rect28198"
             style="fill:none;fill-opacity:1"
             transform="rotate(90)" />
          <path
             id="path28200"
             style="fill:#ffffff;fill-opacity:1"
             d="m -1630.1075,3053.5196 c -1.662,0 -3,1.338 -3,3 v 7 c 0,1.662 1.338,3 3,3 h 10 c 1.662,0 3,-1.338 3,-3 v -1 a 0.99999809,1.0003045 0 0 0 -1,-1 0.99999809,1.0003045 0 0 0 -1,1 v 1 c 0,0.554 -0.446,1 -1,1 h -10 c -0.554,0 -1,-0.446 -1,-1 v -7 c 0,-0.554 0.446,-1 1,-1 h 4 c 0.5523,0 1,-0.4477 1,-1 0,-0.5523 -0.4477,-1 -1,-1 z m 7,0 a 1,1 0 0 0 -1,1 1,1 0 0 0 1,1 h 2.584 l -5.291,5.291 a 1,1 0 0 0 0,1.416 1,1 0 0 0 1.4141,0 l 5.2929,-5.2929 v 2.5859 a 1,1 0 0 0 1,1 1,1 0 0 0 1,-1 v -5 a 1,1 0 0 0 -0.035,-0.2578 1,1 0 0 0 -0.1,-0.2422 1,1 0 0 0 -0.1582,-0.207 1,1 0 0 0 -0.047,-0.035 1.0001,1.0001 0 0 0 -0.1816,-0.1289 1,1 0 0 0 -0.1153,-0.049 1.0001,1.0001 0 0 0 -0.1562,-0.049 1,1 0 0 0 -0.1211,-0.018 1.0001,1.0001 0 0 0 -0.086,-0.012 z m -5,14 c -1.1045,0 -2,0.8954 -2,2 h 2 6 2 c 0,-1.1046 -0.8954,-2 -2,-2 z" />
          <path
             id="path28202"
             d="m -1630.1076,3056.5196 v 7 h 10 v -4 -0.1719 l -3.5859,3.586 c -0.7727,0.7724 -2.0555,0.7724 -2.8281,0 -0.775,-0.7731 -0.775,-2.0571 0,-2.8301 l 3.5839,-3.584 h -0.1699 z"
             style="fill:#ffffff;fill-opacity:0.35" />
        </g>
      </g>
      <g
         inkscape:label="window controls close quit"
         id="g28214"
         transform="translate(-1690.7778,3341.5195)">
        <title
           id="title28208">window-close</title>
        <rect
           id="rect28210"
           y="0"
           x="0"
           height="16"
           width="16"
           style="fill:none" />
        <path
           id="path28212"
           d="m 4,4 h 1 c 0.01037,-1.2e-4 0.02079,-4.6e-4 0.03125,0 0.254951,0.0112 0.50987,0.12858 0.6875,0.3125 L 8,6.59375 10.3125,4.3125 C 10.578125,4.082 10.759172,4.007 11,4 h 1 v 1 c 0,0.28647 -0.03434,0.55065 -0.25,0.75 l -2.28125,2.28125 2.25,2.25 C 11.906938,10.46942 11.999992,10.7347 12,11 v 1 h -1 c -0.265301,-10e-6 -0.530586,-0.0931 -0.71875,-0.28125 L 8,9.4375 5.71875,11.71875 C 5.530586,11.90694 5.26529,12 5,12 H 4 v -1 c -3e-6,-0.26529 0.09306,-0.53058 0.28125,-0.71875 L 6.5625,8.03125 4.28125,5.75 C 4.070508,5.55537 3.97809,5.28075 4,5 Z"
           style="fill:#ffffff;fill-opacity:1" />
      </g>
    </g>
    <g
       id="g51"
       transform="translate(28.06648,1.0583333)">
      <g
         transform="matrix(0.26458333,0,0,0.26458333,109.3334,-33.173015)"
         inkscape:label="mark location map gps pin find locate position coordinates"
         id="g28035">
        <title
           id="title28031">mark-location</title>
        <rect
           id="rect28033"
           width="16"
           height="16"
           x="160"
           y="487"
           rx="0"
           ry="0"
           style="fill:none" />
      </g>
      <path
         id="path28037"
         d="m 153.7834,95.678993 c -0.87674,1.5e-4 -1.58737,0.71099 -1.58726,1.58773 10e-4,0.18796 0.0358,0.37421 0.1021,0.55008 l -0.004,-10e-4 c 0.16858,0.52511 1.00025,1.34384 1.48894,1.83253 l 5.3e-4,5.3e-4 v -0.001 c 0.39888,-0.39886 1.02646,-1.03848 1.33539,-1.5229 0.0696,-0.10908 0.12359,-0.21312 0.15457,-0.30963 l -0.005,0.001 c 0.0664,-0.17569 0.10117,-0.36178 0.10257,-0.5496 1.2e-4,-0.87693 -0.7108,-1.58785 -1.58773,-1.58773 z m 0,0.97707 c 0.3373,-1.1e-4 0.61077,0.27336 0.61066,0.61066 -1.5e-4,0.33712 -0.27354,0.6103 -0.61066,0.61019 -0.33694,-1.5e-4 -0.61004,-0.27325 -0.61019,-0.61019 -1.2e-4,-0.33712 0.27307,-0.61052 0.61019,-0.61066 z"
         style="fill:#ffffff;fill-opacity:1;stroke-width:0.264583" />
    </g>
    <text
       xml:space="preserve"
       transform="matrix(0.26458333,0,0,0.26458333,26.539465,34.560081)"
       id="text1"
       style="font-weight:800;font-size:42.6667px;line-height:16.6666px;font-family:Cantarell;-inkscape-font-specification:'Cantarell Ultra-Bold';font-variant-numeric:tabular-nums;white-space:pre;shape-inside:url(#rect1);display:inline;opacity:0.522318;fill:#008080;stroke:#2b7ee3;stroke-width:2;stroke-linecap:round;stroke-linejoin:round;stroke-dasharray:6, 6" />
    <g
       id="g18"
       transform="translate(28.045835,10.451763)">
      <path
         d="m 138.45821,86.682418 c -0.43511,0 -0.79375,0.358634 -0.79375,0.79375 v 0.377238 l -0.8785,-0.908472 h -0.17983 v 2.38125 h 0.17053 l 0.8878,-0.923974 v 0.396875 c 0,0.435115 0.35864,0.79375 0.79375,0.79375 h 1.5875 c 0.43512,0 0.79375,-0.358635 0.79375,-0.79375 v -1.322917 c 0,-0.435116 -0.35863,-0.79375 -0.79375,-0.79375 z m 0,0.529167 h 1.5875 c 0.1509,0 0.26459,0.113688 0.26459,0.264583 v 1.322917 c 0,0.150895 -0.11369,0.264583 -0.26459,0.264583 h -1.5875 c -0.15089,0 -0.26458,-0.113688 -0.26458,-0.264583 v -1.322917 c 0,-0.150895 0.11369,-0.264583 0.26458,-0.264583 z m 0,0"
         fill="#2e3434"
         id="path1"
         style="fill:#ff7800;fill-opacity:1;stroke-width:0.264583" />
      <rect
         style="opacity:1;fill:#ff7800;fill-opacity:0;stroke:none;stroke-width:0.529167;stroke-linecap:round;stroke-linejoin:round;stroke-dasharray:1.5875, 1.5875"
         id="rect18"
         width="4.2333331"
         height="4.2333331"
         x="136.60612"
         y="86.153831" />
    </g>
    <rect
       style="fill:#000000;stroke:none;stroke-width:1.05833;stroke-linecap:square;stroke-linejoin:round;stroke-dasharray:2.11666, 2.11666"
       id="rect19"
       width="178.30849"
       height="10.054167"
       x="47.970711"
       y="13.393516"
       inkscape:export-filename="/home/aday/Documents/quick-settings-test.png"
       inkscape:export-xdpi="96"
       inkscape:export-ydpi="96" />
    <g
       id="g20"
       inkscape:label="wifi network connection signal excellent strong"
       transform="matrix(0.26458333,0,0,0.26458333,15.141608,-51.429385)">
      <title
         id="title19">network-wireless-signal-excellent</title>
      <rect
         id="rect20"
         width="16"
         height="16"
         x="600"
         y="256"
         style="fill:none" />
      <path
         id="path20"
         style="fill:#ffffff"
         d="m 608,257.99219 c -2.61818,0 -5.23713,0.93501 -7.19336,2.80664 l -0.49803,0.48049 a 1,1 0 0 0 -0.0312,1.41211 1,1 0 0 0 1.41407,0.0293 l 0.50002,-0.47654 c 3.08749,-2.95399 8.52967,-2.954 11.61717,-1e-5 l 0.50002,0.47654 a 1,1 0 0 0 1.41407,-0.0293 1,1 0 0 0 -0.0312,-1.41211 l -0.49803,-0.48049 c -1.95636,-1.87164 -4.57528,-2.80665 -7.19346,-2.80664 z M 607.9668,262 c -1.56859,0.0119 -3.12544,0.62895 -4.20508,1.81445 l -0.50193,0.5469 a 1,1 0 0 0 0.0664,1.41601 1,1 0 0 0 1.41406,-0.0684 l 0.49806,-0.54686 c 1.27752,-1.40281 4.15977,-1.49736 5.52345,10e-6 l 0.49806,0.54685 a 1,1 0 0 0 1.41405,0.0684 1,1 0 0 0 0.0645,-1.41406 l -0.50003,-0.54881 c -1.12305,-1.23308 -2.70294,-1.82634 -4.27152,-1.81444 z M 608,266 c -0.51184,-10e-6 -1.02355,0.19541 -1.41406,0.58594 -0.78105,0.78105 -0.78105,2.04706 0,2.82811 0.78106,0.78106 2.04707,0.78106 2.82812,1e-5 0.78105,-0.78105 0.78105,-2.04707 0,-2.82812 C 609.02354,266.19541 608.51184,266 608,266 Z" />
    </g>
    <path
       id="path21"
       style="fill:#ffffff;fill-opacity:1;stroke-width:0.264583"
       d="m 205.36152,16.569618 c -0.0782,0 -0.15253,0.0339 -0.20309,0.0935 l -0.85524,0.96324 h -0.26459 c -0.28963,0 -0.52916,0.22339 -0.52916,0.52916 v 0.52917 c 0,0.28858 0.24058,0.52917 0.52916,0.52917 h 0.26459 l 0.85524,0.96324 c 0.0557,0.0667 0.13009,0.0957 0.20309,0.0951 z m 1.70945,0.25423 c -0.051,-2e-5 -0.10237,0.0148 -0.1478,0.0455 -0.12118,0.0817 -0.15311,0.24627 -0.0713,0.3674 0.48294,0.71598 0.48294,1.65081 0,2.3668 -0.0818,0.12113 -0.0499,0.28567 0.0713,0.3674 0.12115,0.0818 0.2857,0.0499 0.36743,-0.0713 0.30133,-0.44674 0.45217,-0.96311 0.45217,-1.47949 0,-0.51639 -0.15084,-1.03275 -0.45217,-1.4795 -0.0511,-0.0757 -0.13465,-0.11676 -0.21963,-0.11679 z m -0.90535,0.53536 c -0.0592,-0.003 -0.11949,0.0148 -0.17055,0.0532 -0.0694,0.0523 -0.10473,0.13226 -0.10438,0.21291 v 0.0161 c 0.003,0.0497 0.0201,0.0988 0.0522,0.14157 0.28485,0.37804 0.28485,0.89633 0,1.27434 -0.0322,0.0428 -0.049,0.0919 -0.0522,0.14161 v 0.0161 c 0,0.0806 0.035,0.16065 0.10438,0.21291 0.11673,0.0879 0.28262,0.0645 0.37052,-0.0522 0.21275,-0.28231 0.31938,-0.61897 0.31938,-0.95549 0,-0.33653 -0.10663,-0.67318 -0.31938,-0.95549 -0.0495,-0.0657 -0.12383,-0.10205 -0.19997,-0.10544 z" />
    <g
       id="g24"
       transform="matrix(0.26458333,0,0,0.26458333,51.256175,-17.732238)">
      <g
         id="g23"
         transform="rotate(90,373.4311,482.07332)"
         inkscape:label="battery charge power level">
        <title
           id="title21">battery-level-90-charging</title>
        <path
           id="path22"
           style="fill:#33d17a;fill-opacity:1"
           d="m 25.9992,247 h 7 v -3 h -1 c -0.52989,-1.8e-4 -1.0395,-0.21131 -1.41406,-0.58594 L 28.17108,241 H 25.9992 Z"
           class="success" />
        <rect
           y="236"
           x="20"
           height="16"
           width="16"
           id="rect22"
           style="fill:none" />
        <path
           id="path23"
           style="fill:#ffffff;fill-opacity:1"
           d="m 19.9992,245 c 0,1 1,1 1,1 h 1 v 1 c 0,0 -0.0137,0.7086 0.35547,1.44727 C 22.72385,249.18593 23.6656,250 24.9992,250 h 8 c 0,0 0.70891,0.0138 1.44727,-0.35547 C 35.18482,249.27521 35.9992,248.3332 35.9992,247 v -5 h -2 v 5 c 0,0.554 -0.446,1 -1,1 h -8 c -0.554,0 -1,-0.446 -1,-1 v -4 -2 c 0,-0.554 0.446,-1 1,-1 h 2 v -2 h -2 c -1.3336,0 -2.27535,0.81407 -2.64453,1.55273 C 21.98548,240.2914 21.9992,241 21.9992,241 v 1 h -1 c -1,0 -1,1 -1,1 z m 8,-6 h 0.0059 a 1.0001,1.0001 0 0 0 0.28711,0.70703 l 3,3 A 1.0001,1.0001 0 0 0 31.9992,243 h 1 v -1 -1 -1.13086 l 1.44531,0.96289 a 1.0001,1.0001 0 0 0 0.55469,0.16211 V 241 h 1 v -1 h -0.0039 a 1.0001,1.0001 0 0 0 -0.28906,-0.70703 l -3,-3 A 1.0001,1.0001 0 0 0 31.9992,236.00391 V 236 h -1 v 1 1 1.13086 l -1.44531,-0.96289 A 1.0001,1.0001 0 0 0 28.9992,238.00195 V 238 h -1 z" />
      </g>
      <rect
         style="fill:#3584e4;fill-opacity:0"
         id="rect23"
         width="16"
         height="16"
         x="603.50439"
         y="128.64182" />
    </g>
    <path
       d="m 153.78338,16.303918 c -0.14573,0 -0.26458,0.11885 -0.26458,0.26458 0,0.14574 0.11885,0.26459 0.26458,0.26459 0.14573,0 0.26458,-0.11885 0.26458,-0.26459 0,-0.14573 -0.11885,-0.26458 -0.26458,-0.26458 z m -1.30948,0.54261 c -0.0682,0 -0.13538,0.0259 -0.18708,0.0775 -0.10335,0.10335 -0.10335,0.27078 0,0.37412 0.10337,0.10337 0.2708,0.10337 0.37414,0 0.10335,-0.10334 0.10335,-0.27077 0,-0.37412 -0.0517,-0.0517 -0.11885,-0.0775 -0.18706,-0.0775 z m 2.61896,0 c -0.0682,0 -0.13539,0.0259 -0.18706,0.0775 -0.10335,0.10335 -0.10335,0.27078 0,0.37412 0.10334,0.10337 0.27077,0.10337 0.37412,0 0.10337,-0.10334 0.10337,-0.27077 0,-0.37412 -0.0517,-0.0517 -0.11885,-0.0775 -0.18706,-0.0775 z m -1.30948,0.25114 c -0.7307,0 -1.32292,0.59222 -1.32292,1.32292 0,0.7307 0.59222,1.32291 1.32292,1.32291 0.7307,0 1.32292,-0.59221 1.32292,-1.32291 0,-0.7307 -0.59222,-1.32292 -1.32292,-1.32292 z m 0,0.52917 c 0.0486,0 0.0972,0.005 0.14573,0.0135 -0.24082,0.0558 -0.41031,0.26977 -0.41031,0.51573 0,0.29249 0.23667,0.52916 0.52916,0.52916 0.24599,0 0.45993,-0.17052 0.51573,-0.41029 0.008,0.0476 0.0135,0.0972 0.0135,0.14571 0,0.43823 -0.35555,0.79375 -0.79375,0.79375 -0.43823,0 -0.79375,-0.35552 -0.79375,-0.79375 0,-0.4382 0.35552,-0.79375 0.79375,-0.79375 z m -1.85208,0.52916 c -0.14574,0 -0.26459,0.11885 -0.26459,0.26459 0,0.14573 0.11885,0.26458 0.26459,0.26458 0.14573,0 0.26458,-0.11885 0.26458,-0.26458 0,-0.14574 -0.11885,-0.26459 -0.26458,-0.26459 z m 3.70416,0 c -0.14573,0 -0.26458,0.11885 -0.26458,0.26459 0,0.14573 0.11885,0.26458 0.26458,0.26458 0.14574,0 0.26459,-0.11885 0.26459,-0.26458 0,-0.14574 -0.11885,-0.26459 -0.26459,-0.26459 z m -3.16156,1.30948 c -0.0682,0 -0.13538,0.0259 -0.18708,0.0775 -0.10335,0.10335 -0.10335,0.27078 0,0.37415 0.10337,0.10335 0.2708,0.10335 0.37414,0 0.10335,-0.10337 0.10335,-0.2708 0,-0.37415 -0.0517,-0.0517 -0.11885,-0.0775 -0.18706,-0.0775 z m 2.61896,0 c -0.0682,0 -0.13539,0.0259 -0.18706,0.0775 -0.10335,0.10335 -0.10335,0.27078 0,0.37415 0.10334,0.10335 0.27077,0.10335 0.37412,0 0.10337,-0.10337 0.10337,-0.2708 0,-0.37415 -0.0517,-0.0517 -0.11885,-0.0775 -0.18706,-0.0775 z m -1.30948,0.54261 c -0.14573,0 -0.26458,0.11885 -0.26458,0.26458 0,0.14573 0.11885,0.26458 0.26458,0.26458 0.14573,0 0.26458,-0.11885 0.26458,-0.26458 0,-0.14573 -0.11885,-0.26458 -0.26458,-0.26458 z m 0,0"
       fill="#2e3436"
       id="path24"
       style="fill:#ffffff;stroke-width:0.264583" />
    <g
       id="g28"
       transform="matrix(0.26458333,0,0,0.26458333,530.79878,-581.52701)">
      <g
         color="#bebebe"
         fill="#474747"
         id="g27"
         transform="translate(-1320.9414,2259.5196)"
         style="fill:#131313;fill-opacity:1">
        <path
           d="m 7,10 v 3 h 2 v -3 z m -5,3 v 2 h 12 v -2 z"
           style="line-height:normal;font-variant-ligatures:normal;font-variant-position:normal;font-variant-caps:normal;font-variant-numeric:normal;font-variant-alternates:normal;font-feature-settings:normal;text-indent:0;text-align:start;text-decoration-line:none;text-decoration-style:solid;text-decoration-color:#000000;text-transform:none;text-orientation:mixed;shape-padding:0;isolation:auto;mix-blend-mode:normal;fill:#ffffff;fill-opacity:1;marker:none"
           font-weight="400"
           font-family="sans-serif"
           overflow="visible"
           id="path25" />
        <path
           d="m 4,5 h 8 v 6 H 4 Z"
           style="fill:#ffffff;fill-opacity:1;marker:none"
           overflow="visible"
           id="path26" />
        <path
           d="M 8,1 C 8,1 7.291,0.986 6.553,1.355 5.814,1.725 5,2.667 5,4 V 7 H 7 V 4 C 7,3.333 7.186,3.275 7.447,3.145 7.71,3.014 8,3 8,3 8,3 8.291,3.014 8.553,3.145 8.814,3.275 9,3.333 9,4 v 3 h 2 V 4 C 11,2.667 10.186,1.725 9.447,1.355 8.71,0.986 8,1 8,1 Z"
           style="line-height:normal;font-variant-ligatures:normal;font-variant-position:normal;font-variant-caps:normal;font-variant-numeric:normal;font-variant-alternates:normal;font-feature-settings:normal;text-indent:0;text-align:start;text-decoration-line:none;text-decoration-style:solid;text-decoration-color:#000000;text-transform:none;text-orientation:mixed;shape-padding:0;isolation:auto;mix-blend-mode:normal;fill:#ffffff;fill-opacity:1;marker:none"
           font-weight="400"
           font-family="sans-serif"
           overflow="visible"
           id="path27" />
      </g>
      <rect
         style="opacity:0.315591;fill:#ffffff;fill-opacity:0;stroke:#ffffff;stroke-width:0;stroke-linecap:round;stroke-dasharray:none;stroke-opacity:1"
         id="rect27"
         width="15.999996"
         height="15.999999"
         x="-1320.9414"
         y="2259.5195"
         rx="0"
         ry="0" />
    </g>
    <g
       inkscape:label="audio input"
       id="g29"
       transform="matrix(0.26458333,0,0,0.26458333,166.48338,24.770925)">
      <title
         id="title28">microphone-sensitivity-medium</title>
      <path
         id="path28"
         style="fill:#ffffff"
         d="m 625,201 v 3 c 0,1.662 1.338,3 3,3 1.662,0 3,-1.338 3,-3 v -3 z m -3,1 v 2.00977 c 0,2.96599 2.16503,5.42996 5,5.90625 V 212 h 2 v -2.08398 c 2.83497,-0.47629 5,-2.94026 5,-5.90625 V 202 h -1.5 v 2.00977 c 0,2.50009 -1.99331,4.49023 -4.5,4.49023 -2.50669,0 -4.5,-1.99014 -4.5,-4.49023 V 202 Z"
         transform="translate(-508,-228)" />
      <rect
         id="rect28"
         width="16"
         height="16"
         x="-128"
         y="-32"
         transform="scale(-1,1)"
         style="fill:none" />
      <path
         id="path29"
         style="opacity:1;fill:#ffffff;fill-opacity:0.35"
         d="m 628,196 c -1.662,0 -3,1.338 -3,3 v 2 h 2 v -2 c 0,-0.554 0.446,-1 1,-1 0.554,0 1,0.446 1,1 v 2 h 2 v -2 c 0,-1.662 -1.338,-3 -3,-3 z"
         transform="translate(-508,-228)" />
    </g>
    <g
       id="g31"
       inkscape:label="system shutdown power off"
       transform="matrix(0.26458333,0,0,0.26458333,212.81192,-165.72913)">
      <title
         id="title29">system-shutdown</title>
      <g
         id="g30"
         transform="translate(-19.1)">
        <rect
           width="16"
           height="16"
           rx="0.14408804"
           ry="0.15129246"
           x="40"
           y="688"
           id="rect29"
           style="fill:none" />
        <path
           id="path30"
           d="m 48,688.00001 a 1,1 0 0 0 -1,1 v 5 a 1,1 0 0 0 1,1 1,1 0 0 0 1,-1 v -5 a 1,1 0 0 0 -1,-1 z m -3.134766,1.81641 a 0.99988507,1.0001185 0 0 0 -0.36914,0.125 c -2.73484,1.58272 -4.072807,4.81624 -3.25586,7.86914 0.816948,3.05288 3.590385,5.1848 6.75,5.18945 3.159617,0.004 5.939713,-2.11945 6.765625,-5.16992 0.825914,-3.05048 -0.502244,-6.28815 -3.232421,-7.87891 a 0.99988507,1.0001185 0 0 0 -1.367188,0.35938 0.99988507,1.0001185 0 0 0 0.359375,1.36914 c 1.957172,1.14036 2.902616,3.44017 2.310547,5.62695 -0.592069,2.18679 -2.567009,3.69669 -4.832031,3.69336 -2.265022,-0.003 -4.236624,-1.51851 -4.822266,-3.70703 -0.585642,-2.18851 0.363705,-4.4865 2.324219,-5.62109 a 0.99988507,1.0001185 0 0 0 0.365234,-1.36524 0.99988507,1.0001185 0 0 0 -0.607422,-0.46484 0.99988507,1.0001185 0 0 0 -0.388672,-0.0254 z"
           style="fill:#ffffff;fill-opacity:1" />
      </g>
    </g>
    <text
       xml:space="preserve"
       style="font-style:normal;font-variant:normal;font-weight:normal;font-stretch:normal;font-size:3.88056px;line-height:0%;font-family:Cantarell;-inkscape-font-specification:'Cantarell, Normal';font-variant-ligatures:normal;font-variant-caps:normal;font-variant-numeric:normal;font-feature-settings:normal;text-align:start;letter-spacing:0px;word-spacing:0px;writing-mode:lr-tb;text-anchor:start;display:inline;fill:#ffffff;fill-opacity:1;stroke:none;stroke-width:0.264583"
       x="118.59921"
       y="19.76523"
       id="text31"><tspan
         style="font-style:normal;font-variant:normal;font-weight:bold;font-stretch:normal;font-size:3.88056px;line-height:1.25;font-family:Cantarell;-inkscape-font-specification:'Cantarell, Normal';font-variant-ligatures:normal;font-variant-caps:normal;font-variant-numeric:normal;font-feature-settings:normal;text-align:start;writing-mode:lr-tb;text-anchor:start;fill:#ffffff;fill-opacity:1;stroke-width:0.264583"
         sodipodi:role="line"
         id="tspan31"
         x="118.59921"
         y="19.76523">en</tspan></text>
    <g
       fill="#222222"
       id="g32"
       transform="matrix(0.26458333,0,0,0.26458333,108.21888,16.304258)"
       style="fill:#ffffff;fill-opacity:1">
      <path
         d="m 8.015625,0 c 1.105469,0 2,0.894531 2,2 0,1.105469 -0.894531,2 -2,2 -1.101563,0 -2,-0.894531 -2,-2 0,-1.105469 0.898437,-2 2,-2 z m 0,0"
         id="path31"
         style="fill:#ffffff;fill-opacity:1" />
      <path
         d="m 2,7 h 3 v 9 h 2 v -4 c 0,-0.550781 0.449219,-1 1,-1 0.550781,0 1,0.449219 1,1 v 4 h 2 V 7 h 3 V 5 H 2 Z m 0,0"
         id="path32"
         style="fill:#ffffff;fill-opacity:1" />
    </g>
    <g
       id="g35"
       transform="matrix(0.26458333,0,0,0.26458333,336.34461,-339.43363)">
      <g
         id="g34"
         inkscape:label="cellular network mobile connection signal good"
         transform="translate(-1261.9952,1068.5197)">
        <title
           id="title32">network-cellular-signal-good</title>
        <path
           id="path33"
           style="opacity:1;fill:#ffffff;fill-opacity:1"
           d="m 629,280 c -0.554,0 -1,0.446 -1,1 v 9 c 0,0.554 0.446,1 1,1 h 1 c 0.554,0 1,-0.446 1,-1 v -9 c 0,-0.554 -0.446,-1 -1,-1 z m -4,3 c -0.554,0 -1,0.446 -1,1 v 6 c 0,0.554 0.446,1 1,1 h 1 c 0.554,0 1,-0.446 1,-1 v -6 c 0,-0.554 -0.446,-1 -1,-1 z m -4,3 c -0.554,0 -1,0.446 -1,1 v 3 c 0,0.554 0.446,1 1,1 h 1 c 0.554,0 1,-0.446 1,-1 v -3 c 0,-0.554 -0.446,-1 -1,-1 z" />
        <rect
           y="276"
           x="620"
           height="16"
           width="16"
           id="rect33"
           style="fill:none" />
        <path
           id="path34"
           style="opacity:1;fill:#ffffff;fill-opacity:0.524411"
           d="m 633,277 c -0.554,0 -1,0.446 -1,1 v 12 c 0,0.554 0.446,1 1,1 h 1 c 0.554,0 1,-0.446 1,-1 v -12 c 0,-0.554 -0.446,-1 -1,-1 z" />
      </g>
    </g>
    <g
       id="g36"
       inkscape:label="drive storage data disk usb"
       transform="matrix(0.26458333,0,0,0.26458333,224.69171,-70.479411)"
       style="enable-background:new">
      <title
         id="title35">drive-harddisk-usb</title>
      <rect
         style="color:#bebebe;display:inline;overflow:visible;visibility:visible;opacity:0.514644;fill:none;fill-opacity:1;stroke:none;stroke-width:3;marker:none;enable-background:accumulate"
         id="rect35"
         width="16"
         height="16"
         x="-248"
         y="328" />
      <path
         id="path35"
         d="m -239.5,328 h -1 l -2,4 h 1.5 v 5 h -3 v -1.27148 c 0.61771,-0.35663 0.99874,-1.01525 1,-1.72852 0,-1.10457 -0.89543,-2 -2,-2 -1.10457,0 -2,0.89543 -2,2 5.6e-4,0.71397 0.38169,1.37349 1,1.73047 V 337 c 0,2 2,2 2,2 h 3 v 1.27148 c -0.61771,0.35663 -0.99874,1.01525 -1,1.72852 0,1.10457 0.89543,2 2,2 1.10457,0 2,-0.89543 2,-2 -5.6e-4,-0.71397 -0.38169,-1.37349 -1,-1.73047 V 339 h 3 c 0,0 2,0 2,-2 v -1 c 0,0 1.125,-0.1875 1,-1 v -2 c 0.125,-1.125 -1,-1 -1,-1 h -2 c -1.0625,0 -1,1 -1,1 v 2 c 0,1 1,1 1,1 v 1 h -3 v -5 h 1.5 z"
         style="fill:#ffffff;fill-opacity:1" />
    </g>
    <g
       id="g37"
       transform="matrix(0.26458333,0,0,0.26458333,550.37829,-791.60649)">
      <rect
         style="opacity:1;fill:#ffffff;fill-opacity:0;stroke:#ffffff;stroke-width:0;stroke-linecap:round;stroke-dasharray:none;stroke-opacity:1"
         id="rect36"
         width="15.999999"
         height="15.999999"
         x="-1367"
         y="3053.5195" />
      <path
         d="m -1359.415,3053.6098 c -0.3554,0.1641 -0.5859,0.5195 -0.5859,0.9102 v 5.2968 l -2.3438,-2.0468 c -0.414,-0.3633 -1.0429,-0.3242 -1.4062,0.09 -0.3633,0.4179 -0.3242,1.0469 0.094,1.4101 l 2.5665,2.25 -2.5665,2.25 c -0.4179,0.3633 -0.457,0.9922 -0.094,1.4063 0.3633,0.418 0.9922,0.457 1.4062,0.094 l 2.3438,-2.0469 v 5.2969 c 0,0.3906 0.2305,0.7461 0.5859,0.9101 0.3594,0.1602 0.7774,0.1016 1.0703,-0.1601 l 4,-3.5 c 0.2188,-0.1875 0.3438,-0.461 0.3438,-0.75 0,-0.2891 -0.125,-0.5625 -0.3438,-0.75 l -3.1406,-2.75 3.1406,-2.75 c 0.2188,-0.1875 0.3438,-0.461 0.3438,-0.75 0,-0.2891 -0.125,-0.5625 -0.3438,-0.75 l -4,-3.5 c -0.2929,-0.2617 -0.7109,-0.3242 -1.0703,-0.1602 z m 1.4141,3.1133 1.4844,1.2969 -1.4844,1.2968 z m 0,7 1.4844,1.2969 -1.4844,1.2969 z m 0,0"
         fill="#2e3436"
         id="path36"
         style="fill:#ffffff;fill-opacity:1" />
    </g>
    <rect
       style="fill:#e01b24;fill-opacity:1;stroke:none;stroke-width:0;stroke-linecap:butt;stroke-linejoin:round;stroke-miterlimit:4;stroke-dasharray:none;stroke-dashoffset:0;stroke-opacity:1"
       id="rect37"
       width="21.166666"
       height="7.4082332"
       x="58.024879"
       y="14.716437"
       ry="3.7041667"
       rx="3.7041664" />
    <g
       inkscape:label="media playback stop"
       id="g39"
       transform="matrix(0.26458333,0,0,0.26458333,57.554502,-139.2711)">
      <title
         id="title37">media-playback-stop</title>
      <rect
         style="fill:none;fill-opacity:1"
         id="rect38"
         y="588"
         x="52"
         height="16"
         width="16" />
      <rect
         y="590"
         x="54"
         height="12"
         width="12"
         id="rect39"
         style="fill:#ffffff;fill-opacity:1;fill-rule:nonzero;stroke-width:2.00001"
         ry="1.5"
         rx="1.5" />
    </g>
    <text
       xml:space="preserve"
       style="font-style:normal;font-variant:normal;font-weight:normal;font-stretch:normal;font-size:3.88056px;line-height:0%;font-family:Cantarell;-inkscape-font-specification:'Cantarell, Normal';font-variant-ligatures:normal;font-variant-caps:normal;font-variant-numeric:normal;font-feature-settings:normal;text-align:start;letter-spacing:0px;word-spacing:0px;writing-mode:lr-tb;text-anchor:start;display:inline;fill:#ffffff;fill-opacity:1;stroke:none;stroke-width:0.264583"
       x="61.449215"
       y="19.76523"
       id="text39"><tspan
         style="font-style:normal;font-variant:normal;font-weight:bold;font-stretch:normal;font-size:3.88056px;line-height:1.25;font-family:Cantarell;-inkscape-font-specification:'Cantarell, Normal';font-variant-ligatures:normal;font-variant-caps:normal;font-variant-numeric:normal;font-feature-settings:normal;text-align:start;writing-mode:lr-tb;text-anchor:start;fill:#ffffff;fill-opacity:1;stroke-width:0.264583"
         sodipodi:role="line"
         id="tspan39"
         x="61.449215"
         y="19.76523">0:32</tspan></text>
    <rect
       y="-133.69571"
       x="16.303938"
       height="4.2333331"
       width="4.2333331"
       id="rect40"
       style="fill:none;fill-opacity:1;stroke-width:0.264583"
       transform="rotate(90)" />
    <path
       id="path40"
       style="fill:#ff7800;fill-opacity:1;stroke-width:0.264583"
       d="m 130.25613,16.303948 c -0.43974,0 -0.79375,0.35401 -0.79375,0.79375 v 1.85208 c 0,0.43974 0.35401,0.79375 0.79375,0.79375 h 2.64583 c 0.43974,0 0.79375,-0.35401 0.79375,-0.79375 v -0.26458 a 0.26458282,0.2646639 0 0 0 -0.26458,-0.26459 0.26458282,0.2646639 0 0 0 -0.26459,0.26459 v 0.26458 c 0,0.14658 -0.118,0.26458 -0.26458,0.26458 h -2.64583 c -0.14658,0 -0.26459,-0.118 -0.26459,-0.26458 v -1.85208 c 0,-0.14658 0.11801,-0.26459 0.26459,-0.26459 h 1.05833 c 0.14613,0 0.26458,-0.11845 0.26458,-0.26458 0,-0.14613 -0.11845,-0.26458 -0.26458,-0.26458 z m 1.85208,0 a 0.26458333,0.26458333 0 0 0 -0.26458,0.26458 0.26458333,0.26458333 0 0 0 0.26458,0.26458 h 0.68368 l -1.39991,1.39991 a 0.26458333,0.26458333 0 0 0 0,0.37465 0.26458333,0.26458333 0 0 0 0.37415,0 l 1.40041,-1.40041 v 0.68419 a 0.26458333,0.26458333 0 0 0 0.26459,0.26458 0.26458333,0.26458333 0 0 0 0.26458,-0.26458 v -1.32292 a 0.26458333,0.26458333 0 0 0 -0.009,-0.0682 0.26458333,0.26458333 0 0 0 -0.0265,-0.0641 0.26458333,0.26458333 0 0 0 -0.0419,-0.0548 0.26458333,0.26458333 0 0 0 -0.0124,-0.009 0.26460979,0.26460979 0 0 0 -0.048,-0.0341 0.26458333,0.26458333 0 0 0 -0.0305,-0.013 0.26460979,0.26460979 0 0 0 -0.0413,-0.013 0.26458333,0.26458333 0 0 0 -0.032,-0.005 0.26460979,0.26460979 0 0 0 -0.0228,-0.003 z m -1.32292,3.70416 c -0.29223,0 -0.52916,0.23691 -0.52916,0.52917 h 0.52916 1.5875 0.52917 c 0,-0.29226 -0.23691,-0.52917 -0.52917,-0.52917 z" />
    <path
       id="path41"
       d="m 130.2561,17.097698 v 1.85208 h 2.64583 v -1.05833 -0.0455 l -0.94877,0.94879 c -0.20444,0.20437 -0.54385,0.20437 -0.74826,0 -0.20506,-0.20455 -0.20506,-0.54427 0,-0.7488 l 0.94824,-0.94826 h -0.045 z"
       style="fill:#ff7800;fill-opacity:0.460122;stroke-width:0.264583" />
    <g
       id="g46"
       transform="matrix(0.26458333,0,0,0.26458333,541.91154,-867.80643)">
      <rect
         style="fill:#e66100;fill-opacity:1;stroke:none;stroke-width:0;stroke-linecap:butt;stroke-linejoin:round;stroke-miterlimit:4;stroke-dasharray:none;stroke-dashoffset:0;stroke-opacity:1"
         id="rect41"
         width="80"
         height="27.999689"
         x="-1740.9999"
         y="3335.5195"
         ry="14"
         rx="13.999999" />
      <g
         id="g44"
         transform="translate(-87.892456,287.99969)">
        <g
           id="g43">
          <rect
             y="1617.1075"
             x="3053.5195"
             height="16"
             width="16"
             id="rect42"
             style="fill:none;fill-opacity:1"
             transform="rotate(90)" />
          <path
             id="path42"
             style="fill:#ffffff;fill-opacity:1"
             d="m -1630.1075,3053.5196 c -1.662,0 -3,1.338 -3,3 v 7 c 0,1.662 1.338,3 3,3 h 10 c 1.662,0 3,-1.338 3,-3 v -1 a 0.99999809,1.0003045 0 0 0 -1,-1 0.99999809,1.0003045 0 0 0 -1,1 v 1 c 0,0.554 -0.446,1 -1,1 h -10 c -0.554,0 -1,-0.446 -1,-1 v -7 c 0,-0.554 0.446,-1 1,-1 h 4 c 0.5523,0 1,-0.4477 1,-1 0,-0.5523 -0.4477,-1 -1,-1 z m 7,0 a 1,1 0 0 0 -1,1 1,1 0 0 0 1,1 h 2.584 l -5.291,5.291 a 1,1 0 0 0 0,1.416 1,1 0 0 0 1.4141,0 l 5.2929,-5.2929 v 2.5859 a 1,1 0 0 0 1,1 1,1 0 0 0 1,-1 v -5 a 1,1 0 0 0 -0.035,-0.2578 1,1 0 0 0 -0.1,-0.2422 1,1 0 0 0 -0.1582,-0.207 1,1 0 0 0 -0.047,-0.035 1.0001,1.0001 0 0 0 -0.1816,-0.1289 1,1 0 0 0 -0.1153,-0.049 1.0001,1.0001 0 0 0 -0.1562,-0.049 1,1 0 0 0 -0.1211,-0.018 1.0001,1.0001 0 0 0 -0.086,-0.012 z m -5,14 c -1.1045,0 -2,0.8954 -2,2 h 2 6 2 c 0,-1.1046 -0.8954,-2 -2,-2 z" />
          <path
             id="path43"
             d="m -1630.1076,3056.5196 v 7 h 10 v -4 -0.1719 l -3.5859,3.586 c -0.7727,0.7724 -2.0555,0.7724 -2.8281,0 -0.775,-0.7731 -0.775,-2.0571 0,-2.8301 l 3.5839,-3.584 h -0.1699 z"
             style="fill:#ffffff;fill-opacity:0.35" />
        </g>
      </g>
      <g
         inkscape:label="window controls close quit"
         id="g45"
         transform="translate(-1690.7778,3341.5195)">
        <title
           id="title44">window-close</title>
        <rect
           id="rect44"
           y="0"
           x="0"
           height="16"
           width="16"
           style="fill:none" />
        <path
           id="path44"
           d="m 4,4 h 1 c 0.01037,-1.2e-4 0.02079,-4.6e-4 0.03125,0 0.254951,0.0112 0.50987,0.12858 0.6875,0.3125 L 8,6.59375 10.3125,4.3125 C 10.578125,4.082 10.759172,4.007 11,4 h 1 v 1 c 0,0.28647 -0.03434,0.55065 -0.25,0.75 l -2.28125,2.28125 2.25,2.25 C 11.906938,10.46942 11.999992,10.7347 12,11 v 1 h -1 c -0.265301,-10e-6 -0.530586,-0.0931 -0.71875,-0.28125 L 8,9.4375 5.71875,11.71875 C 5.530586,11.90694 5.26529,12 5,12 H 4 v -1 c -3e-6,-0.26529 0.09306,-0.53058 0.28125,-0.71875 L 6.5625,8.03125 4.28125,5.75 C 4.070508,5.55537 3.97809,5.28075 4,5 Z"
           style="fill:#ffffff;fill-opacity:1" />
      </g>
    </g>
    <g
       transform="matrix(0.26458333,0,0,0.26458333,101.92505,-112.54803)"
       inkscape:label="mark location map gps pin find locate position coordinates"
       id="g47">
      <title
         id="title46">mark-location</title>
      <rect
         id="rect46"
         width="16"
         height="16"
         x="160"
         y="487"
         rx="0"
         ry="0"
         style="fill:none" />
    </g>
    <path
       id="path47"
       d="m 146.37505,16.303988 c -0.87674,1.5e-4 -1.58737,0.71099 -1.58726,1.58773 0.001,0.18796 0.0358,0.37421 0.1021,0.55008 l -0.004,-10e-4 c 0.16858,0.52511 1.00025,1.34384 1.48894,1.83253 l 5.3e-4,5.3e-4 v -0.001 c 0.39888,-0.39886 1.02646,-1.03848 1.33539,-1.5229 0.0696,-0.10908 0.12359,-0.21312 0.15457,-0.30963 l -0.005,10e-4 c 0.0664,-0.17569 0.10117,-0.36178 0.10257,-0.5496 1.2e-4,-0.87693 -0.7108,-1.58785 -1.58773,-1.58773 z m 0,0.97707 c 0.3373,-1.1e-4 0.61077,0.27336 0.61066,0.61066 -1.5e-4,0.33712 -0.27354,0.6103 -0.61066,0.61019 -0.33694,-1.5e-4 -0.61004,-0.27325 -0.61019,-0.61019 -1.2e-4,-0.33712 0.27307,-0.61052 0.61019,-0.61066 z"
       style="fill:#ffffff;fill-opacity:1;stroke-width:0.264583" />
    <g
       id="g48"
       transform="translate(0,-69.981573)">
      <path
         d="m 138.45821,86.682418 c -0.43511,0 -0.79375,0.358634 -0.79375,0.79375 v 0.377238 l -0.8785,-0.908472 h -0.17983 v 2.38125 h 0.17053 l 0.8878,-0.923974 v 0.396875 c 0,0.435115 0.35864,0.79375 0.79375,0.79375 h 1.5875 c 0.43512,0 0.79375,-0.358635 0.79375,-0.79375 v -1.322917 c 0,-0.435116 -0.35863,-0.79375 -0.79375,-0.79375 z m 0,0.529167 h 1.5875 c 0.1509,0 0.26459,0.113688 0.26459,0.264583 v 1.322917 c 0,0.150895 -0.11369,0.264583 -0.26459,0.264583 h -1.5875 c -0.15089,0 -0.26458,-0.113688 -0.26458,-0.264583 v -1.322917 c 0,-0.150895 0.11369,-0.264583 0.26458,-0.264583 z m 0,0"
         fill="#2e3434"
         id="path48"
         style="fill:#ff7800;fill-opacity:1;stroke-width:0.264583" />
      <rect
         style="opacity:1;fill:#ff7800;fill-opacity:0;stroke:none;stroke-width:0.529167;stroke-linecap:round;stroke-linejoin:round;stroke-dasharray:1.5875, 1.5875"
         id="rect48"
         width="4.2333331"
         height="4.2333331"
         x="136.60612"
         y="86.153831" />
    </g>
    <g
       inkscape:label="audio input"
       id="g50"
       transform="matrix(0.26458333,0,0,0.26458333,142.42699,104.93926)">
      <title
         id="title48">microphone-sensitivity-medium</title>
      <path
         id="path49"
         style="fill:#ff7800;fill-opacity:1"
         d="m 625,201 v 3 c 0,1.662 1.338,3 3,3 1.662,0 3,-1.338 3,-3 v -3 z m -3,1 v 2.00977 c 0,2.96599 2.16503,5.42996 5,5.90625 V 212 h 2 v -2.08398 c 2.83497,-0.47629 5,-2.94026 5,-5.90625 V 202 h -1.5 v 2.00977 c 0,2.50009 -1.99331,4.49023 -4.5,4.49023 -2.50669,0 -4.5,-1.99014 -4.5,-4.49023 V 202 Z"
         transform="translate(-508,-228)" />
      <rect
         id="rect49"
         width="16"
         height="16"
         x="-128"
         y="-32"
         transform="scale(-1,1)"
         style="fill:none" />
      <path
         id="path50"
         style="opacity:1;fill:#ff7800;fill-opacity:0.498145"
         d="m 628,196 c -1.662,0 -3,1.338 -3,3 v 2 h 2 v -2 c 0,-0.554 0.446,-1 1,-1 0.554,0 1,0.446 1,1 v 2 h 2 v -2 c 0,-1.662 -1.338,-3 -3,-3 z"
         transform="translate(-508,-228)" />
    </g>
    <text
       xml:space="preserve"
       style="font-style:normal;font-weight:normal;font-size:4.93889px;line-height:1.92925px;font-family:sans-serif;letter-spacing:0px;word-spacing:0px;display:inline;fill:#2e3436;fill-opacity:1;stroke:none;stroke-width:0.264583px;stroke-linecap:butt;stroke-linejoin:miter;stroke-opacity:1"
       x="47.570671"
       y="85.110443"
       id="text51"><tspan
         sodipodi:role="line"
         x="47.570671"
         y="85.110443"
         style="font-style:normal;font-variant:normal;font-weight:bold;font-stretch:normal;font-size:4.93889px;line-height:1.92925px;font-family:Cantarell;-inkscape-font-specification:'Cantarell Bold';fill:#2e3436;fill-opacity:1;stroke-width:0.264583px"
         id="tspan51">All the things</tspan></text>
    <path
       d="m 233.57603,97.001897 c -0.20981,0 -0.20671,0.009 -0.14056,0.27285 l 0.42995,1.31465 h -1.19063 l -0.32246,-0.47129 c -0.0372,-0.0548 -0.032,-0.0579 -0.0909,-0.0579 h -0.0579 c -0.11266,0 -0.0744,0.11575 -0.0744,0.11575 l 0.0744,0.678 -0.0744,0.67799 c 0,0 -0.0372,0.11576 0.0661,0.11576 h 0.0661 c 0.0558,0 0.0537,-0.002 0.0909,-0.0579 l 0.32246,-0.47129 h 1.19063 l -0.42995,1.306383 c -0.0693,0.27699 -0.0703,0.28112 0.14056,0.28112 0.11472,0 0.11472,-0.003 0.19017,-0.13229 l 0.97565,-1.455213 h 0.81855 c 0.14676,0 0.26459,-0.11782 0.26459,-0.26458 0,-0.14677 -0.11783,-0.26459 -0.26459,-0.26459 h -0.81855 l -0.97565,-1.45521 c -0.0703,-0.12092 -0.0744,-0.13229 -0.17364,-0.13229 z m 0,0"
       fill="#2e3436"
       id="path1-1"
       style="fill:#ffffff;fill-opacity:1;stroke-width:0.264583" />
    <text
       xml:space="preserve"
       style="font-style:normal;font-weight:normal;font-size:14.6667px;line-height:165%;font-family:sans-serif;letter-spacing:0px;word-spacing:0px;white-space:pre;inline-size:592.434;display:inline;fill:#2e3436;fill-opacity:1;stroke:none;stroke-width:1px;stroke-linecap:butt;stroke-linejoin:miter;stroke-opacity:1"
       x="-1780.512"
       y="3175.5757"
       id="text52"
       transform="matrix(0.26458333,0,0,0.26458333,518.66446,-716.46476)"><tspan
         x="-1780.512"
         y="3175.5757"
         id="tspan53"><tspan
           style="line-height:165%;font-family:Cantarell;-inkscape-font-specification:Cantarell"
           id="tspan52">What they are:&#10;</tspan></tspan><tspan
         x="-1780.512"
         y="3199.9699"
         id="tspan55"><tspan
           style="line-height:165%;font-family:Cantarell;-inkscape-font-specification:Cantarell"
           id="tspan54">&#10;</tspan></tspan><tspan
         x="-1780.512"
         y="3224.3642"
         id="tspan57"><tspan
           style="line-height:165%;font-family:Cantarell;-inkscape-font-specification:Cantarell"
           id="tspan56"> • Screen recording&#10;</tspan></tspan><tspan
         x="-1780.512"
         y="3248.7585"
         id="tspan59"><tspan
           style="line-height:165%;font-family:Cantarell;-inkscape-font-specification:Cantarell"
           id="tspan58"> • Screen sharing&#10;</tspan></tspan><tspan
         x="-1780.512"
         y="3273.1528"
         id="tspan61"><tspan
           style="line-height:165%;font-family:Cantarell;-inkscape-font-specification:Cantarell"
           id="tspan60"> • Accessibility menu&#10;</tspan></tspan><tspan
         x="-1780.512"
         y="3297.5471"
         id="tspan63"><tspan
           style="line-height:165%;font-family:Cantarell;-inkscape-font-specification:Cantarell"
           id="tspan62"> • Input source menu&#10;</tspan></tspan><tspan
         x="-1780.512"
         y="3321.9414"
         id="tspan65"><tspan
           style="line-height:165%;font-family:Cantarell;-inkscape-font-specification:Cantarell"
           id="tspan64"> • Screen sharing (for when the shell doesn't control sharing)&#10;</tspan></tspan><tspan
         x="-1780.512"
         y="3346.3357"
         id="tspan67"><tspan
           style="line-height:165%;font-family:Cantarell;-inkscape-font-specification:Cantarell"
           id="tspan66"> • Camera in use&#10;</tspan></tspan><tspan
         x="-1780.512"
         y="3370.73"
         id="tspan69"><tspan
           style="line-height:165%;font-family:Cantarell;-inkscape-font-specification:Cantarell"
           id="tspan68"> • Microphone in use&#10;</tspan></tspan><tspan
         x="-1780.512"
         y="3395.1242"
         id="tspan71"><tspan
           style="line-height:165%;font-family:Cantarell;-inkscape-font-specification:Cantarell"
           id="tspan70"> • Location services in use&#10;</tspan></tspan><tspan
         x="-1780.512"
         y="3419.5185"
         id="tspan73"><tspan
           style="line-height:165%;font-family:Cantarell;-inkscape-font-specification:Cantarell"
           id="tspan72"> • Screen casting (icon TBD)&#10;</tspan></tspan><tspan
         x="-1780.512"
         y="3443.9128"
         id="tspan75"><tspan
           style="line-height:165%;font-family:Cantarell;-inkscape-font-specification:Cantarell"
           id="tspan74"> • Night light&#10;</tspan></tspan><tspan
         x="-1780.512"
         y="3468.3071"
         id="tspan77"><tspan
           style="line-height:165%;font-family:Cantarell;-inkscape-font-specification:Cantarell"
           id="tspan76"> • Thunderbol something or other?&#10;</tspan></tspan><tspan
         x="-1780.512"
         y="3492.7014"
         id="tspan79"><tspan
           style="line-height:165%;font-family:Cantarell;-inkscape-font-specification:Cantarell"
           id="tspan78"> • Networking indicators: usb tether, mobile, wifi, vpn, airplane mode&#10;</tspan></tspan><tspan
         x="-1780.512"
         y="3517.0957"
         id="tspan81"><tspan
           style="line-height:165%;font-family:Cantarell;-inkscape-font-specification:Cantarell"
           id="tspan80"> • Bluetooth&#10;</tspan></tspan><tspan
         x="-1780.512"
         y="3541.49"
         id="tspan84"><tspan
           style="line-height:165%;font-family:Cantarell;-inkscape-font-specification:Cantarell"
           id="tspan83"> • Volume&#10;</tspan></tspan><tspan
         x="-1780.512"
         y="3565.8843"
         id="tspan86"><tspan
           style="line-height:165%;font-family:Cantarell;-inkscape-font-specification:Cantarell"
           id="tspan85"> • Battery&#10;</tspan></tspan><tspan
         x="-1780.512"
         y="3590.2785"
         id="tspan88"><tspan
           style="line-height:165%;font-family:Cantarell;-inkscape-font-specification:Cantarell"
           id="tspan87"> • Power off (shown when battery isn't present)</tspan></tspan></text>
    <g
       id="g52"
       transform="translate(-26.454152,-39.953118)"
       style="fill:#ffffff;fill-opacity:1">
      <path
         d="m 214.38949,136.69028 c -0.44028,0 -0.79375,0.3545 -0.79375,0.79375 v 1.85208 c 0,0.44028 0.35347,0.79375 0.79375,0.79375 h 2.64583 c 0.43925,0 0.79375,-0.35347 0.79375,-0.79375 v -1.85208 c 0,-0.43925 -0.3545,-0.79375 -0.79375,-0.79375 z m 0,0.52916 h 2.64583 c 0.14573,0 0.26459,0.11783 0.26459,0.26459 v 1.85208 c 0,0.14676 -0.11886,0.26458 -0.26459,0.26458 h -2.64583 c -0.14676,0 -0.26458,-0.11782 -0.26458,-0.26458 v -1.85208 c 0,-0.14676 0.11782,-0.26459 0.26458,-0.26459 z m 0,0"
         id="path1-2"
         style="fill:#ffffff;fill-opacity:1;stroke-width:0.264583" />
      <path
         d="m 215.71241,140.65903 c 0.79375,0 1.05833,-0.26459 1.05833,-0.26459 h -2.11667 c 0,0 0.26459,0.26459 1.05834,0.26459 z m 0,0"
         id="path2"
         style="fill:#ffffff;fill-opacity:1;stroke-width:0.264583" />
    </g>
    <rect
       style="fill:url(#linearGradient85);stroke:none;stroke-width:1.05833;stroke-linecap:square;stroke-linejoin:round;stroke-dasharray:2.11667, 2.11667"
       id="rect52"
       width="220.90642"
       height="10.054167"
       x="48.598072"
       y="287.78091"
       inkscape:export-filename="/home/aday/Documents/quick-settings-test.png"
       inkscape:export-xdpi="96"
       inkscape:export-ydpi="96" />
    <g
       id="g53"
       inkscape:label="wifi network connection signal excellent strong"
       transform="matrix(0.26458333,0,0,0.26458333,80.77908,223.20818)">
      <title
         id="title52">network-wireless-signal-excellent</title>
      <rect
         id="rect53"
         width="16"
         height="16"
         x="600"
         y="256"
         style="fill:none" />
      <path
         id="path53"
         style="fill:#ffffff"
         d="m 608,257.99219 c -2.61818,0 -5.23713,0.93501 -7.19336,2.80664 l -0.49803,0.48049 a 1,1 0 0 0 -0.0312,1.41211 1,1 0 0 0 1.41407,0.0293 l 0.50002,-0.47654 c 3.08749,-2.95399 8.52967,-2.954 11.61717,-1e-5 l 0.50002,0.47654 a 1,1 0 0 0 1.41407,-0.0293 1,1 0 0 0 -0.0312,-1.41211 l -0.49803,-0.48049 c -1.95636,-1.87164 -4.57528,-2.80665 -7.19346,-2.80664 z M 607.9668,262 c -1.56859,0.0119 -3.12544,0.62895 -4.20508,1.81445 l -0.50193,0.5469 a 1,1 0 0 0 0.0664,1.41601 1,1 0 0 0 1.41406,-0.0684 l 0.49806,-0.54686 c 1.27752,-1.40281 4.15977,-1.49736 5.52345,10e-6 l 0.49806,0.54685 a 1,1 0 0 0 1.41405,0.0684 1,1 0 0 0 0.0645,-1.41406 l -0.50003,-0.54881 c -1.12305,-1.23308 -2.70294,-1.82634 -4.27152,-1.81444 z M 608,266 c -0.51184,-10e-6 -1.02355,0.19541 -1.41406,0.58594 -0.78105,0.78105 -0.78105,2.04706 0,2.82811 0.78106,0.78106 2.04707,0.78106 2.82812,1e-5 0.78105,-0.78105 0.78105,-2.04707 0,-2.82812 C 609.02354,266.19541 608.51184,266 608,266 Z" />
    </g>
    <g
       id="g85"
       transform="translate(7.4083515)">
      <path
         id="path54"
         style="fill:#ffffff;fill-opacity:1;stroke-width:0.264583"
         d="m 248.78949,291.20723 c -0.0782,0 -0.15253,0.0339 -0.20309,0.0935 l -0.85524,0.96324 h -0.26459 c -0.28963,0 -0.52916,0.22339 -0.52916,0.52916 v 0.52917 c 0,0.28858 0.24058,0.52917 0.52916,0.52917 h 0.26459 l 0.85524,0.96325 c 0.0557,0.0667 0.13009,0.0957 0.20309,0.0951 z m 1.70945,0.25423 c -0.051,-2e-5 -0.10237,0.0148 -0.1478,0.0455 -0.12118,0.0817 -0.15311,0.24627 -0.0713,0.3674 0.48294,0.71598 0.48294,1.65081 0,2.36681 -0.0818,0.12113 -0.0499,0.28567 0.0713,0.3674 0.12115,0.0818 0.2857,0.0499 0.36743,-0.0713 0.30133,-0.44675 0.45217,-0.96312 0.45217,-1.4795 0,-0.51639 -0.15084,-1.03275 -0.45217,-1.4795 -0.0511,-0.0757 -0.13465,-0.11676 -0.21963,-0.11679 z m -0.90535,0.53536 c -0.0592,-0.003 -0.11949,0.0148 -0.17055,0.0532 -0.0694,0.0523 -0.10473,0.13226 -0.10438,0.21291 v 0.0161 c 0.003,0.0497 0.0201,0.0988 0.0522,0.14157 0.28485,0.37804 0.28485,0.89633 0,1.27434 -0.0322,0.0428 -0.049,0.0919 -0.0522,0.14161 v 0.0161 c 0,0.0806 0.035,0.16065 0.10438,0.21291 0.11673,0.0879 0.28262,0.0645 0.37052,-0.0522 0.21275,-0.28231 0.31938,-0.61897 0.31938,-0.95549 0,-0.33653 -0.10663,-0.67318 -0.31938,-0.95549 -0.0495,-0.0657 -0.12383,-0.10205 -0.19997,-0.10544 z" />
      <g
         id="g57"
         transform="matrix(0.26458333,0,0,0.26458333,94.668511,256.90535)">
        <g
           id="g56"
           transform="rotate(90,373.4311,482.07332)"
           inkscape:label="battery charge power level">
          <title
             id="title54">battery-level-90-charging</title>
          <path
             id="path55"
             style="fill:#33d17a;fill-opacity:1"
             d="m 25.9992,247 h 7 v -3 h -1 c -0.52989,-1.8e-4 -1.0395,-0.21131 -1.41406,-0.58594 L 28.17108,241 H 25.9992 Z"
             class="success" />
          <rect
             y="236"
             x="20"
             height="16"
             width="16"
             id="rect55"
             style="fill:none" />
          <path
             id="path56"
             style="fill:#ffffff;fill-opacity:1"
             d="m 19.9992,245 c 0,1 1,1 1,1 h 1 v 1 c 0,0 -0.0137,0.7086 0.35547,1.44727 C 22.72385,249.18593 23.6656,250 24.9992,250 h 8 c 0,0 0.70891,0.0138 1.44727,-0.35547 C 35.18482,249.27521 35.9992,248.3332 35.9992,247 v -5 h -2 v 5 c 0,0.554 -0.446,1 -1,1 h -8 c -0.554,0 -1,-0.446 -1,-1 v -4 -2 c 0,-0.554 0.446,-1 1,-1 h 2 v -2 h -2 c -1.3336,0 -2.27535,0.81407 -2.64453,1.55273 C 21.98548,240.2914 21.9992,241 21.9992,241 v 1 h -1 c -1,0 -1,1 -1,1 z m 8,-6 h 0.0059 a 1.0001,1.0001 0 0 0 0.28711,0.70703 l 3,3 A 1.0001,1.0001 0 0 0 31.9992,243 h 1 v -1 -1 -1.13086 l 1.44531,0.96289 a 1.0001,1.0001 0 0 0 0.55469,0.16211 V 241 h 1 v -1 h -0.0039 a 1.0001,1.0001 0 0 0 -0.28906,-0.70703 l -3,-3 A 1.0001,1.0001 0 0 0 31.9992,236.00391 V 236 h -1 v 1 1 1.13086 l -1.44531,-0.96289 A 1.0001,1.0001 0 0 0 28.9992,238.00195 V 238 h -1 z" />
        </g>
        <rect
           style="fill:#3584e4;fill-opacity:0"
           id="rect56"
           width="16"
           height="16"
           x="603.50439"
           y="128.64182" />
      </g>
      <g
         id="g69"
         transform="matrix(0.26458333,0,0,0.26458333,601.21449,-516.96882)">
        <rect
           style="opacity:1;fill:#ffffff;fill-opacity:0;stroke:#ffffff;stroke-width:0;stroke-linecap:round;stroke-dasharray:none;stroke-opacity:1"
           id="rect68"
           width="15.999999"
           height="15.999999"
           x="-1367"
           y="3053.5195" />
        <path
           d="m -1359.415,3053.6098 c -0.3554,0.1641 -0.5859,0.5195 -0.5859,0.9102 v 5.2968 l -2.3438,-2.0468 c -0.414,-0.3633 -1.0429,-0.3242 -1.4062,0.09 -0.3633,0.4179 -0.3242,1.0469 0.094,1.4101 l 2.5665,2.25 -2.5665,2.25 c -0.4179,0.3633 -0.457,0.9922 -0.094,1.4063 0.3633,0.418 0.9922,0.457 1.4062,0.094 l 2.3438,-2.0469 v 5.2969 c 0,0.3906 0.2305,0.7461 0.5859,0.9101 0.3594,0.1602 0.7774,0.1016 1.0703,-0.1601 l 4,-3.5 c 0.2188,-0.1875 0.3438,-0.461 0.3438,-0.75 0,-0.2891 -0.125,-0.5625 -0.3438,-0.75 l -3.1406,-2.75 3.1406,-2.75 c 0.2188,-0.1875 0.3438,-0.461 0.3438,-0.75 0,-0.2891 -0.125,-0.5625 -0.3438,-0.75 l -4,-3.5 c -0.2929,-0.2617 -0.7109,-0.3242 -1.0703,-0.1602 z m 1.4141,3.1133 1.4844,1.2969 -1.4844,1.2968 z m 0,7 1.4844,1.2969 -1.4844,1.2969 z m 0,0"
           fill="#2e3436"
           id="path68"
           style="fill:#ffffff;fill-opacity:1" />
      </g>
    </g>
    <g
       id="g80"
       transform="translate(79.924824,195.26254)">
      <g
         transform="matrix(0.26458333,0,0,0.26458333,109.3334,-33.173015)"
         inkscape:label="mark location map gps pin find locate position coordinates"
         id="g79">
        <title
           id="title78">mark-location</title>
        <rect
           id="rect78"
           width="16"
           height="16"
           x="160"
           y="487"
           rx="0"
           ry="0"
           style="fill:none" />
      </g>
      <path
         id="path79"
         d="m 153.7834,95.678993 c -0.87674,1.5e-4 -1.58737,0.71099 -1.58726,1.58773 10e-4,0.18796 0.0358,0.37421 0.1021,0.55008 l -0.004,-10e-4 c 0.16858,0.52511 1.00025,1.34384 1.48894,1.83253 l 5.3e-4,5.3e-4 v -0.001 c 0.39888,-0.39886 1.02646,-1.03848 1.33539,-1.5229 0.0696,-0.10908 0.12359,-0.21312 0.15457,-0.30963 l -0.005,0.001 c 0.0664,-0.17569 0.10117,-0.36178 0.10257,-0.5496 1.2e-4,-0.87693 -0.7108,-1.58785 -1.58773,-1.58773 z m 0,0.97707 c 0.3373,-1.1e-4 0.61077,0.27336 0.61066,0.61066 -1.5e-4,0.33712 -0.27354,0.6103 -0.61066,0.61019 -0.33694,-1.5e-4 -0.61004,-0.27325 -0.61019,-0.61019 -1.2e-4,-0.33712 0.27307,-0.61052 0.61019,-0.61066 z"
         style="fill:#ffffff;fill-opacity:1;stroke-width:0.264583" />
    </g>
    <text
       xml:space="preserve"
       style="font-style:normal;font-weight:normal;font-size:4.93889px;line-height:1.92925px;font-family:sans-serif;letter-spacing:0px;word-spacing:0px;display:inline;fill:#2e3436;fill-opacity:1;stroke:none;stroke-width:0.264583px;stroke-linecap:butt;stroke-linejoin:miter;stroke-opacity:1"
       x="47.570671"
       y="279.31467"
       id="text82"><tspan
         sodipodi:role="line"
         x="47.570671"
         y="279.31467"
         style="font-style:normal;font-variant:normal;font-weight:bold;font-stretch:normal;font-size:4.93889px;line-height:1.92925px;font-family:Cantarell;-inkscape-font-specification:'Cantarell Bold';fill:#2e3436;fill-opacity:1;stroke-width:0.264583px"
         id="tspan82">A more realistic example</tspan></text>
  </g>
</svg>
