<?xml version="1.0" encoding="UTF-8" standalone="no"?>
<svg
   xmlns:dc="http://purl.org/dc/elements/1.1/"
   xmlns:cc="http://creativecommons.org/ns#"
   xmlns:rdf="http://www.w3.org/1999/02/22-rdf-syntax-ns#"
   xmlns:svg="http://www.w3.org/2000/svg"
   xmlns="http://www.w3.org/2000/svg"
   xmlns:sodipodi="http://sodipodi.sourceforge.net/DTD/sodipodi-0.dtd"
   xmlns:inkscape="http://www.inkscape.org/namespaces/inkscape"
   inkscape:export-ydpi="96"
   inkscape:export-xdpi="96"
   inkscape:export-filename="/home/tobias/Design/os-mockups/mobile-shell/state-diagram.png"
   sodipodi:docname="state-diagram.svg"
   inkscape:version="1.0.2 (e86c870879, 2021-01-15)"
   id="svg1323"
   version="1.1"
   viewBox="0 0 1231.9999 991.99992"
   height="991.99994"
   width="1231.9999">
  <defs
     id="defs1317">
    <marker
       inkscape:isstock="true"
       style="overflow:visible"
       id="marker3216"
       refX="0"
       refY="0"
       orient="auto"
       inkscape:stockid="TriangleOutM">
      <path
         transform="scale(0.4)"
         style="fill:#0f0f0f;fill-opacity:1;fill-rule:evenodd;stroke:#0f0f0f;stroke-width:1pt;stroke-opacity:1"
         d="M 5.77,0 -2.88,5 V -5 Z"
         id="path3214"
         inkscape:connector-curvature="0" />
    </marker>
    <marker
       inkscape:stockid="TriangleInM"
       orient="auto"
       refY="0"
       refX="0"
       id="marker3206"
       style="overflow:visible"
       inkscape:isstock="true">
      <path
         id="path3204"
         d="M 5.77,0 -2.88,5 V -5 Z"
         style="fill:#0f0f0f;fill-opacity:1;fill-rule:evenodd;stroke:#0f0f0f;stroke-width:1pt;stroke-opacity:1"
         transform="scale(-0.4)"
         inkscape:connector-curvature="0" />
    </marker>
    <marker
       inkscape:stockid="TriangleOutM"
       orient="auto"
       refY="0"
       refX="0"
       id="marker2371"
       style="overflow:visible"
       inkscape:isstock="true"
       inkscape:collect="always">
      <path
         inkscape:connector-curvature="0"
         id="path2369"
         d="M 5.77,0 -2.88,5 V -5 Z"
         style="fill:#0f0f0f;fill-opacity:1;fill-rule:evenodd;stroke:#0f0f0f;stroke-width:1pt;stroke-opacity:1"
         transform="scale(0.4)" />
    </marker>
    <marker
       inkscape:isstock="true"
       style="overflow:visible"
       id="marker2349"
       refX="0"
       refY="0"
       orient="auto"
       inkscape:stockid="TriangleOutM">
      <path
         inkscape:connector-curvature="0"
         transform="scale(0.4)"
         style="fill:#98c1f1;fill-opacity:1;fill-rule:evenodd;stroke:#98c1f1;stroke-width:1pt;stroke-opacity:1"
         d="M 5.77,0 -2.88,5 V -5 Z"
         id="path2347" />
    </marker>
    <marker
       inkscape:isstock="true"
       style="overflow:visible"
       id="marker2339"
       refX="0"
       refY="0"
       orient="auto"
       inkscape:stockid="TriangleInM"
       inkscape:collect="always">
      <path
         inkscape:connector-curvature="0"
         transform="scale(-0.4)"
         style="fill:#0f0f0f;fill-opacity:1;fill-rule:evenodd;stroke:#0f0f0f;stroke-width:1pt;stroke-opacity:1"
         d="M 5.77,0 -2.88,5 V -5 Z"
         id="path2337" />
    </marker>
    <marker
       inkscape:isstock="true"
       style="overflow:visible"
       id="marker2329"
       refX="0"
       refY="0"
       orient="auto"
       inkscape:stockid="TriangleInM">
      <path
         inkscape:connector-curvature="0"
         transform="scale(-0.4)"
         style="fill:#98c1f1;fill-opacity:1;fill-rule:evenodd;stroke:#98c1f1;stroke-width:1pt;stroke-opacity:1"
         d="M 5.77,0 -2.88,5 V -5 Z"
         id="path2327" />
    </marker>
    <marker
       inkscape:stockid="TriangleOutM"
       orient="auto"
       refY="0"
       refX="0"
       id="marker26556"
       style="overflow:visible"
       inkscape:isstock="true">
      <path
         inkscape:connector-curvature="0"
         id="path26554"
         d="M 5.77,0 -2.88,5 V -5 Z"
         style="fill:#98c1f1;fill-opacity:1;fill-rule:evenodd;stroke:#98c1f1;stroke-width:1pt;stroke-opacity:1"
         transform="scale(0.4)" />
    </marker>
    <marker
       inkscape:stockid="TriangleOutM"
       orient="auto"
       refY="0"
       refX="0"
       id="marker26186"
       style="overflow:visible"
       inkscape:isstock="true">
      <path
         inkscape:connector-curvature="0"
         id="path26184"
         d="M 5.77,0 -2.88,5 V -5 Z"
         style="fill:#98c1f1;fill-opacity:1;fill-rule:evenodd;stroke:#98c1f1;stroke-width:1pt;stroke-opacity:1"
         transform="scale(0.4)" />
    </marker>
    <marker
       inkscape:stockid="TriangleOutM"
       orient="auto"
       refY="0"
       refX="0"
       id="marker26030"
       style="overflow:visible"
       inkscape:isstock="true">
      <path
         id="path26028"
         d="M 5.77,0 -2.88,5 V -5 Z"
         style="fill:#98c1f1;fill-opacity:1;fill-rule:evenodd;stroke:#98c1f1;stroke-width:1pt;stroke-opacity:1"
         transform="scale(0.4)"
         inkscape:connector-curvature="0" />
    </marker>
    <marker
       inkscape:stockid="TriangleOutM"
       orient="auto"
       refY="0"
       refX="0"
       id="marker25290"
       style="overflow:visible"
       inkscape:isstock="true">
      <path
         id="path25288"
         d="M 5.77,0 -2.88,5 V -5 Z"
         style="fill:#98c1f1;fill-opacity:1;fill-rule:evenodd;stroke:#98c1f1;stroke-width:1pt;stroke-opacity:1"
         transform="scale(0.4)"
         inkscape:connector-curvature="0" />
    </marker>
    <marker
       inkscape:isstock="true"
       style="overflow:visible"
       id="marker24704"
       refX="0"
       refY="0"
       orient="auto"
       inkscape:stockid="TriangleOutM">
      <path
         inkscape:connector-curvature="0"
         transform="scale(0.4)"
         style="fill:#98c1f1;fill-opacity:1;fill-rule:evenodd;stroke:#98c1f1;stroke-width:1pt;stroke-opacity:1"
         d="M 5.77,0 -2.88,5 V -5 Z"
         id="path24702" />
    </marker>
    <marker
       inkscape:isstock="true"
       style="overflow:visible"
       id="marker24346"
       refX="0"
       refY="0"
       orient="auto"
       inkscape:stockid="TriangleOutM">
      <path
         inkscape:connector-curvature="0"
         transform="scale(0.4)"
         style="fill:#98c1f1;fill-opacity:1;fill-rule:evenodd;stroke:#98c1f1;stroke-width:1pt;stroke-opacity:1"
         d="M 5.77,0 -2.88,5 V -5 Z"
         id="path24344" />
    </marker>
    <marker
       inkscape:isstock="true"
       style="overflow:visible"
       id="marker23232"
       refX="0"
       refY="0"
       orient="auto"
       inkscape:stockid="TriangleOutM">
      <path
         inkscape:connector-curvature="0"
         transform="scale(0.4)"
         style="fill:#98c1f1;fill-opacity:1;fill-rule:evenodd;stroke:#98c1f1;stroke-width:1pt;stroke-opacity:1"
         d="M 5.77,0 -2.88,5 V -5 Z"
         id="path23230" />
    </marker>
    <marker
       inkscape:isstock="true"
       style="overflow:visible"
       id="marker22728"
       refX="0"
       refY="0"
       orient="auto"
       inkscape:stockid="TriangleOutM">
      <path
         inkscape:connector-curvature="0"
         transform="scale(0.4)"
         style="fill:#98c1f1;fill-opacity:1;fill-rule:evenodd;stroke:#98c1f1;stroke-width:1pt;stroke-opacity:1"
         d="M 5.77,0 -2.88,5 V -5 Z"
         id="path22726" />
    </marker>
    <marker
       inkscape:stockid="TriangleOutM"
       orient="auto"
       refY="0"
       refX="0"
       id="marker22374"
       style="overflow:visible"
       inkscape:isstock="true">
      <path
         id="path22372"
         d="M 5.77,0 -2.88,5 V -5 Z"
         style="fill:#98c1f1;fill-opacity:1;fill-rule:evenodd;stroke:#98c1f1;stroke-width:1pt;stroke-opacity:1"
         transform="scale(0.4)"
         inkscape:connector-curvature="0" />
    </marker>
    <marker
       inkscape:isstock="true"
       style="overflow:visible"
       id="marker22046"
       refX="0"
       refY="0"
       orient="auto"
       inkscape:stockid="TriangleOutM">
      <path
         inkscape:connector-curvature="0"
         transform="scale(0.4)"
         style="fill:#98c1f1;fill-opacity:1;fill-rule:evenodd;stroke:#98c1f1;stroke-width:1pt;stroke-opacity:1"
         d="M 5.77,0 -2.88,5 V -5 Z"
         id="path22044" />
    </marker>
    <marker
       inkscape:isstock="true"
       style="overflow:visible"
       id="marker21718"
       refX="0"
       refY="0"
       orient="auto"
       inkscape:stockid="TriangleOutM">
      <path
         inkscape:connector-curvature="0"
         transform="scale(0.4)"
         style="fill:#98c1f1;fill-opacity:1;fill-rule:evenodd;stroke:#98c1f1;stroke-width:1pt;stroke-opacity:1"
         d="M 5.77,0 -2.88,5 V -5 Z"
         id="path21716" />
    </marker>
    <marker
       inkscape:stockid="TriangleOutM"
       orient="auto"
       refY="0"
       refX="0"
       id="marker14042"
       style="overflow:visible"
       inkscape:isstock="true">
      <path
         id="path14040"
         d="M 5.77,0 -2.88,5 V -5 Z"
         style="fill:#98c1f1;fill-opacity:1;fill-rule:evenodd;stroke:#98c1f1;stroke-width:1pt;stroke-opacity:1"
         transform="scale(0.4)"
         inkscape:connector-curvature="0" />
    </marker>
    <marker
       inkscape:isstock="true"
       style="overflow:visible"
       id="marker11970"
       refX="0"
       refY="0"
       orient="auto"
       inkscape:stockid="TriangleOutM">
      <path
         inkscape:connector-curvature="0"
         transform="scale(0.4)"
         style="fill:#98c1f1;fill-opacity:1;fill-rule:evenodd;stroke:#98c1f1;stroke-width:1pt;stroke-opacity:1"
         d="M 5.77,0 -2.88,5 V -5 Z"
         id="path11968" />
    </marker>
    <marker
       inkscape:stockid="TriangleOutM"
       orient="auto"
       refY="0"
       refX="0"
       id="marker9128"
       style="overflow:visible"
       inkscape:isstock="true">
      <path
         id="path9126"
         d="M 5.77,0 -2.88,5 V -5 Z"
         style="fill:#98c1f1;fill-opacity:1;fill-rule:evenodd;stroke:#98c1f1;stroke-width:1pt;stroke-opacity:1"
         transform="scale(0.4)"
         inkscape:connector-curvature="0" />
    </marker>
    <marker
       inkscape:isstock="true"
       style="overflow:visible"
       id="marker7482"
       refX="0"
       refY="0"
       orient="auto"
       inkscape:stockid="TriangleOutM">
      <path
         transform="scale(0.4)"
         style="fill:#0f0f0f;fill-opacity:1;fill-rule:evenodd;stroke:#0f0f0f;stroke-width:1pt;stroke-opacity:1"
         d="M 5.77,0 -2.88,5 V -5 Z"
         id="path7480"
         inkscape:connector-curvature="0" />
    </marker>
    <marker
       inkscape:stockid="TriangleOutM"
       orient="auto"
       refY="0"
       refX="0"
       id="marker6870"
       style="overflow:visible"
       inkscape:isstock="true">
      <path
         id="path6868"
         d="M 5.77,0 -2.88,5 V -5 Z"
         style="fill:#0f0f0f;fill-opacity:1;fill-rule:evenodd;stroke:#0f0f0f;stroke-width:1pt;stroke-opacity:1"
         transform="scale(0.4)"
         inkscape:connector-curvature="0" />
    </marker>
    <marker
       inkscape:stockid="TriangleOutM"
       orient="auto"
       refY="0"
       refX="0"
       id="marker5200"
       style="overflow:visible"
       inkscape:isstock="true">
      <path
         id="path5198"
         d="M 5.77,0 -2.88,5 V -5 Z"
         style="fill:#0f0f0f;fill-opacity:1;fill-rule:evenodd;stroke:#0f0f0f;stroke-width:1pt;stroke-opacity:1"
         transform="scale(0.4)"
         inkscape:connector-curvature="0" />
    </marker>
    <marker
       inkscape:isstock="true"
       style="overflow:visible"
       id="marker4988"
       refX="0"
       refY="0"
       orient="auto"
       inkscape:stockid="TriangleOutM">
      <path
         transform="scale(0.4)"
         style="fill:#0f0f0f;fill-opacity:1;fill-rule:evenodd;stroke:#0f0f0f;stroke-width:1pt;stroke-opacity:1"
         d="M 5.77,0 -2.88,5 V -5 Z"
         id="path4986"
         inkscape:connector-curvature="0" />
    </marker>
    <marker
       inkscape:isstock="true"
       style="overflow:visible"
       id="marker4894"
       refX="0"
       refY="0"
       orient="auto"
       inkscape:stockid="TriangleOutM">
      <path
         transform="scale(0.4)"
         style="fill:#0f0f0f;fill-opacity:1;fill-rule:evenodd;stroke:#0f0f0f;stroke-width:1pt;stroke-opacity:1"
         d="M 5.77,0 -2.88,5 V -5 Z"
         id="path4892"
         inkscape:connector-curvature="0" />
    </marker>
    <marker
       inkscape:stockid="TriangleOutM"
       orient="auto"
       refY="0"
       refX="0"
       id="marker4061"
       style="overflow:visible"
       inkscape:isstock="true">
      <path
         id="path4059"
         d="M 5.77,0 -2.88,5 V -5 Z"
         style="fill:#0f0f0f;fill-opacity:1;fill-rule:evenodd;stroke:#0f0f0f;stroke-width:1pt;stroke-opacity:1"
         transform="scale(0.4)"
         inkscape:connector-curvature="0" />
    </marker>
    <marker
       inkscape:stockid="TriangleOutM"
       orient="auto"
       refY="0"
       refX="0"
       id="marker2920"
       style="overflow:visible"
       inkscape:isstock="true">
      <path
         id="path2918"
         d="M 5.77,0 -2.88,5 V -5 Z"
         style="fill:#0f0f0f;fill-opacity:1;fill-rule:evenodd;stroke:#0f0f0f;stroke-width:1pt;stroke-opacity:1"
         transform="scale(0.4)"
         inkscape:connector-curvature="0" />
    </marker>
    <clipPath
       id="clipPath2268"
       clipPathUnits="userSpaceOnUse">
      <rect
         y="-736.66669"
         x="106"
         height="372"
         width="671"
         id="rect2270"
         style="opacity:1;vector-effect:none;fill:#bbbab7;fill-opacity:0.984314;stroke:none;stroke-width:0.377953;stroke-linecap:round;stroke-linejoin:miter;stroke-miterlimit:4;stroke-dasharray:none;stroke-dashoffset:0;stroke-opacity:1" />
    </clipPath>
    <clipPath
       id="clipPath18712"
       clipPathUnits="userSpaceOnUse">
      <rect
         y="-1195.9658"
         x="441.5"
         height="200.59805"
         width="342.07779"
         id="rect18714"
         style="opacity:1;vector-effect:none;fill:#98c1f1;fill-opacity:1;stroke:none;stroke-width:3;stroke-linecap:round;stroke-linejoin:miter;stroke-miterlimit:4;stroke-dasharray:none;stroke-dashoffset:0;stroke-opacity:1" />
    </clipPath>
    <clipPath
       clipPathUnits="userSpaceOnUse"
       id="clipPath18712-3">
      <rect
         style="opacity:1;vector-effect:none;fill:#98c1f1;fill-opacity:1;stroke:none;stroke-width:3;stroke-linecap:round;stroke-linejoin:miter;stroke-miterlimit:4;stroke-dasharray:none;stroke-dashoffset:0;stroke-opacity:1"
         id="rect18714-6"
         width="342.07779"
         height="200.59805"
         x="441.5"
         y="-1195.9658" />
    </clipPath>
  </defs>
  <sodipodi:namedview
     inkscape:snap-global="true"
     inkscape:document-rotation="0"
     inkscape:snap-smooth-nodes="true"
     inkscape:snap-intersection-paths="true"
     inkscape:object-paths="true"
     inkscape:snap-bbox-midpoints="true"
     inkscape:guide-bbox="true"
     showguides="false"
     inkscape:snap-nodes="true"
     inkscape:bbox-nodes="true"
     inkscape:bbox-paths="true"
     inkscape:snap-bbox="false"
     borderlayer="true"
     inkscape:showpageshadow="false"
     inkscape:window-maximized="1"
     inkscape:window-y="0"
     inkscape:window-x="0"
     inkscape:window-height="1011"
     inkscape:window-width="1920"
     units="px"
     showgrid="false"
     inkscape:current-layer="layer1"
     inkscape:document-units="px"
     inkscape:cy="442.90934"
     inkscape:cx="620.48121"
     inkscape:zoom="0.70710678"
     inkscape:pageshadow="2"
     inkscape:pageopacity="1"
     borderopacity="1.0"
     bordercolor="#666666"
     pagecolor="#f5f5f5"
     id="base"
     inkscape:snap-text-baseline="true"
     inkscape:snap-center="true"
     inkscape:snap-object-midpoints="true"
     inkscape:snap-others="true"
     inkscape:snap-midpoints="true">
    <inkscape:grid
       empspacing="4"
       id="grid869"
       type="xygrid"
       originx="-1568.0002"
       originy="-480.00005" />
    <sodipodi:guide
       inkscape:locked="false"
       id="guide1699"
       orientation="0,1"
       position="-704.00013,2799.9995" />
    <sodipodi:guide
       inkscape:locked="false"
       id="guide1703"
       orientation="0,1"
       position="-656.00013,2127.9996" />
    <sodipodi:guide
       inkscape:locked="false"
       id="guide1707"
       orientation="0,1"
       position="-688.00013,1591.9996" />
    <sodipodi:guide
       inkscape:locked="false"
       id="guide1781"
       orientation="0,1"
       position="-1471.0001,1007.9996" />
    <sodipodi:guide
       inkscape:locked="false"
       id="guide2272"
       orientation="0,1"
       position="-656.00013,279.99965" />
    <sodipodi:guide
       inkscape:locked="false"
       id="guide1802"
       orientation="0,1"
       position="-448.00014,-320.00035" />
    <sodipodi:guide
       inkscape:locked="false"
       id="guide1804"
       orientation="1,0"
       position="-1472.0001,2799.9995" />
    <sodipodi:guide
       id="guide1806"
       inkscape:locked="false"
       orientation="1,0"
       position="-436.00014,2659.9995" />
    <sodipodi:guide
       inkscape:locked="false"
       id="guide2469"
       orientation="1,0"
       position="591.99984,2799.9995" />
    <sodipodi:guide
       inkscape:locked="false"
       id="guide2243"
       orientation="1,0"
       position="1630.5277,2665.8765" />
    <sodipodi:guide
       id="guide17193"
       orientation="1,0"
       position="-1132.4223,2928.7131"
       inkscape:locked="false" />
    <sodipodi:guide
       id="guide17195"
       orientation="1,0"
       position="-776.00013,2495.9995"
       inkscape:locked="false" />
    <sodipodi:guide
       id="guide17212"
       orientation="1,0"
       position="-786.00013,2475.9995"
       inkscape:locked="false" />
  </sodipodi:namedview>
  <metadata
     id="metadata1320">
    <rdf:RDF>
      <cc:Work
         rdf:about="">
        <dc:format>image/svg+xml</dc:format>
        <dc:type
           rdf:resource="http://purl.org/dc/dcmitype/StillImage" />
        <dc:title />
      </cc:Work>
    </rdf:RDF>
  </metadata>
  <g
     transform="translate(-1568.0001,2330.6667)"
     id="layer1"
     inkscape:groupmode="layer"
     inkscape:label="Layer 1">
    <rect
       style="opacity:1;vector-effect:none;fill:#ffffff;fill-opacity:1;stroke:none;stroke-width:1.5;stroke-linecap:square;stroke-linejoin:round;stroke-miterlimit:4;stroke-dasharray:none;stroke-dashoffset:0;stroke-opacity:1"
       id="rect9750"
       width="1231.9999"
       height="991.99994"
       x="1568.0001"
       y="-2330.6667"
       rx="5.0000005"
       ry="5" />
    <path
       inkscape:connector-curvature="0"
       d=""
       cx="3425.0278"
       cy="-1740.1667"
       r="22"
       id="path2113"
       style="opacity:1;vector-effect:none;fill:#98c1f1;fill-opacity:1;stroke:none;stroke-width:3;stroke-linecap:round;stroke-linejoin:miter;stroke-miterlimit:4;stroke-dasharray:none;stroke-dashoffset:0;stroke-opacity:1" />
    <rect
       y="-1692.793"
       x="1720.5"
       height="198.25241"
       width="338.07779"
       id="rect1435"
       style="vector-effect:none;fill:#98c1f1;fill-opacity:1;stroke:#98c1f1;stroke-width:3;stroke-linecap:round;stroke-linejoin:miter;stroke-miterlimit:4;stroke-dasharray:none;stroke-dashoffset:0;stroke-opacity:1" />
    <g
       id="g3686"
       transform="translate(-89.20105,-46.941528)">
      <rect
         y="-1645.8514"
         x="1809.701"
         height="190.12616"
         width="169.03893"
         id="rect1447"
         style="vector-effect:none;fill:#ffffff;fill-opacity:1;stroke:#98c1f1;stroke-width:3.00001;stroke-linecap:round;stroke-linejoin:miter;stroke-miterlimit:4;stroke-dasharray:none;stroke-dashoffset:0;stroke-opacity:1"
         rx="3"
         ry="3" />
      <g
         id="g1453"
         transform="matrix(0.49937634,0,0,0.49937634,1587.4786,-330.91045)"
         style="stroke-width:2.0025">
        <rect
           transform="scale(-1,1)"
           width="16.070976"
           height="16"
           x="-776"
           y="-2627.6665"
           id="rect1449"
           style="color:#bebebe;display:inline;overflow:visible;visibility:visible;fill:none;stroke:none;stroke-width:2.0025;marker:none;enable-background:new" />
        <path
           d="m 771.98226,-2623.6665 h -1.00444 c -0.0104,-1e-4 -0.0209,-4e-4 -0.0313,0 -0.25608,0.011 -0.51213,0.1286 -0.69055,0.3125 l -2.29137,2.2813 -2.32275,-2.2813 c -0.2668,-0.2305 -0.44866,-0.3055 -0.69055,-0.3125 h -1.00444 v 1 c 0,0.2865 0.0344,0.5507 0.25111,0.75 l 2.29137,2.2813 -2.25998,2.25 c -0.18903,0.1881 -0.28249,0.4534 -0.2825,0.7187 v 1 h 1.00444 c 0.26647,0 0.53294,-0.093 0.72193,-0.2812 l 2.29132,-2.2813 2.29137,2.2813 c 0.189,0.1882 0.45548,0.2812 0.72194,0.2812 h 1.00444 v -1 c 0,-0.2653 -0.0935,-0.5306 -0.2825,-0.7187 l -2.29137,-2.25 2.29137,-2.2813 c 0.21168,-0.1946 0.30451,-0.4692 0.2825,-0.75 z"
           inkscape:connector-curvature="0"
           id="path1451"
           style="color:#bebebe;font-style:normal;font-variant:normal;font-weight:normal;font-stretch:normal;font-size:medium;line-height:normal;font-family:'Andale Mono';-inkscape-font-specification:'Andale Mono';text-indent:0;text-align:start;text-decoration:none;text-decoration-line:none;letter-spacing:normal;word-spacing:normal;text-transform:none;writing-mode:lr-tb;direction:ltr;text-anchor:start;display:inline;overflow:visible;visibility:visible;fill:#98c1f1;fill-opacity:1;fill-rule:nonzero;stroke:none;stroke-width:3.56695;marker:none;enable-background:new"
           sodipodi:nodetypes="ccsccccccccccccccccccccccc" />
      </g>
      <path
         inkscape:connector-curvature="0"
         id="path1455"
         d="m 1809.701,-1632.618 h 168.2899"
         style="fill:none;stroke:#98c1f1;stroke-width:2;stroke-linecap:butt;stroke-linejoin:miter;stroke-miterlimit:4;stroke-dasharray:none;stroke-opacity:1" />
    </g>
    <rect
       style="vector-effect:none;fill:#98c1f1;fill-opacity:1;stroke:#98c1f1;stroke-width:3;stroke-linecap:round;stroke-linejoin:miter;stroke-miterlimit:4;stroke-dasharray:none;stroke-dashoffset:0;stroke-opacity:1"
       id="rect3723"
       width="338.07779"
       height="198.25241"
       x="2300.4758"
       y="-1692.793" />
    <g
       style="stroke-width:1.03206"
       id="g3747"
       transform="matrix(1,0,0,0.93883471,659.81381,-147.61051)">
      <rect
         y="-1645.8514"
         x="1640.662"
         height="202.51292"
         width="338.07794"
         id="rect3737"
         style="vector-effect:none;fill:#ffffff;fill-opacity:1;stroke:#98c1f1;stroke-width:3.09619;stroke-linecap:round;stroke-linejoin:miter;stroke-miterlimit:4;stroke-dasharray:none;stroke-dashoffset:0;stroke-opacity:1"
         rx="3"
         ry="3.1954508" />
      <g
         id="g3743"
         transform="matrix(0.49937634,0,0,0.49937634,1587.4786,-330.91045)"
         style="stroke-width:2.0667">
        <rect
           transform="scale(-1,1)"
           width="16.070976"
           height="16"
           x="-776"
           y="-2627.6665"
           id="rect3739"
           style="color:#bebebe;display:inline;overflow:visible;visibility:visible;fill:none;stroke:none;stroke-width:2.0667;marker:none;enable-background:new" />
        <path
           d="m 771.98226,-2623.6665 h -1.00444 c -0.0104,-1e-4 -0.0209,-4e-4 -0.0313,0 -0.25608,0.011 -0.51213,0.1286 -0.69055,0.3125 l -2.29137,2.2813 -2.32275,-2.2813 c -0.2668,-0.2305 -0.44866,-0.3055 -0.69055,-0.3125 h -1.00444 v 1 c 0,0.2865 0.0344,0.5507 0.25111,0.75 l 2.29137,2.2813 -2.25998,2.25 c -0.18903,0.1881 -0.28249,0.4534 -0.2825,0.7187 v 1 h 1.00444 c 0.26647,0 0.53294,-0.093 0.72193,-0.2812 l 2.29132,-2.2813 2.29137,2.2813 c 0.189,0.1882 0.45548,0.2812 0.72194,0.2812 h 1.00444 v -1 c 0,-0.2653 -0.0935,-0.5306 -0.2825,-0.7187 l -2.29137,-2.25 2.29137,-2.2813 c 0.21168,-0.1946 0.30451,-0.4692 0.2825,-0.75 z"
           inkscape:connector-curvature="0"
           id="path3741"
           style="color:#bebebe;font-style:normal;font-variant:normal;font-weight:normal;font-stretch:normal;font-size:medium;line-height:normal;font-family:'Andale Mono';-inkscape-font-specification:'Andale Mono';text-indent:0;text-align:start;text-decoration:none;text-decoration-line:none;letter-spacing:normal;word-spacing:normal;text-transform:none;writing-mode:lr-tb;direction:ltr;text-anchor:start;display:inline;overflow:visible;visibility:visible;fill:#98c1f1;fill-opacity:1;fill-rule:nonzero;stroke:none;stroke-width:3.68131;marker:none;enable-background:new"
           sodipodi:nodetypes="ccsccccccccccccccccccccccc" />
      </g>
      <path
         inkscape:connector-curvature="0"
         id="path3745"
         d="m 1640.6619,-1632.618 h 336.5799"
         style="fill:none;stroke:#98c1f1;stroke-width:2.06412;stroke-linecap:butt;stroke-linejoin:miter;stroke-miterlimit:4;stroke-dasharray:none;stroke-opacity:1" />
    </g>
    <flowRoot
       xml:space="preserve"
       id="flowRoot3266"
       style="font-style:normal;font-variant:normal;font-weight:normal;font-stretch:normal;font-size:14.6667px;line-height:1.25;font-family:Cantarell;-inkscape-font-specification:Cantarell;text-align:center;letter-spacing:0px;word-spacing:0px;text-anchor:middle;fill:#0f0f0f;fill-opacity:1;stroke:none"
       transform="translate(1831.5375,-1599.9084)"><flowRegion
         style="font-style:normal;font-variant:normal;font-weight:normal;font-stretch:normal;font-size:14.6667px;font-family:Cantarell;-inkscape-font-specification:Cantarell;text-align:center;text-anchor:middle;fill:#0f0f0f;fill-opacity:1"
         id="flowRegion3262"><rect
           style="font-style:normal;font-variant:normal;font-weight:normal;font-stretch:normal;font-size:14.66666698px;font-family:Cantarell;-inkscape-font-specification:Cantarell;text-align:center;text-anchor:middle;fill:#0f0f0f;fill-opacity:1"
           id="rect3260"
           width="334"
           height="48"
           x="184"
           y="132" /></flowRegion><flowPara
         id="flowPara3264"
         style="font-style:normal;font-variant:normal;font-weight:normal;font-stretch:normal;font-size:14.6667px;font-family:Cantarell;-inkscape-font-specification:Cantarell;text-align:center;text-anchor:middle;fill:#0f0f0f;fill-opacity:1">Super + Alt + Left/Right</flowPara></flowRoot>
    <g
       transform="translate(350,-340)"
       id="g3292">
      <path
         style="fill:none;stroke:#98c1f1;stroke-width:4;stroke-linecap:butt;stroke-linejoin:miter;stroke-opacity:1;marker-start:url(#marker2329);marker-end:url(#marker2349)"
         d="m 1736.539,-1242.6667 h 186"
         id="path3288"
         inkscape:connector-curvature="0"
         sodipodi:nodetypes="cc" />
    </g>
    <g
       id="g3304"
       transform="translate(589.67127,110)" />
    <path
       style="fill:none;stroke:#98c1f1;stroke-width:4;stroke-linecap:butt;stroke-linejoin:miter;stroke-opacity:1;marker-end:url(#marker26556)"
       d="m 1909.5389,-1714.6667 v -156"
       id="path3396"
       inkscape:connector-curvature="0"
       sodipodi:nodetypes="cc" />
    <path
       sodipodi:nodetypes="cc"
       inkscape:connector-curvature="0"
       id="path3398"
       d="m 1869.5389,-1882.0301 v 156"
       style="fill:none;stroke:#98c1f1;stroke-width:4;stroke-linecap:butt;stroke-linejoin:miter;stroke-opacity:1;marker-end:url(#marker26186)" />
    <g
       id="g5877"
       transform="translate(-249.57116,-210)">
      <flowRoot
         xml:space="preserve"
         id="flowRoot3278"
         style="font-style:normal;font-variant:normal;font-weight:normal;font-stretch:normal;font-size:14.6667px;line-height:1.25;font-family:Cantarell;-inkscape-font-specification:Cantarell;text-align:center;letter-spacing:0px;word-spacing:0px;text-anchor:middle;fill:#0f0f0f;fill-opacity:1;stroke:none"
         transform="translate(2061.7869,-1419.9084)"><flowRegion
           style="font-style:normal;font-variant:normal;font-weight:normal;font-stretch:normal;font-size:14.6667px;font-family:Cantarell;-inkscape-font-specification:Cantarell;text-align:center;text-anchor:middle;fill:#0f0f0f;fill-opacity:1"
           id="flowRegion3274"><rect
             style="font-style:normal;font-variant:normal;font-weight:normal;font-stretch:normal;font-size:14.66666698px;font-family:Cantarell;-inkscape-font-specification:Cantarell;text-align:center;text-anchor:middle;fill:#0f0f0f;fill-opacity:1"
             id="rect3272"
             width="334"
             height="48"
             x="184"
             y="132" /></flowRegion><flowPara
           id="flowPara3276"
           style="font-style:normal;font-variant:normal;font-weight:normal;font-stretch:normal;font-size:14.6667px;font-family:Cantarell;-inkscape-font-specification:Cantarell;text-align:center;text-anchor:middle;fill:#0f0f0f;fill-opacity:1">3 finger swipe</flowPara></flowRoot>
      <path
         style="fill:none;stroke:#0f0f0f;stroke-width:1.5;stroke-linecap:butt;stroke-linejoin:miter;stroke-miterlimit:4;stroke-dasharray:none;stroke-opacity:1;marker-start:url(#marker2339);marker-end:url(#marker2371)"
         d="m 2469.6713,-1278.6667 h 16"
         id="path3613"
         inkscape:connector-curvature="0"
         sodipodi:nodetypes="cc" />
    </g>
    <flowRoot
       transform="translate(1750.2624,-1955.9084)"
       style="font-style:normal;font-variant:normal;font-weight:normal;font-stretch:normal;font-size:14.6667px;line-height:1.25;font-family:Cantarell;-inkscape-font-specification:Cantarell;letter-spacing:0px;word-spacing:0px;fill:#0f0f0f;fill-opacity:1;stroke:none"
       id="flowRoot3961"
       xml:space="preserve"><flowRegion
         id="flowRegion3957"
         style="font-style:normal;font-variant:normal;font-weight:normal;font-stretch:normal;font-size:14.6667px;font-family:Cantarell;-inkscape-font-specification:Cantarell;fill:#0f0f0f;fill-opacity:1"><rect
           y="132"
           x="184"
           height="48"
           width="334"
           id="rect3955"
           style="font-style:normal;font-variant:normal;font-weight:normal;font-stretch:normal;font-size:14.66666698px;font-family:Cantarell;-inkscape-font-specification:Cantarell;fill:#0f0f0f;fill-opacity:1" /></flowRegion><flowPara
         style="font-style:normal;font-variant:normal;font-weight:normal;font-stretch:normal;font-size:14.6667px;font-family:Cantarell;-inkscape-font-specification:Cantarell;fill:#0f0f0f;fill-opacity:1"
         id="flowPara3959">Super, Super + Alt + Up</flowPara></flowRoot>
    <flowRoot
       xml:space="preserve"
       id="flowRoot7472"
       style="font-style:normal;font-variant:normal;font-weight:normal;font-stretch:normal;font-size:14.6667px;line-height:1.25;font-family:Cantarell;-inkscape-font-specification:Cantarell;letter-spacing:0px;word-spacing:0px;fill:#0f0f0f;fill-opacity:1;stroke:none"
       transform="translate(1750.2624,-1985.9084)"><flowRegion
         style="font-style:normal;font-variant:normal;font-weight:normal;font-stretch:normal;font-size:14.6667px;font-family:Cantarell;-inkscape-font-specification:Cantarell;fill:#0f0f0f;fill-opacity:1"
         id="flowRegion7468"><rect
           style="font-style:normal;font-variant:normal;font-weight:normal;font-stretch:normal;font-size:14.66666698px;font-family:Cantarell;-inkscape-font-specification:Cantarell;fill:#0f0f0f;fill-opacity:1"
           id="rect7466"
           width="334"
           height="48"
           x="184"
           y="132" /></flowRegion><flowPara
         id="flowPara7470"
         style="font-style:normal;font-variant:normal;font-weight:normal;font-stretch:normal;font-size:14.6667px;font-family:Cantarell;-inkscape-font-specification:Cantarell;fill:#0f0f0f;fill-opacity:1">Arrow button</flowPara></flowRoot>
    <flowRoot
       transform="translate(1750.2624,-1925.9084)"
       style="font-style:normal;font-variant:normal;font-weight:normal;font-stretch:normal;font-size:14.6667px;line-height:1.25;font-family:Cantarell;-inkscape-font-specification:Cantarell;letter-spacing:0px;word-spacing:0px;fill:#0f0f0f;fill-opacity:1;stroke:none"
       id="flowRoot7878"
       xml:space="preserve"><flowRegion
         id="flowRegion7874"
         style="font-style:normal;font-variant:normal;font-weight:normal;font-stretch:normal;font-size:14.6667px;font-family:Cantarell;-inkscape-font-specification:Cantarell;fill:#0f0f0f;fill-opacity:1"><rect
           y="132"
           x="184"
           height="48"
           width="334"
           id="rect7872"
           style="font-style:normal;font-variant:normal;font-weight:normal;font-stretch:normal;font-size:14.66666698px;font-family:Cantarell;-inkscape-font-specification:Cantarell;fill:#0f0f0f;fill-opacity:1" /></flowRegion><flowPara
         style="font-style:normal;font-variant:normal;font-weight:normal;font-stretch:normal;font-size:14.6667px;font-family:Cantarell;-inkscape-font-specification:Cantarell;fill:#0f0f0f;fill-opacity:1"
         id="flowPara7876">3 finger swipe up</flowPara></flowRoot>
    <flowRoot
       xml:space="preserve"
       id="flowRoot7886"
       style="font-style:normal;font-variant:normal;font-weight:normal;font-stretch:normal;font-size:14.6667px;line-height:1.25;font-family:Cantarell;-inkscape-font-specification:Cantarell;text-align:end;letter-spacing:0px;word-spacing:0px;text-anchor:end;fill:#0f0f0f;fill-opacity:1;stroke:none"
       transform="translate(1326.2624,-1955.9084)"><flowRegion
         style="font-style:normal;font-variant:normal;font-weight:normal;font-stretch:normal;font-size:14.6667px;font-family:Cantarell;-inkscape-font-specification:Cantarell;text-align:end;text-anchor:end;fill:#0f0f0f;fill-opacity:1"
         id="flowRegion7882"><rect
           style="font-style:normal;font-variant:normal;font-weight:normal;font-stretch:normal;font-size:14.66666698px;font-family:Cantarell;-inkscape-font-specification:Cantarell;text-align:end;text-anchor:end;fill:#0f0f0f;fill-opacity:1"
           id="rect7880"
           width="334"
           height="48"
           x="184"
           y="132" /></flowRegion><flowPara
         id="flowPara7884"
         style="font-style:normal;font-variant:normal;font-weight:normal;font-stretch:normal;font-size:14.6667px;font-family:Cantarell;-inkscape-font-specification:Cantarell;text-align:end;text-anchor:end;fill:#0f0f0f;fill-opacity:1">Super, ESC, Super + Alt + Down</flowPara></flowRoot>
    <flowRoot
       transform="translate(1326.2624,-1985.9084)"
       style="font-style:normal;font-variant:normal;font-weight:normal;font-stretch:normal;font-size:14.6667px;line-height:1.25;font-family:Cantarell;-inkscape-font-specification:Cantarell;text-align:end;letter-spacing:0px;word-spacing:0px;text-anchor:end;fill:#0f0f0f;fill-opacity:1;stroke:none"
       id="flowRoot7894"
       xml:space="preserve"><flowRegion
         id="flowRegion7890"
         style="font-style:normal;font-variant:normal;font-weight:normal;font-stretch:normal;font-size:14.6667px;font-family:Cantarell;-inkscape-font-specification:Cantarell;text-align:end;text-anchor:end;fill:#0f0f0f;fill-opacity:1"><rect
           y="132"
           x="184"
           height="93"
           width="334"
           id="rect7888"
           style="font-style:normal;font-variant:normal;font-weight:normal;font-stretch:normal;font-size:14.66666698px;font-family:Cantarell;-inkscape-font-specification:Cantarell;text-align:end;text-anchor:end;fill:#0f0f0f;fill-opacity:1" /></flowRegion><flowPara
         style="font-style:normal;font-variant:normal;font-weight:normal;font-stretch:normal;font-size:14.6667px;font-family:Cantarell;-inkscape-font-specification:Cantarell;text-align:end;text-anchor:end;fill:#0f0f0f;fill-opacity:1"
         id="flowPara7892">Arrow button</flowPara></flowRoot>
    <flowRoot
       xml:space="preserve"
       id="flowRoot7902"
       style="font-style:normal;font-variant:normal;font-weight:normal;font-stretch:normal;font-size:14.6667px;line-height:1.25;font-family:Cantarell;-inkscape-font-specification:Cantarell;text-align:end;letter-spacing:0px;word-spacing:0px;text-anchor:end;fill:#0f0f0f;fill-opacity:1;stroke:none"
       transform="translate(1326.2624,-1925.9084)"><flowRegion
         style="font-style:normal;font-variant:normal;font-weight:normal;font-stretch:normal;font-size:14.6667px;font-family:Cantarell;-inkscape-font-specification:Cantarell;text-align:end;text-anchor:end;fill:#0f0f0f;fill-opacity:1"
         id="flowRegion7898"><rect
           style="font-style:normal;font-variant:normal;font-weight:normal;font-stretch:normal;font-size:14.66666698px;font-family:Cantarell;-inkscape-font-specification:Cantarell;text-align:end;text-anchor:end;fill:#0f0f0f;fill-opacity:1"
           id="rect7896"
           width="334"
           height="48"
           x="184"
           y="132" /></flowRegion><flowPara
         id="flowPara7900"
         style="font-style:normal;font-variant:normal;font-weight:normal;font-stretch:normal;font-size:14.6667px;font-family:Cantarell;-inkscape-font-specification:Cantarell;text-align:end;text-anchor:end;fill:#0f0f0f;fill-opacity:1">3 finger swipe down</flowPara></flowRoot>
    <flowRoot
       transform="translate(1466,-2378.9819)"
       style="font-style:normal;font-weight:normal;font-size:53.3333px;line-height:1.25;font-family:sans-serif;letter-spacing:0px;word-spacing:0px;fill:#0f0f0f;fill-opacity:1;stroke:none"
       id="flowRoot853-4"
       xml:space="preserve"><flowRegion
         style="font-size:53.3333px;fill:#0f0f0f;fill-opacity:1"
         id="flowRegion855-0"><rect
           style="font-size:53.33333206px;fill:#0f0f0f;fill-opacity:1"
           y="132"
           x="184"
           height="776"
           width="2384"
           id="rect857-8" /></flowRegion><flowPara
         style="font-style:normal;font-variant:normal;font-weight:300;font-stretch:normal;font-size:53.3333px;font-family:Cantarell;-inkscape-font-specification:'Cantarell Light';fill:#0f0f0f;fill-opacity:1"
         id="flowPara859-5">State Diagram</flowPara></flowRoot>
    <flowRoot
       transform="translate(1538.5,-2257.9638)"
       style="font-style:normal;font-variant:normal;font-weight:bold;font-stretch:normal;font-size:14.6667px;line-height:1.25;font-family:Cantarell;-inkscape-font-specification:'Cantarell Bold';text-align:start;letter-spacing:0px;word-spacing:0px;text-anchor:start;fill:#0f0f0f;fill-opacity:1;stroke:none"
       id="flowRoot1357"
       xml:space="preserve"><flowRegion
         id="flowRegion1353"
         style="font-style:normal;font-variant:normal;font-weight:bold;font-stretch:normal;font-size:14.6667px;font-family:Cantarell;-inkscape-font-specification:'Cantarell Bold';text-align:start;text-anchor:start;fill:#0f0f0f;fill-opacity:1"><rect
           y="132"
           x="184"
           height="52"
           width="338"
           id="rect1351"
           style="font-style:normal;font-variant:normal;font-weight:bold;font-stretch:normal;font-size:14.66666698px;font-family:Cantarell;-inkscape-font-specification:'Cantarell Bold';text-align:start;text-anchor:start;fill:#0f0f0f;fill-opacity:1" /></flowRegion><flowPara
         style="font-style:normal;font-variant:normal;font-weight:bold;font-stretch:normal;font-size:14.6667px;font-family:Cantarell;-inkscape-font-specification:'Cantarell Bold';text-align:start;text-anchor:start;fill:#0f0f0f;fill-opacity:1"
         id="flowPara1355">Overview</flowPara></flowRoot>
    <flowRoot
       xml:space="preserve"
       id="flowRoot1349"
       style="font-style:normal;font-variant:normal;font-weight:bold;font-stretch:normal;font-size:14.6667px;line-height:1.25;font-family:Cantarell;-inkscape-font-specification:'Cantarell Bold';text-align:start;letter-spacing:0px;word-spacing:0px;text-anchor:start;fill:#0f0f0f;fill-opacity:1;stroke:none"
       transform="translate(1542.5,-1848.0489)"><flowRegion
         style="font-style:normal;font-variant:normal;font-weight:bold;font-stretch:normal;font-size:14.6667px;font-family:Cantarell;-inkscape-font-specification:'Cantarell Bold';text-align:start;text-anchor:start;fill:#0f0f0f;fill-opacity:1"
         id="flowRegion1345"><rect
           style="font-style:normal;font-variant:normal;font-weight:bold;font-stretch:normal;font-size:14.66666698px;font-family:Cantarell;-inkscape-font-specification:'Cantarell Bold';text-align:start;text-anchor:start;fill:#0f0f0f;fill-opacity:1"
           id="rect1343"
           width="334"
           height="48"
           x="184"
           y="132" /></flowRegion><flowPara
         id="flowPara1347"
         style="font-style:normal;font-variant:normal;font-weight:bold;font-stretch:normal;font-size:14.6667px;font-family:Cantarell;-inkscape-font-specification:'Cantarell Bold';text-align:start;text-anchor:start;fill:#0f0f0f;fill-opacity:1">Session</flowPara></flowRoot>
    <g
       id="g1913"
       transform="translate(-230,-238.82727)">
      <rect
         y="-1863.9657"
         x="2530.5"
         height="198.25241"
         width="338.07779"
         id="rect10355"
         style="opacity:1;vector-effect:none;fill:#98c1f1;fill-opacity:1;stroke:#98c1f1;stroke-width:3;stroke-linecap:round;stroke-linejoin:miter;stroke-miterlimit:4;stroke-dasharray:none;stroke-dashoffset:0;stroke-opacity:1" />
      <g
         transform="translate(-2.6833954)"
         id="g10521">
        <circle
           style="fill:#ffffff;fill-opacity:1;stroke-width:0.999993;stroke-linejoin:round;stroke-dasharray:0.999993, 2;paint-order:markers fill stroke"
           id="circle10365"
           cx="-1810.7202"
           cy="-2748.9517"
           r="7.5734391"
           transform="rotate(90)" />
        <circle
           r="7.5734391"
           cy="-2725.905"
           cx="-1810.7202"
           id="circle10367"
           style="fill:#ffffff;fill-opacity:1;stroke-width:0.999993;stroke-linejoin:round;stroke-dasharray:0.999993, 2;paint-order:markers fill stroke"
           transform="rotate(90)" />
        <circle
           style="fill:#ffffff;fill-opacity:1;stroke-width:0.999993;stroke-linejoin:round;stroke-dasharray:0.999993, 2;paint-order:markers fill stroke"
           id="circle10369"
           cx="-1810.7202"
           cy="-2702.8582"
           r="7.5734391"
           transform="rotate(90)" />
        <circle
           r="7.5734391"
           cy="-2679.8113"
           cx="-1810.7202"
           id="circle10371"
           style="fill:#ffffff;fill-opacity:1;stroke-width:0.999993;stroke-linejoin:round;stroke-dasharray:0.999993, 2;paint-order:markers fill stroke"
           transform="rotate(90)" />
        <circle
           style="fill:#ffffff;fill-opacity:1;stroke-width:0.999993;stroke-linejoin:round;stroke-dasharray:0.999993, 2;paint-order:markers fill stroke"
           id="circle10373"
           cx="-1810.7202"
           cy="-2656.7649"
           r="7.5734391"
           transform="rotate(90)" />
        <circle
           transform="rotate(90)"
           style="fill:#ffffff;fill-opacity:1;stroke-width:0.999993;stroke-linejoin:round;stroke-dasharray:0.999993, 2;paint-order:markers fill stroke"
           id="circle10395"
           cx="-1810.7202"
           cy="-2770.7119"
           r="7.5734391" />
        <circle
           style="fill:#ffffff;fill-opacity:1;stroke-width:0.999993;stroke-linejoin:round;stroke-dasharray:0.999993, 2;paint-order:markers fill stroke"
           id="circle10401"
           cx="-1810.7202"
           cy="-2633.7327"
           r="7.5734391"
           transform="rotate(90)" />
      </g>
      <circle
         style="fill:#ffffff;fill-opacity:1;stroke-width:0.999993;stroke-linejoin:round;stroke-dasharray:0.999993, 2;paint-order:markers fill stroke"
         id="circle10403"
         cx="-1779.9167"
         cy="-2633.7327"
         r="5.7498474"
         transform="rotate(90)" />
      <rect
         style="fill:#ffffff;fill-opacity:1;stroke:none;stroke-width:0.99999;stroke-linejoin:round;stroke-miterlimit:4;stroke-dasharray:none;stroke-dashoffset:0;stroke-opacity:1;paint-order:markers fill stroke"
         id="rect10407"
         width="61.5"
         height="12.300003"
         x="2668.7888"
         y="-1842.9902"
         rx="6.1500015"
         ry="6.1500015" />
      <path
         style="fill:none;stroke:#ffffff;stroke-width:4;stroke-linecap:butt;stroke-linejoin:miter;stroke-opacity:1"
         d="m 2652,-1780.6665 h 100"
         id="path10443"
         inkscape:connector-curvature="0" />
      <path
         inkscape:connector-curvature="0"
         id="path10445"
         d="m 2652,-1768.6665 h 120"
         style="fill:none;stroke:#ffffff;stroke-width:4;stroke-linecap:butt;stroke-linejoin:miter;stroke-opacity:1" />
      <path
         style="fill:none;stroke:#ffffff;stroke-width:4;stroke-linecap:butt;stroke-linejoin:miter;stroke-opacity:1"
         d="m 2652,-1756.6665 h 52"
         id="path10447"
         inkscape:connector-curvature="0" />
      <path
         inkscape:connector-curvature="0"
         id="path10449"
         d="m 2652,-1744.6666 h 104"
         style="fill:none;stroke:#ffffff;stroke-width:4;stroke-linecap:butt;stroke-linejoin:miter;stroke-opacity:1" />
      <circle
         transform="rotate(90)"
         r="5.7498474"
         cy="-2633.7327"
         cx="-1719.9167"
         id="circle10461"
         style="fill:#ffffff;fill-opacity:1;stroke-width:0.999993;stroke-linejoin:round;stroke-dasharray:0.999993, 2;paint-order:markers fill stroke" />
      <path
         inkscape:connector-curvature="0"
         id="path10463"
         d="m 2652,-1720.6665 h 76"
         style="fill:none;stroke:#ffffff;stroke-width:4;stroke-linecap:butt;stroke-linejoin:miter;stroke-opacity:1" />
      <path
         style="fill:none;stroke:#ffffff;stroke-width:4;stroke-linecap:butt;stroke-linejoin:miter;stroke-opacity:1"
         d="m 2652,-1708.6665 h 120"
         id="path10465"
         inkscape:connector-curvature="0" />
      <path
         inkscape:connector-curvature="0"
         id="path10467"
         d="m 2652,-1696.6665 h 88"
         style="fill:none;stroke:#ffffff;stroke-width:4;stroke-linecap:butt;stroke-linejoin:miter;stroke-opacity:1" />
      <path
         style="fill:none;stroke:#ffffff;stroke-width:4;stroke-linecap:butt;stroke-linejoin:miter;stroke-opacity:1"
         d="m 2652,-1684.6666 h 120"
         id="path10469"
         inkscape:connector-curvature="0" />
      <flowRoot
         xml:space="preserve"
         id="flowRoot1553-6"
         style="font-style:normal;font-variant:normal;font-weight:bold;font-stretch:normal;font-size:14.6667px;line-height:1.25;font-family:Cantarell;-inkscape-font-specification:'Cantarell Bold';text-align:start;letter-spacing:0px;word-spacing:0px;text-anchor:start;fill:#0f0f0f;fill-opacity:1;stroke:none"
         transform="translate(2346.5,-2019.1365)"><flowRegion
           style="font-style:normal;font-variant:normal;font-weight:bold;font-stretch:normal;font-size:14.6667px;font-family:Cantarell;-inkscape-font-specification:'Cantarell Bold';text-align:start;text-anchor:start;fill:#0f0f0f;fill-opacity:1"
           id="flowRegion1549-6"><rect
             style="font-style:normal;font-variant:normal;font-weight:bold;font-stretch:normal;font-size:14.66666698px;font-family:Cantarell;-inkscape-font-specification:'Cantarell Bold';text-align:start;text-anchor:start;fill:#0f0f0f;fill-opacity:1"
             id="rect1547-2"
             width="338"
             height="52"
             x="184"
             y="132" /></flowRegion><flowPara
           id="flowPara1551-1"
           style="font-style:normal;font-variant:normal;font-weight:bold;font-stretch:normal;font-size:14.6667px;font-family:Cantarell;-inkscape-font-specification:'Cantarell Bold';text-align:start;text-anchor:start;fill:#0f0f0f;fill-opacity:1">Search</flowPara></flowRoot>
    </g>
    <flowRoot
       transform="translate(1950.5197,-2172.9084)"
       style="font-style:normal;font-variant:normal;font-weight:normal;font-stretch:normal;font-size:14.6667px;line-height:1.25;font-family:Cantarell;-inkscape-font-specification:Cantarell;letter-spacing:0px;word-spacing:0px;fill:#0f0f0f;fill-opacity:1;stroke:none"
       id="flowRoot16520"
       xml:space="preserve"><flowRegion
         id="flowRegion16516"
         style="font-style:normal;font-variant:normal;font-weight:normal;font-stretch:normal;font-size:14.6667px;font-family:Cantarell;-inkscape-font-specification:Cantarell;fill:#0f0f0f;fill-opacity:1"><rect
           y="132"
           x="184"
           height="48"
           width="334"
           id="rect16514"
           style="font-style:normal;font-variant:normal;font-weight:normal;font-stretch:normal;font-size:14.66666698px;font-family:Cantarell;-inkscape-font-specification:Cantarell;fill:#0f0f0f;fill-opacity:1" /></flowRegion><flowPara
         style="font-style:normal;font-variant:normal;font-weight:normal;font-stretch:normal;font-size:14.6667px;font-family:Cantarell;-inkscape-font-specification:Cantarell;fill:#0f0f0f;fill-opacity:1"
         id="flowPara16518">Type to search</flowPara></flowRoot>
    <flowRoot
       xml:space="preserve"
       id="flowRoot19190"
       style="font-style:normal;font-variant:normal;font-weight:normal;font-stretch:normal;font-size:14.6667px;line-height:1.25;font-family:Cantarell;-inkscape-font-specification:Cantarell;letter-spacing:0px;word-spacing:0px;fill:#0f0f0f;fill-opacity:1;stroke:none"
       transform="translate(1958.1097,-2097.9084)"><flowRegion
         style="font-style:normal;font-variant:normal;font-weight:normal;font-stretch:normal;font-size:14.6667px;font-family:Cantarell;-inkscape-font-specification:Cantarell;fill:#0f0f0f;fill-opacity:1"
         id="flowRegion19186"><rect
           style="font-style:normal;font-variant:normal;font-weight:normal;font-stretch:normal;font-size:14.66666698px;font-family:Cantarell;-inkscape-font-specification:Cantarell;fill:#0f0f0f;fill-opacity:1"
           id="rect19184"
           width="334"
           height="48"
           x="184"
           y="132" /></flowRegion><flowPara
         style="font-style:normal;font-variant:normal;font-weight:normal;font-stretch:normal;font-size:14.6667px;font-family:Cantarell;-inkscape-font-specification:Cantarell;fill:#0f0f0f;fill-opacity:1"
         id="flowPara19192">Back button</flowPara></flowRoot>
    <flowRoot
       transform="translate(1983.747,-2067.9084)"
       style="font-style:normal;font-variant:normal;font-weight:normal;font-stretch:normal;font-size:14.6667px;line-height:1.25;font-family:Cantarell;-inkscape-font-specification:Cantarell;letter-spacing:0px;word-spacing:0px;fill:#0f0f0f;fill-opacity:1;stroke:none"
       id="flowRoot19202"
       xml:space="preserve"><flowRegion
         id="flowRegion19198"
         style="font-style:normal;font-variant:normal;font-weight:normal;font-stretch:normal;font-size:14.6667px;font-family:Cantarell;-inkscape-font-specification:Cantarell;fill:#0f0f0f;fill-opacity:1"><rect
           y="132"
           x="184"
           height="48"
           width="334"
           id="rect19196"
           style="font-style:normal;font-variant:normal;font-weight:normal;font-stretch:normal;font-size:14.66666698px;font-family:Cantarell;-inkscape-font-specification:Cantarell;fill:#0f0f0f;fill-opacity:1" /></flowRegion><flowPara
         id="flowPara19200"
         style="font-style:normal;font-variant:normal;font-weight:normal;font-stretch:normal;font-size:14.6667px;font-family:Cantarell;-inkscape-font-specification:Cantarell;fill:#0f0f0f;fill-opacity:1">ESC</flowPara></flowRoot>
    <g
       id="g21708"
       transform="matrix(1,0,0,-1,-233,-3964.6966)">
      <path
         style="fill:none;stroke:#98c1f1;stroke-width:4;stroke-linecap:butt;stroke-linejoin:miter;stroke-opacity:1;marker-end:url(#marker22728)"
         d="m 2311,-1952.0301 h 195"
         id="path22724"
         inkscape:connector-curvature="0"
         sodipodi:nodetypes="cc" />
    </g>
    <path
       sodipodi:nodetypes="cc"
       inkscape:connector-curvature="0"
       id="path23228"
       d="M 2282,-1982.0301 H 2088"
       style="fill:none;stroke:#98c1f1;stroke-width:4;stroke-linecap:butt;stroke-linejoin:miter;stroke-opacity:1;marker-end:url(#marker23232)" />
    <flowRoot
       transform="translate(1831.5375,-1689.9084)"
       style="font-style:normal;font-variant:normal;font-weight:normal;font-stretch:normal;font-size:14.6667px;line-height:1.25;font-family:Cantarell;-inkscape-font-specification:Cantarell;text-align:center;letter-spacing:0px;word-spacing:0px;text-anchor:middle;fill:#0f0f0f;fill-opacity:1;stroke:none"
       id="flowRoot27220"
       xml:space="preserve"><flowRegion
         id="flowRegion27216"
         style="font-style:normal;font-variant:normal;font-weight:normal;font-stretch:normal;font-size:14.6667px;font-family:Cantarell;-inkscape-font-specification:Cantarell;text-align:center;text-anchor:middle;fill:#0f0f0f;fill-opacity:1"><rect
           y="132"
           x="184"
           height="48"
           width="334"
           id="rect27214"
           style="font-style:normal;font-variant:normal;font-weight:normal;font-stretch:normal;font-size:14.66666698px;font-family:Cantarell;-inkscape-font-specification:Cantarell;text-align:center;text-anchor:middle;fill:#0f0f0f;fill-opacity:1" /></flowRegion><flowPara
         style="font-style:normal;font-variant:normal;font-weight:bold;font-stretch:normal;font-size:14.6667px;font-family:Cantarell;-inkscape-font-specification:Cantarell;text-align:center;text-anchor:middle;fill:#0f0f0f;fill-opacity:1"
         id="flowPara27218">Workspace Switching</flowPara></flowRoot>
    <rect
       style="vector-effect:none;fill:#98c1f1;fill-opacity:1;stroke:#98c1f1;stroke-width:3;stroke-linecap:round;stroke-linejoin:miter;stroke-miterlimit:4;stroke-dasharray:none;stroke-dashoffset:0;stroke-opacity:1"
       id="rect1459"
       width="338.07779"
       height="198.25241"
       x="1720.5"
       y="-2104.2402" />
    <rect
       y="-2104.2402"
       x="1720.5"
       height="71.146851"
       width="338.07779"
       id="rect1461"
       style="vector-effect:none;fill:#ffffff;fill-opacity:0.35675514;stroke:#98c1f1;stroke-width:3.08564;stroke-linecap:round;stroke-linejoin:miter;stroke-miterlimit:4;stroke-dasharray:none;stroke-dashoffset:0;stroke-opacity:1" />
    <g
       id="g3114"
       transform="translate(-50,-30)">
      <circle
         cy="1930.5"
         cx="1884.739"
         id="circle1463"
         style="fill:#ffffff;fill-opacity:1;stroke-width:0.999999;stroke-linejoin:round;stroke-dasharray:0.999999, 2;paint-order:markers fill stroke"
         transform="rotate(-90)"
         r="3" />
      <circle
         style="fill:none;fill-opacity:1;stroke:#ffffff;stroke-width:0.642599;stroke-linejoin:round;stroke-miterlimit:4;stroke-dasharray:none;stroke-dashoffset:0;stroke-opacity:1;paint-order:markers fill stroke"
         id="circle1465"
         cx="1884.739"
         cy="1942.5001"
         transform="rotate(-90)"
         r="1.9277964" />
      <circle
         cy="1954.5001"
         cx="1884.739"
         id="circle1467"
         style="fill:none;fill-opacity:1;stroke:#ffffff;stroke-width:0.642599;stroke-linejoin:round;stroke-miterlimit:4;stroke-dasharray:none;stroke-dashoffset:0;stroke-opacity:1;paint-order:markers fill stroke"
         transform="rotate(-90)"
         r="1.9277964" />
    </g>
    <g
       id="g3109"
       transform="translate(-50,-27)">
      <circle
         transform="rotate(90)"
         r="7.5734391"
         cy="-2007.8821"
         cx="-1962.9946"
         id="circle1469"
         style="fill:#ffffff;fill-opacity:1;stroke-width:0.999993;stroke-linejoin:round;stroke-dasharray:0.999993, 2;paint-order:markers fill stroke" />
      <circle
         transform="rotate(90)"
         style="fill:#ffffff;fill-opacity:1;stroke-width:0.999993;stroke-linejoin:round;stroke-dasharray:0.999993, 2;paint-order:markers fill stroke"
         id="circle1471"
         cx="-1962.9946"
         cy="-1975.0522"
         r="7.5734391" />
      <circle
         transform="rotate(90)"
         r="7.5734391"
         cy="-1942.2223"
         cx="-1962.9946"
         id="circle1473"
         style="fill:#ffffff;fill-opacity:1;stroke-width:0.999993;stroke-linejoin:round;stroke-dasharray:0.999993, 2;paint-order:markers fill stroke" />
      <circle
         transform="rotate(90)"
         style="fill:#ffffff;fill-opacity:1;stroke-width:0.999993;stroke-linejoin:round;stroke-dasharray:0.999993, 2;paint-order:markers fill stroke"
         id="circle1475"
         cx="-1962.9946"
         cy="-1909.3925"
         r="7.5734391" />
      <circle
         transform="rotate(90)"
         r="7.5734391"
         cy="-1876.5625"
         cx="-1962.9946"
         id="circle1477"
         style="fill:#ffffff;fill-opacity:1;stroke-width:0.999993;stroke-linejoin:round;stroke-dasharray:0.999993, 2;paint-order:markers fill stroke" />
      <circle
         style="fill:#ffffff;fill-opacity:1;stroke-width:0.999993;stroke-linejoin:round;stroke-dasharray:0.999993, 2;paint-order:markers fill stroke"
         id="circle1479"
         cx="-1936.1912"
         cy="-2007.8821"
         r="7.5734391"
         transform="rotate(90)" />
      <circle
         r="7.5734391"
         cy="-1975.0522"
         cx="-1936.1912"
         id="circle1481"
         style="fill:#ffffff;fill-opacity:1;stroke-width:0.999993;stroke-linejoin:round;stroke-dasharray:0.999993, 2;paint-order:markers fill stroke"
         transform="rotate(90)" />
      <circle
         style="fill:#ffffff;fill-opacity:1;stroke-width:0.999993;stroke-linejoin:round;stroke-dasharray:0.999993, 2;paint-order:markers fill stroke"
         id="circle1483"
         cx="-1936.1912"
         cy="-1942.2223"
         r="7.5734391"
         transform="rotate(90)" />
      <circle
         r="7.5734391"
         cy="-1909.3925"
         cx="-1936.1912"
         id="circle1485"
         style="fill:#ffffff;fill-opacity:1;stroke-width:0.999993;stroke-linejoin:round;stroke-dasharray:0.999993, 2;paint-order:markers fill stroke"
         transform="rotate(90)" />
      <circle
         style="fill:#ffffff;fill-opacity:1;stroke-width:0.999993;stroke-linejoin:round;stroke-dasharray:0.999993, 2;paint-order:markers fill stroke"
         id="circle1487"
         cx="-1936.1912"
         cy="-1876.5625"
         r="7.5734391"
         transform="rotate(90)" />
      <circle
         transform="rotate(90)"
         r="7.5734391"
         cy="-2007.8821"
         cx="-1909.3879"
         id="circle1489"
         style="fill:#ffffff;fill-opacity:1;stroke-width:0.999993;stroke-linejoin:round;stroke-dasharray:0.999993, 2;paint-order:markers fill stroke" />
      <circle
         transform="rotate(90)"
         style="fill:#ffffff;fill-opacity:1;stroke-width:0.999993;stroke-linejoin:round;stroke-dasharray:0.999993, 2;paint-order:markers fill stroke"
         id="circle1491"
         cx="-1909.3879"
         cy="-1975.0522"
         r="7.5734391" />
      <circle
         transform="rotate(90)"
         r="7.5734391"
         cy="-1942.2223"
         cx="-1909.3879"
         id="circle1493"
         style="fill:#ffffff;fill-opacity:1;stroke-width:0.999993;stroke-linejoin:round;stroke-dasharray:0.999993, 2;paint-order:markers fill stroke" />
      <circle
         transform="rotate(90)"
         style="fill:#ffffff;fill-opacity:1;stroke-width:0.999993;stroke-linejoin:round;stroke-dasharray:0.999993, 2;paint-order:markers fill stroke"
         id="circle1495"
         cx="-1909.3879"
         cy="-1909.3925"
         r="7.5734391" />
      <circle
         transform="rotate(90)"
         r="7.5734391"
         cy="-1876.5625"
         cx="-1909.3879"
         id="circle1497"
         style="fill:#ffffff;fill-opacity:1;stroke-width:0.999993;stroke-linejoin:round;stroke-dasharray:0.999993, 2;paint-order:markers fill stroke" />
      <circle
         r="7.5734391"
         cy="-2040.712"
         cx="-1962.9946"
         id="circle1499"
         style="fill:#ffffff;fill-opacity:1;stroke-width:0.999993;stroke-linejoin:round;stroke-dasharray:0.999993, 2;paint-order:markers fill stroke"
         transform="rotate(90)" />
      <circle
         transform="rotate(90)"
         style="fill:#ffffff;fill-opacity:1;stroke-width:0.999993;stroke-linejoin:round;stroke-dasharray:0.999993, 2;paint-order:markers fill stroke"
         id="circle1501"
         cx="-1936.1912"
         cy="-2040.712"
         r="7.5734391" />
      <circle
         r="7.5734391"
         cy="-2040.712"
         cx="-1909.3879"
         id="circle1503"
         style="fill:#ffffff;fill-opacity:1;stroke-width:0.999993;stroke-linejoin:round;stroke-dasharray:0.999993, 2;paint-order:markers fill stroke"
         transform="rotate(90)" />
      <circle
         transform="rotate(90)"
         r="7.5734391"
         cy="-1843.7327"
         cx="-1962.9946"
         id="circle1505"
         style="fill:#ffffff;fill-opacity:1;stroke-width:0.999993;stroke-linejoin:round;stroke-dasharray:0.999993, 2;paint-order:markers fill stroke" />
      <circle
         style="fill:#ffffff;fill-opacity:1;stroke-width:0.999993;stroke-linejoin:round;stroke-dasharray:0.999993, 2;paint-order:markers fill stroke"
         id="circle1507"
         cx="-1936.1912"
         cy="-1843.7327"
         r="7.5734391"
         transform="rotate(90)" />
      <circle
         transform="rotate(90)"
         r="7.5734391"
         cy="-1843.7327"
         cx="-1909.3879"
         id="circle1509"
         style="fill:#ffffff;fill-opacity:1;stroke-width:0.999993;stroke-linejoin:round;stroke-dasharray:0.999993, 2;paint-order:markers fill stroke" />
    </g>
    <rect
       ry="6.1500015"
       rx="6.1500015"
       y="-2022.2646"
       x="1859.25"
       height="12.300003"
       width="61.5"
       id="rect1511"
       style="fill:#ffffff;fill-opacity:1;stroke:none;stroke-width:0.99999;stroke-linejoin:round;stroke-miterlimit:4;stroke-dasharray:none;stroke-dashoffset:0;stroke-opacity:1;paint-order:markers fill stroke" />
    <g
       id="g3709"
       transform="translate(-10.021478,-30)">
      <g
         style="fill:#accdf4;fill-opacity:1"
         id="g3080">
        <rect
           style="vector-effect:none;fill:#accdf4;fill-opacity:1;stroke:none;stroke-width:5;stroke-linecap:butt;stroke-linejoin:miter;stroke-miterlimit:4;stroke-dasharray:none;stroke-dashoffset:0;stroke-opacity:1;paint-order:markers fill stroke"
           id="rect1515"
           width="70.221169"
           height="44.10117"
           x="1864.9387"
           y="-2060.6667"
           rx="0"
           ry="0" />
        <rect
           ry="0"
           rx="0"
           y="-2060.6667"
           x="1944.149"
           height="44.10117"
           width="70.221169"
           id="rect1517"
           style="vector-effect:none;fill:#accdf4;fill-opacity:1;stroke:none;stroke-width:5;stroke-linecap:butt;stroke-linejoin:miter;stroke-miterlimit:4;stroke-dasharray:none;stroke-dashoffset:0;stroke-opacity:1;paint-order:markers fill stroke" />
        <rect
           ry="0"
           rx="0"
           y="-2060.6667"
           x="1784.7506"
           height="44.10117"
           width="70.221169"
           id="rect1513"
           style="vector-effect:none;fill:#accdf4;fill-opacity:1;stroke:none;stroke-width:5;stroke-linecap:butt;stroke-linejoin:miter;stroke-miterlimit:4;stroke-dasharray:none;stroke-dashoffset:0;stroke-opacity:1;paint-order:markers fill stroke" />
      </g>
      <g
         id="g3072">
        <g
           transform="translate(-159.39847,-1.2207031e-4)"
           id="g3050">
          <rect
             style="vector-effect:none;fill:#ffffff;fill-opacity:1;stroke:#98c1f1;stroke-width:0.999998;stroke-linecap:butt;stroke-linejoin:miter;stroke-miterlimit:4;stroke-dasharray:none;stroke-dashoffset:0;stroke-opacity:1;paint-order:markers fill stroke"
             id="rect2964"
             width="35.110664"
             height="44.101048"
             x="2024.3372"
             y="-2060.6665"
             rx="1.9999999"
             ry="2" />
          <path
             style="fill:none;stroke:#98c1f1;stroke-width:0.972944px;stroke-linecap:butt;stroke-linejoin:miter;stroke-opacity:1"
             d="m 2024.3372,-2056.4167 h 35.1106"
             id="path2966"
             inkscape:connector-curvature="0" />
          <rect
             ry="2"
             rx="1.9999999"
             y="-2060.6665"
             x="2059.4478"
             height="44.101048"
             width="35.110664"
             id="rect2978"
             style="vector-effect:none;fill:#ffffff;fill-opacity:1;stroke:#98c1f1;stroke-width:0.999998;stroke-linecap:butt;stroke-linejoin:miter;stroke-miterlimit:4;stroke-dasharray:none;stroke-dashoffset:0;stroke-opacity:1;paint-order:markers fill stroke" />
          <path
             inkscape:connector-curvature="0"
             id="path2980"
             d="m 2059.4478,-2056.4167 h 35.1106"
             style="fill:none;stroke:#98c1f1;stroke-width:0.972944px;stroke-linecap:butt;stroke-linejoin:miter;stroke-opacity:1" />
        </g>
        <g
           id="g2999"
           transform="translate(-239.58666)">
          <rect
             style="vector-effect:none;fill:#98c1f1;fill-opacity:1;stroke:none;stroke-width:5;stroke-linecap:butt;stroke-linejoin:miter;stroke-miterlimit:4;stroke-dasharray:none;stroke-dashoffset:0;stroke-opacity:1;paint-order:markers fill stroke"
             id="rect2989"
             width="70.221169"
             height="44.10117"
             x="2024.3372"
             y="-2060.6667"
             rx="0"
             ry="0" />
          <rect
             ry="2"
             rx="1.9999999"
             y="-2060.6665"
             x="2024.3372"
             height="21.50095"
             width="33.061344"
             id="rect2991"
             style="vector-effect:none;fill:#ffffff;fill-opacity:1;stroke:#98c1f1;stroke-width:0.999996;stroke-linecap:butt;stroke-linejoin:miter;stroke-miterlimit:4;stroke-dasharray:none;stroke-dashoffset:0;stroke-opacity:1;paint-order:markers fill stroke" />
          <path
             inkscape:connector-curvature="0"
             id="path2993"
             d="m 2024.3372,-2056.4167 h 33.0613"
             style="fill:none;stroke:#98c1f1;stroke-width:0.972943px;stroke-linecap:butt;stroke-linejoin:miter;stroke-opacity:1" />
          <rect
             style="vector-effect:none;fill:#ffffff;fill-opacity:1;stroke:#98c1f1;stroke-width:0.999993;stroke-linecap:butt;stroke-linejoin:miter;stroke-miterlimit:4;stroke-dasharray:none;stroke-dashoffset:0;stroke-opacity:1;paint-order:markers fill stroke"
             id="rect2995"
             width="37.159912"
             height="44.101048"
             x="2057.3984"
             y="-2060.6665"
             rx="1.9999998"
             ry="2" />
          <path
             style="fill:none;stroke:#98c1f1;stroke-width:0.972943px;stroke-linecap:butt;stroke-linejoin:miter;stroke-opacity:1"
             d="m 2057.3985,-2056.4167 h 37.1599"
             id="path2997"
             inkscape:connector-curvature="0" />
          <rect
             style="vector-effect:none;fill:#ffffff;fill-opacity:1;stroke:#98c1f1;stroke-width:0.999996;stroke-linecap:butt;stroke-linejoin:miter;stroke-miterlimit:4;stroke-dasharray:none;stroke-dashoffset:0;stroke-opacity:1;paint-order:markers fill stroke"
             id="rect3001"
             width="33.061344"
             height="22.600069"
             x="2024.3372"
             y="-2039.1655"
             rx="1.9999999"
             ry="2" />
          <path
             style="fill:none;stroke:#98c1f1;stroke-width:0.972943px;stroke-linecap:butt;stroke-linejoin:miter;stroke-opacity:1"
             d="m 2024.3372,-2034.9157 h 33.0613"
             id="path3003"
             inkscape:connector-curvature="0" />
        </g>
        <g
           transform="translate(1395.149,-900.99988)"
           id="g3086">
          <rect
             style="opacity:1;vector-effect:none;fill:#ffffff;fill-opacity:1;stroke:#98c1f1;stroke-width:1;stroke-linecap:butt;stroke-linejoin:miter;stroke-miterlimit:4;stroke-dasharray:none;stroke-dashoffset:0;stroke-opacity:1;paint-order:markers fill stroke"
             id="rect3082"
             width="70.221245"
             height="44.101048"
             x="549"
             y="-1159.6666"
             rx="2"
             ry="2" />
          <path
             style="fill:none;stroke:#98c1f1;stroke-width:0.972941px;stroke-linecap:butt;stroke-linejoin:miter;stroke-opacity:1"
             d="m 549.00001,-1155.4167 h 70.22122"
             id="path3084"
             inkscape:connector-curvature="0" />
        </g>
      </g>
    </g>
    <flowRoot
       xml:space="preserve"
       id="flowRoot3122"
       style="font-style:normal;font-variant:normal;font-weight:normal;font-stretch:normal;font-size:14.6667px;line-height:1.25;font-family:Cantarell;-inkscape-font-specification:Cantarell;letter-spacing:0px;word-spacing:0px;fill:#0f0f0f;fill-opacity:1;stroke:none"
       transform="translate(1750.2624,-1895.9084)"><flowRegion
         style="font-style:normal;font-variant:normal;font-weight:normal;font-stretch:normal;font-size:14.6667px;font-family:Cantarell;-inkscape-font-specification:Cantarell;fill:#0f0f0f;fill-opacity:1"
         id="flowRegion3118"><rect
           style="font-style:normal;font-variant:normal;font-weight:normal;font-stretch:normal;font-size:14.6667px;font-family:Cantarell;-inkscape-font-specification:Cantarell;fill:#0f0f0f;fill-opacity:1;stroke-width:1"
           id="rect3116"
           width="334"
           height="48"
           x="184"
           y="132" /></flowRegion><flowPara
         id="flowPara3120"
         style="font-style:normal;font-variant:normal;font-weight:normal;font-stretch:normal;font-size:14.6667px;font-family:Cantarell;-inkscape-font-specification:Cantarell;fill:#0f0f0f;fill-opacity:1">edge swipe up (touchscreen)</flowPara></flowRoot>
    <flowRoot
       transform="translate(1326.2624,-1895.9084)"
       style="font-style:normal;font-variant:normal;font-weight:normal;font-stretch:normal;font-size:14.6667px;line-height:1.25;font-family:Cantarell;-inkscape-font-specification:Cantarell;text-align:end;letter-spacing:0px;word-spacing:0px;text-anchor:end;fill:#0f0f0f;fill-opacity:1;stroke:none"
       id="flowRoot3130"
       xml:space="preserve"><flowRegion
         id="flowRegion3126"
         style="font-style:normal;font-variant:normal;font-weight:normal;font-stretch:normal;font-size:14.6667px;font-family:Cantarell;-inkscape-font-specification:Cantarell;text-align:end;text-anchor:end;fill:#0f0f0f;fill-opacity:1"><rect
           y="132"
           x="184"
           height="48"
           width="334"
           id="rect3124"
           style="font-style:normal;font-variant:normal;font-weight:normal;font-stretch:normal;font-size:14.66666698px;font-family:Cantarell;-inkscape-font-specification:Cantarell;text-align:end;text-anchor:end;fill:#0f0f0f;fill-opacity:1" /></flowRegion><flowPara
         style="font-style:normal;font-variant:normal;font-weight:normal;font-stretch:normal;font-size:14.6667px;font-family:Cantarell;-inkscape-font-specification:Cantarell;text-align:end;text-anchor:end;fill:#0f0f0f;fill-opacity:1"
         id="flowPara3128">swipe down (touchscreen)</flowPara></flowRoot>
    <g
       transform="translate(-249.57116,-240)"
       id="g3202">
      <flowRoot
         transform="translate(2061.7869,-1419.9084)"
         style="font-style:normal;font-variant:normal;font-weight:normal;font-stretch:normal;font-size:14.6667px;line-height:1.25;font-family:Cantarell;-inkscape-font-specification:Cantarell;text-align:center;letter-spacing:0px;word-spacing:0px;text-anchor:middle;fill:#0f0f0f;fill-opacity:1;stroke:none"
         id="flowRoot3198"
         xml:space="preserve"><flowRegion
           id="flowRegion3194"
           style="font-style:normal;font-variant:normal;font-weight:normal;font-stretch:normal;font-size:14.6667px;font-family:Cantarell;-inkscape-font-specification:Cantarell;text-align:center;text-anchor:middle;fill:#0f0f0f;fill-opacity:1"><rect
             y="132"
             x="184"
             height="48"
             width="334"
             id="rect3192"
             style="font-style:normal;font-variant:normal;font-weight:normal;font-stretch:normal;font-size:14.66666698px;font-family:Cantarell;-inkscape-font-specification:Cantarell;text-align:center;text-anchor:middle;fill:#0f0f0f;fill-opacity:1" /></flowRegion><flowPara
           style="font-style:normal;font-variant:normal;font-weight:normal;font-stretch:normal;font-size:14.6667px;font-family:Cantarell;-inkscape-font-specification:Cantarell;text-align:center;text-anchor:middle;fill:#0f0f0f;fill-opacity:1"
           id="flowPara3196">swipe on bottom bar</flowPara></flowRoot>
      <path
         sodipodi:nodetypes="cc"
         inkscape:connector-curvature="0"
         id="path3200"
         d="m 2490.6713,-1278.6667 h 16"
         style="fill:none;stroke:#0f0f0f;stroke-width:1.5;stroke-linecap:butt;stroke-linejoin:miter;stroke-miterlimit:4;stroke-dasharray:none;stroke-opacity:1;marker-start:url(#marker3206);marker-end:url(#marker3216)" />
    </g>
    <g
       transform="matrix(1,0,0,0.93883471,79.83789,-147.61051)"
       id="g3721"
       style="stroke-width:1.03206">
      <rect
         ry="3.1954508"
         rx="3"
         style="vector-effect:none;fill:#ffffff;fill-opacity:1;stroke:#98c1f1;stroke-width:3.09619;stroke-linecap:round;stroke-linejoin:miter;stroke-miterlimit:4;stroke-dasharray:none;stroke-dashoffset:0;stroke-opacity:1"
         id="rect3711"
         width="169.03893"
         height="202.51292"
         x="1809.701"
         y="-1645.8514" />
      <g
         style="stroke-width:2.0667"
         transform="matrix(0.49937634,0,0,0.49937634,1587.4786,-330.91045)"
         id="g3717">
        <rect
           style="color:#bebebe;display:inline;overflow:visible;visibility:visible;fill:none;stroke:none;stroke-width:2.0667;marker:none;enable-background:new"
           id="rect3713"
           y="-2627.6665"
           x="-776"
           height="16"
           width="16.070976"
           transform="scale(-1,1)" />
        <path
           sodipodi:nodetypes="ccsccccccccccccccccccccccc"
           style="color:#bebebe;font-style:normal;font-variant:normal;font-weight:normal;font-stretch:normal;font-size:medium;line-height:normal;font-family:'Andale Mono';-inkscape-font-specification:'Andale Mono';text-indent:0;text-align:start;text-decoration:none;text-decoration-line:none;letter-spacing:normal;word-spacing:normal;text-transform:none;writing-mode:lr-tb;direction:ltr;text-anchor:start;display:inline;overflow:visible;visibility:visible;fill:#98c1f1;fill-opacity:1;fill-rule:nonzero;stroke:none;stroke-width:3.68131;marker:none;enable-background:new"
           id="path3715"
           inkscape:connector-curvature="0"
           d="m 771.98226,-2623.6665 h -1.00444 c -0.0104,-1e-4 -0.0209,-4e-4 -0.0313,0 -0.25608,0.011 -0.51213,0.1286 -0.69055,0.3125 l -2.29137,2.2813 -2.32275,-2.2813 c -0.2668,-0.2305 -0.44866,-0.3055 -0.69055,-0.3125 h -1.00444 v 1 c 0,0.2865 0.0344,0.5507 0.25111,0.75 l 2.29137,2.2813 -2.25998,2.25 c -0.18903,0.1881 -0.28249,0.4534 -0.2825,0.7187 v 1 h 1.00444 c 0.26647,0 0.53294,-0.093 0.72193,-0.2812 l 2.29132,-2.2813 2.29137,2.2813 c 0.189,0.1882 0.45548,0.2812 0.72194,0.2812 h 1.00444 v -1 c 0,-0.2653 -0.0935,-0.5306 -0.2825,-0.7187 l -2.29137,-2.25 2.29137,-2.2813 c 0.21168,-0.1946 0.30451,-0.4692 0.2825,-0.75 z" />
      </g>
      <path
         style="fill:none;stroke:#98c1f1;stroke-width:2.06412;stroke-linecap:butt;stroke-linejoin:miter;stroke-miterlimit:4;stroke-dasharray:none;stroke-opacity:1"
         d="m 1809.701,-1632.618 h 168.2899"
         id="path3719"
         inkscape:connector-curvature="0" />
    </g>
  </g>
</svg>
